1 0.000000e+00 0
2 5.261262e-03 0
3 9.580330e-02 0
4 3.205647e-01 0
5 6.971635e-01 0
6 8.872535e-01 0
7 8.105817e-01 0
8 6.278864e-01 0
9 5.841898e-01 0
10 4.224892e-01 0
11 3.494098e-01 0
12 2.592959e-01 0
13 2.236046e-01 0
14 1.681625e-01 0
15 6.711686e-02 0
16 6.553550e-02 0
17 5.588684e-02 0
18 2.863316e-02 0
19 2.376852e-02 0
20 1.664849e-02 0
