1 0.000000e+00 0
2 0.000000e+00 0
3 7.516113e-04 0
4 1.483976e-02 0
5 2.069022e-02 0
6 2.146838e-02 0
7 2.037189e-02 0
8 1.699859e-02 0
9 1.256383e-02 0
10 1.314253e-02 0
11 1.292516e-02 0
12 1.201200e-02 0
13 8.918671e-03 0
14 6.010539e-03 0
15 7.647921e-03 0
16 6.421168e-03 0
17 6.338067e-03 0
18 5.826279e-03 0
19 3.733101e-03 0
20 3.096154e-03 0
