1 0.000000e+00 0
2 0.000000e+00 0
3 0.000000e+00 0
4 2.356141e-04 0
5 5.128071e-04 0
6 1.926492e-03 0
7 6.999043e-02 0
8 2.241905e-01 0
9 4.059133e-01 0
10 6.532869e-01 0
11 1.379172e+00 0
12 2.420253e+00 0
13 3.169662e+00 0
14 4.173611e+00 0
15 4.674050e+00 0
16 3.768311e+00 0
17 2.017827e+00 0
18 2.720038e-01 0
19 0.000000e+00 0
20 0.000000e+00 0
