1 4.580762e-01 0
2 5.158747e-01 0
3 4.997010e-01 0
4 5.307792e-01 0
5 5.095897e-01 0
6 4.797767e-01 0
7 4.510060e-01 0
8 4.259819e-01 0
9 4.365544e-01 0
10 4.423649e-01 0
11 4.296563e-01 0
12 4.321698e-01 0
13 4.931766e-01 0
14 4.857972e-01 0
15 4.909409e-01 0
16 5.289667e-01 0
17 4.661229e-01 0
18 5.309311e-01 0
19 4.842780e-01 0
20 4.743596e-01 0
