Number of events: 50000
Cross section of all events: 0.110764
Total weight of events: 50000
Total weight of all events normalised to luminosity: 2215.27
Total passed weight of all events normalised to luminosity: 14.8623
Acceptance: 0.670902
Correct b-lepton pairing in 0.828009 of the events.
Average number of b jets: 1.558
