1 7.754218e-05 0
2 2.609073e-02 0
3 1.007778e-01 0
4 1.921879e-01 0
5 3.997286e-01 0
6 5.017934e-01 0
7 8.037986e-01 0
8 1.035374e+00 0
9 1.322474e+00 0
10 1.608292e+00 0
11 1.875890e+00 0
12 2.052757e+00 0
13 2.356784e+00 0
14 2.071625e+00 0
15 1.270467e+00 0
16 5.310933e-01 0
17 3.199994e-02 0
18 0.000000e+00 0
19 0.000000e+00 0
20 0.000000e+00 0
