1 1.218266e-05 0
2 3.302145e-03 0
3 1.641061e-02 0
4 2.310753e-02 0
5 3.601218e-02 0
6 6.448932e-02 0
7 9.519929e-02 0
8 1.294578e-01 0
9 1.755303e-01 0
10 2.123225e-01 0
11 2.377579e-01 0
12 2.498187e-01 0
13 2.579794e-01 0
14 2.363608e-01 0
15 1.696391e-01 0
16 5.898867e-02 0
17 2.860452e-03 0
18 0.000000e+00 0
19 0.000000e+00 0
20 0.000000e+00 0
