1 4.873063e-05 0
2 1.355471e-02 0
3 6.610804e-02 0
4 1.382898e-01 0
5 1.434463e-01 0
6 1.956926e-01 0
7 2.098238e-01 0
8 1.814928e-01 0
9 1.782507e-01 0
10 1.981949e-01 0
11 1.461471e-01 0
12 1.235072e-01 0
13 1.181647e-01 0
14 9.310022e-02 0
15 6.874293e-02 0
16 4.710811e-02 0
17 3.387617e-02 0
18 1.109453e-02 0
19 2.605655e-03 0
20 0.000000e+00 0
