Number of events: 100000
Cross section of all events: 0.0636386
Total weight of events: 100000
Total weight of all events normalised to luminosity: 1272.77
Total passed weight of all events normalised to luminosity: 8.51482
Acceptance: 0.668999
Correct b-lepton pairing in 0.852869 of the events.
Average number of b jets: 1.56985
