Number of events: 100000
Cross section of all events: 0.00300526
Total weight of events: 100000
Total weight of all events normalised to luminosity: 60.1051
Total passed weight of all events normalised to luminosity: 0.379772
Acceptance: 0.631847
Correct b-lepton pairing in 0.859686 of the events.
Average number of b jets: 1.55099
