Number of events: 100000
Cross section of all events: 0.00886092
Total weight of events: 100000
Total weight of all events normalised to luminosity: 177.218
Total passed weight of all events normalised to luminosity: 1.11088
Acceptance: 0.626842
Correct b-lepton pairing in 0.853617 of the events.
Average number of b jets: 1.55558
