1 4.170559e-01 0
2 3.242739e-01 0
3 4.538835e-01 0
4 4.582059e-01 0
5 3.989918e-01 0
6 4.108744e-01 0
7 3.398175e-01 0
8 3.844931e-01 0
9 3.547462e-01 0
10 3.606612e-01 0
11 3.586837e-01 0
12 3.732496e-01 0
13 4.392562e-01 0
14 3.970135e-01 0
15 4.484765e-01 0
16 4.680298e-01 0
17 5.297681e-01 0
18 4.691892e-01 0
19 6.399070e-01 0
20 4.882461e-01 0
