Number of events: 100000
Cross section of all events: 0.00580404
Total weight of events: 100000
Total weight of all events normalised to luminosity: 116.081
Total passed weight of all events normalised to luminosity: 0.809154
Acceptance: 0.69706
Correct b-lepton pairing in 0.850125 of the events.
Average number of b jets: 1.57037
