1 0.000000e+00 0
2 2.706408e-03 0
3 9.668282e-03 0
4 2.061886e-02 0
5 3.838275e-02 0
6 6.101736e-02 0
7 9.106891e-02 0
8 1.287285e-01 0
9 1.508382e-01 0
10 1.830587e-01 0
11 2.092074e-01 0
12 2.502126e-01 0
13 2.428564e-01 0
14 2.116181e-01 0
15 1.560165e-01 0
16 5.779684e-02 0
17 2.736016e-03 0
18 0.000000e+00 0
19 0.000000e+00 0
20 0.000000e+00 0
