Number of events: 50000
Cross section of all events: 0.225446
Total weight of events: 50000
Total weight of all events normalised to luminosity: 4508.92
Total passed weight of all events normalised to luminosity: 29.338
Acceptance: 0.650665
Correct b-lepton pairing in 0.850827 of the events.
Average number of b jets: 1.54096
