Number of events: 100000
Cross section of all events: 0.0303612
Total weight of events: 100000
Total weight of all events normalised to luminosity: 607.225
Total passed weight of all events normalised to luminosity: 4.27304
Acceptance: 0.703699
Correct b-lepton pairing in 0.840022 of the events.
Average number of b jets: 1.57116
