1 1.171664e-02 0
2 2.657775e-02 0
3 3.575103e-02 0
4 4.568308e-02 0
5 4.287188e-02 0
6 4.079382e-02 0
7 4.910457e-02 0
8 4.591980e-02 0
9 4.707599e-02 0
10 4.390930e-02 0
11 4.292377e-02 0
12 4.302808e-02 0
13 4.130553e-02 0
14 4.318473e-02 0
15 3.882578e-02 0
16 3.629141e-02 0
17 3.249490e-02 0
18 3.247902e-02 0
19 3.143631e-02 0
20 2.778226e-02 0
