1 1.117694e-04 0
2 1.622384e-04 0
3 1.818185e-04 0
4 1.647131e-04 0
5 1.891981e-04 0
6 1.618442e-04 0
7 1.395458e-04 0
8 1.593774e-04 0
9 1.550803e-04 0
10 1.748733e-04 0
11 1.602238e-04 0
12 1.727746e-04 0
13 1.645960e-04 0
14 1.870660e-04 0
15 1.874049e-04 0
16 1.978352e-04 0
17 2.200809e-04 0
18 1.884828e-04 0
19 2.492633e-04 0
20 2.222983e-04 0
