Number of events: 50000
Cross section of all events: 0.0611004
Total weight of events: 50000
Total weight of all events normalised to luminosity: 1222.01
Total passed weight of all events normalised to luminosity: 8.16681
Acceptance: 0.66831
Correct b-lepton pairing in 0.815685 of the events.
Average number of b jets: 1.56167
