1 3.547650e-01 0
2 5.107198e-01 0
3 4.963834e-01 0
4 5.534541e-01 0
5 5.967052e-01 0
6 6.122328e-01 0
7 6.561554e-01 0
8 5.545088e-01 0
9 4.713877e-01 0
10 5.987877e-01 0
11 5.447675e-01 0
12 6.191188e-01 0
13 5.999998e-01 0
14 6.286800e-01 0
15 5.700739e-01 0
16 5.950664e-01 0
17 5.663044e-01 0
18 7.905169e-01 0
19 7.812364e-01 0
20 6.777726e-01 0
