1 2.425737e-02 0
2 6.889424e-02 0
3 7.918357e-02 0
4 8.904899e-02 0
5 9.167555e-02 0
6 1.001471e-01 0
7 8.886085e-02 0
8 9.437702e-02 0
9 1.002101e-01 0
10 8.886855e-02 0
11 8.423606e-02 0
12 8.876757e-02 0
13 8.844233e-02 0
14 7.705925e-02 0
15 7.560624e-02 0
16 7.665246e-02 0
17 7.753129e-02 0
18 6.430118e-02 0
19 5.728164e-02 0
20 5.962310e-02 0
