1 2.979683e-05 0
2 3.036622e-05 0
3 2.850253e-05 0
4 3.080870e-05 0
5 3.173928e-05 0
6 3.137961e-05 0
7 3.164368e-05 0
8 3.256860e-05 0
9 3.172651e-05 0
10 3.421447e-05 0
11 3.664407e-05 0
12 3.151251e-05 0
13 3.350430e-05 0
14 3.362832e-05 0
15 3.229192e-05 0
16 3.374690e-05 0
17 2.927056e-05 0
18 2.842591e-05 0
19 2.863881e-05 0
20 2.705530e-05 0
