Number of events: 50000
Cross section of all events: 0.128529
Total weight of events: 50000
Total weight of all events normalised to luminosity: 2570.59
Total passed weight of all events normalised to luminosity: 18.5065
Acceptance: 0.719932
Correct b-lepton pairing in 0.844119 of the events.
Average number of b jets: 1.56707
