1 6.862820e-02 0
2 7.308477e-02 0
3 6.833969e-02 0
4 7.123212e-02 0
5 7.376265e-02 0
6 7.635658e-02 0
7 8.696355e-02 0
8 8.264555e-02 0
9 8.637890e-02 0
10 8.445004e-02 0
11 8.117222e-02 0
12 8.548264e-02 0
13 8.035640e-02 0
14 8.465822e-02 0
15 7.578002e-02 0
16 8.188705e-02 0
17 7.638091e-02 0
18 7.795523e-02 0
19 7.341635e-02 0
20 6.739569e-02 0
