Number of events: 100000
Cross section of all events: 0.000603257
Total weight of events: 100000
Total weight of all events normalised to luminosity: 12.0651
Total passed weight of all events normalised to luminosity: 0.0944573
Acceptance: 0.782894
Correct b-lepton pairing in 0.844864 of the events.
Average number of b jets: 1.59501
