1 6.389035e-01 0
2 6.932419e-01 0
3 8.225459e-01 0
4 8.017049e-01 0
5 6.662633e-01 0
6 8.324480e-01 0
7 7.269743e-01 0
8 6.773285e-01 0
9 7.353611e-01 0
10 9.583563e-01 0
11 5.894218e-01 0
12 7.271341e-01 0
13 7.687932e-01 0
14 8.752787e-01 0
15 8.029908e-01 0
16 8.076921e-01 0
17 1.081569e+00 0
18 1.002691e+00 0
19 8.932244e-01 0
20 1.032475e+00 0
