1 1.161478e-04 0
2 1.897753e-04 0
3 2.954910e-04 0
4 4.584197e-04 0
5 6.533455e-04 0
6 9.671983e-04 0
7 1.137621e-03 0
8 1.621592e-03 0
9 2.004751e-03 0
10 3.534798e-03 0
11 3.817517e-03 0
12 1.974251e-03 0
13 1.408946e-03 0
14 1.128423e-03 0
15 8.276762e-04 0
16 6.929794e-04 0
17 4.397819e-04 0
18 3.403243e-04 0
19 2.223359e-04 0
20 1.320440e-04 0
