Number of events: 50000
Cross section of all events: 0.00277183
Total weight of events: 50000
Total weight of all events normalised to luminosity: 55.4366
Total passed weight of all events normalised to luminosity: 0.393179
Acceptance: 0.70924
Correct b-lepton pairing in 0.857732 of the events.
Average number of b jets: 1.57567
