1 0.000000e+00 0
2 7.395364e-07 0
3 1.246058e-03 0
4 3.928273e-03 0
5 6.280741e-03 0
6 7.840515e-03 0
7 7.690628e-03 0
8 6.676741e-03 0
9 6.206051e-03 0
10 3.605651e-03 0
11 3.155263e-03 0
12 2.225823e-03 0
13 2.455326e-03 0
14 1.205150e-03 0
15 9.497125e-04 0
16 4.797307e-04 0
17 3.464301e-04 0
18 1.888462e-04 0
19 2.474221e-04 0
20 2.619114e-06 0
