1 3.713671e-02 0
2 1.123121e-01 0
3 1.213527e-01 0
4 1.497709e-01 0
5 2.642508e-01 0
6 2.957006e-01 0
7 4.003678e-01 0
8 5.085263e-01 0
9 7.171858e-01 0
10 1.242918e+00 0
11 1.251285e+00 0
12 6.356585e-01 0
13 4.651945e-01 0
14 3.054144e-01 0
15 2.539471e-01 0
16 1.943937e-01 0
17 1.376246e-01 0
18 9.421395e-02 0
19 5.898564e-02 0
20 2.821581e-02 0
