1 4.110511e-03 0
2 1.788166e-02 0
3 3.538813e-02 0
4 6.972097e-02 0
5 1.038512e-01 0
6 1.595353e-01 0
7 1.943712e-01 0
8 3.121446e-01 0
9 4.334020e-01 0
10 7.768331e-01 0
11 7.378511e-01 0
12 3.986582e-01 0
13 2.763295e-01 0
14 1.865767e-01 0
15 1.348537e-01 0
16 9.776571e-02 0
17 5.266875e-02 0
18 2.819247e-02 0
19 8.459603e-03 0
20 4.344447e-03 0
