1 0.000000e+00 0
2 0.000000e+00 0
3 1.411529e-02 0
4 2.848727e-01 0
5 3.853290e-01 0
6 4.407605e-01 0
7 3.310881e-01 0
8 3.796905e-01 0
9 3.167953e-01 0
10 2.449421e-01 0
11 2.239666e-01 0
12 2.013055e-01 0
13 1.798152e-01 0
14 1.353562e-01 0
15 1.099397e-01 0
16 1.073632e-01 0
17 1.092525e-01 0
18 8.965197e-02 0
19 8.021179e-02 0
20 6.464881e-02 0
