Number of events: 100000
Cross section of all events: 0.0346048
Total weight of events: 100000
Total weight of all events normalised to luminosity: 692.095
Total passed weight of all events normalised to luminosity: 4.32478
Acceptance: 0.624882
Correct b-lepton pairing in 0.861118 of the events.
Average number of b jets: 1.55274
