1 1.529489e-02 0
2 1.378963e-02 0
3 1.730344e-02 0
4 1.834745e-02 0
5 2.330264e-02 0
6 1.788385e-02 0
7 1.773289e-02 0
8 1.912841e-02 0
9 1.641594e-02 0
10 1.940609e-02 0
11 1.640072e-02 0
12 1.751597e-02 0
13 1.462973e-02 0
14 1.596891e-02 0
15 1.724276e-02 0
16 2.228763e-02 0
17 2.465647e-02 0
18 1.992634e-02 0
19 2.060515e-02 0
20 2.269616e-02 0
