1 0.000000e+00 0
2 0.000000e+00 0
3 2.945955e-02 0
4 9.158908e-01 0
5 1.166310e+00 0
6 1.318313e+00 0
7 1.154784e+00 0
8 9.938244e-01 0
9 7.794830e-01 0
10 7.584589e-01 0
11 8.250741e-01 0
12 4.629019e-01 0
13 6.914955e-01 0
14 4.459814e-01 0
15 4.544935e-01 0
16 4.985427e-01 0
17 2.965168e-01 0
18 3.914913e-01 0
19 2.837149e-01 0
20 3.126054e-01 0
