1 1.364995e-02 0
2 9.399171e-03 0
3 8.564158e-03 0
4 1.685872e-02 0
5 1.852345e-02 0
6 1.541959e-02 0
7 1.553817e-02 0
8 1.726740e-02 0
9 1.233236e-02 0
10 1.721416e-02 0
11 2.345808e-02 0
12 2.850195e-02 0
13 2.657924e-02 0
14 3.845130e-02 0
15 4.067830e-02 0
16 4.844005e-02 0
17 4.226955e-02 0
18 5.872480e-02 0
19 5.436043e-02 0
20 7.294207e-02 0
