Number of events: 100000
Cross section of all events: 8.05599e-06
Total weight of events: 100000
Total weight of all events normalised to luminosity: 0.16112
Total passed weight of all events normalised to luminosity: 0.00119711
Acceptance: 0.742993
Correct b-lepton pairing in 0.848698 of the events.
Average number of b jets: 1.58358
