Number of events: 100000
Cross section of all events: 7.53912e-05
Total weight of events: 100000
Total weight of all events normalised to luminosity: 1.50782
Total passed weight of all events normalised to luminosity: 0.0111189
Acceptance: 0.73741
Correct b-lepton pairing in 0.861614 of the events.
Average number of b jets: 1.58405
