1 0.000000e+00 0
2 0.000000e+00 0
3 4.449428e-03 0
4 1.727555e-02 0
5 2.586358e-02 0
6 2.963449e-02 0
7 3.171193e-02 0
8 2.447105e-02 0
9 2.199468e-02 0
10 1.786018e-02 0
11 1.406398e-02 0
12 1.166718e-02 0
13 5.994931e-03 0
14 6.833248e-03 0
15 3.888487e-03 0
16 4.147392e-03 0
17 2.142413e-03 0
18 1.445135e-03 0
19 8.829903e-04 0
20 1.007060e-03 0
