1 0.000000e+00 0
2 1.890356e-03 0
3 4.755938e-02 0
4 1.891849e-01 0
5 2.992276e-01 0
6 3.144209e-01 0
7 3.276386e-01 0
8 2.791488e-01 0
9 2.055016e-01 0
10 1.878914e-01 0
11 1.330933e-01 0
12 9.146269e-02 0
13 5.949430e-02 0
14 5.980299e-02 0
15 4.358913e-02 0
16 2.693997e-02 0
17 3.002712e-02 0
18 1.809140e-02 0
19 1.431753e-02 0
20 9.015279e-03 0
