1 3.463418e-02 0
2 8.430374e-02 0
3 1.140204e-01 0
4 1.210162e-01 0
5 1.407594e-01 0
6 1.336313e-01 0
7 1.369789e-01 0
8 1.374367e-01 0
9 1.399875e-01 0
10 1.268340e-01 0
11 1.202965e-01 0
12 1.347461e-01 0
13 1.300495e-01 0
14 1.242188e-01 0
15 1.304054e-01 0
16 1.294275e-01 0
17 1.109518e-01 0
18 1.031532e-01 0
19 9.993242e-02 0
20 9.979220e-02 0
