1 1.944766e-04 0
2 1.237739e-03 0
3 2.334630e-03 0
4 4.201688e-03 0
5 5.550373e-03 0
6 9.187319e-03 0
7 1.294777e-02 0
8 1.818370e-02 0
9 2.250945e-02 0
10 4.127468e-02 0
11 4.383599e-02 0
12 2.139071e-02 0
13 1.590102e-02 0
14 1.146942e-02 0
15 7.991384e-03 0
16 5.445813e-03 0
17 2.749277e-03 0
18 1.580981e-03 0
19 7.290729e-04 0
20 1.015983e-04 0
