1 7.559700e-05 0
2 2.894913e-02 0
3 8.457077e-02 0
4 2.288874e-01 0
5 3.176073e-01 0
6 5.145690e-01 0
7 6.625508e-01 0
8 7.831000e-01 0
9 1.085588e+00 0
10 1.420671e+00 0
11 1.815575e+00 0
12 1.998198e+00 0
13 2.199279e+00 0
14 1.830921e+00 0
15 1.404203e+00 0
16 4.013329e-01 0
17 5.007864e-02 0
18 0.000000e+00 0
19 0.000000e+00 0
20 0.000000e+00 0
