1 2.883812e-05 0
2 8.953510e-05 0
3 2.321766e-04 0
4 5.011999e-04 0
5 6.383748e-04 0
6 1.009524e-03 0
7 1.375370e-03 0
8 1.989879e-03 0
9 2.675557e-03 0
10 5.075559e-03 0
11 4.878770e-03 0
12 2.507600e-03 0
13 1.689746e-03 0
14 1.137955e-03 0
15 7.903503e-04 0
16 4.840015e-04 0
17 3.513255e-04 0
18 1.342450e-04 0
19 6.435322e-05 0
20 1.602379e-05 0
