Number of events: 100000
Cross section of all events: 0.0120006
Total weight of events: 100000
Total weight of all events normalised to luminosity: 240.012
Total passed weight of all events normalised to luminosity: 1.64431
Acceptance: 0.685096
Correct b-lepton pairing in 0.837189 of the events.
Average number of b jets: 1.56858
