1 6.574156e-03 0
2 9.489247e-03 0
3 7.126832e-03 0
4 7.484318e-03 0
5 8.897478e-03 0
6 7.492560e-03 0
7 7.157638e-03 0
8 7.266639e-03 0
9 6.949581e-03 0
10 5.572733e-03 0
11 8.970529e-03 0
12 8.935926e-03 0
13 8.928829e-03 0
14 8.114342e-03 0
15 7.552535e-03 0
16 1.090038e-02 0
17 9.042542e-03 0
18 9.612146e-03 0
19 1.030950e-02 0
20 9.319332e-03 0
