1 5.696889e-02 0
2 2.226798e-01 0
3 3.295031e-01 0
4 4.774192e-01 0
5 5.288340e-01 0
6 7.224549e-01 0
7 1.030232e+00 0
8 1.254550e+00 0
9 1.802972e+00 0
10 2.901376e+00 0
11 2.852113e+00 0
12 1.614540e+00 0
13 1.260265e+00 0
14 9.489183e-01 0
15 6.879755e-01 0
16 5.179630e-01 0
17 3.664754e-01 0
18 2.318899e-01 0
19 1.395811e-01 0
20 6.838837e-02 0
