1 0.000000e+00 0
2 8.178337e-05 0
3 1.182177e-01 0
4 5.227399e-01 0
5 6.546988e-01 0
6 8.809898e-01 0
7 7.895823e-01 0
8 7.819237e-01 0
9 6.113781e-01 0
10 5.087416e-01 0
11 3.576573e-01 0
12 2.605645e-01 0
13 1.700707e-01 0
14 1.525610e-01 0
15 1.021363e-01 0
16 6.872925e-02 0
17 1.069731e-02 0
18 3.349765e-02 0
19 2.944460e-02 0
20 7.695859e-03 0
