1 4.636520e-01 0
2 4.317876e-01 0
3 4.071625e-01 0
4 4.266826e-01 0
5 4.233503e-01 0
6 4.113427e-01 0
7 4.374915e-01 0
8 4.197438e-01 0
9 4.115800e-01 0
10 4.057081e-01 0
11 4.195397e-01 0
12 3.802289e-01 0
13 4.092576e-01 0
14 4.254791e-01 0
15 4.347406e-01 0
16 4.066313e-01 0
17 4.447613e-01 0
18 4.661185e-01 0
19 4.749546e-01 0
20 4.470377e-01 0
