Number of events: 50000
Cross section of all events: 0.0108624
Total weight of events: 50000
Total weight of all events normalised to luminosity: 217.249
Total passed weight of all events normalised to luminosity: 1.53022
Acceptance: 0.704362
Correct b-lepton pairing in 0.862611 of the events.
Average number of b jets: 1.57533
