Number of events: 100000
Cross section of all events: 0.383252
Total weight of events: 100000
Total weight of all events normalised to luminosity: 7665.04
Total passed weight of all events normalised to luminosity: 51.5401
Acceptance: 0.672406
Correct b-lepton pairing in 0.834871 of the events.
Average number of b jets: 1.55522
