Number of events: 50000
Cross section of all events: 0.00503688
Total weight of events: 50000
Total weight of all events normalised to luminosity: 100.738
Total passed weight of all events normalised to luminosity: 0.675104
Acceptance: 0.67016
Correct b-lepton pairing in 0.840523 of the events.
Average number of b jets: 1.56129
