1 2.455921e-01 0
2 2.599143e-01 0
3 3.617312e-01 0
4 3.054790e-01 0
5 4.206612e-01 0
6 3.818785e-01 0
7 4.762950e-01 0
8 4.911890e-01 0
9 4.612584e-01 0
10 5.090256e-01 0
11 5.383288e-01 0
12 6.132208e-01 0
13 7.358737e-01 0
14 9.147253e-01 0
15 9.638925e-01 0
16 1.219533e+00 0
17 1.277853e+00 0
18 1.307137e+00 0
19 1.336161e+00 0
20 1.405434e+00 0
