1 2.428199e-04 0
2 6.181686e-04 0
3 9.440912e-04 0
4 1.356821e-03 0
5 1.567504e-03 0
6 1.975131e-03 0
7 2.933443e-03 0
8 3.718050e-03 0
9 5.059129e-03 0
10 9.493081e-03 0
11 9.210966e-03 0
12 5.159156e-03 0
13 3.458046e-03 0
14 2.618331e-03 0
15 1.718386e-03 0
16 1.568189e-03 0
17 1.089806e-03 0
18 7.896648e-04 0
19 4.773752e-04 0
20 1.785814e-04 0
