Number of events: 100000
Cross section of all events: 0.138746
Total weight of events: 100000
Total weight of all events normalised to luminosity: 2774.92
Total passed weight of all events normalised to luminosity: 20.5885
Acceptance: 0.74195
Correct b-lepton pairing in 0.85563 of the events.
Average number of b jets: 1.59211
