Number of events: 50000
Cross section of all events: 7.27095e-05
Total weight of events: 50000
Total weight of all events normalised to luminosity: 1.45419
Total passed weight of all events normalised to luminosity: 0.010347
Acceptance: 0.711528
Correct b-lepton pairing in 0.838801 of the events.
Average number of b jets: 1.57688
