1 2.336491e-04 0
2 4.986332e-03 0
3 1.439104e-02 0
4 2.687143e-02 0
5 3.093967e-02 0
6 3.559900e-02 0
7 3.016025e-02 0
8 3.196535e-02 0
9 2.882095e-02 0
10 2.741470e-02 0
11 2.414162e-02 0
12 2.022259e-02 0
13 1.510103e-02 0
14 1.612393e-02 0
15 1.091229e-02 0
16 8.459640e-03 0
17 5.115711e-03 0
18 2.387859e-03 0
19 4.960149e-04 0
20 0.000000e+00 0
