1 3.606270e-03 0
2 4.216766e-03 0
3 4.528749e-03 0
4 5.157897e-03 0
5 5.165936e-03 0
6 4.924215e-03 0
7 5.171914e-03 0
8 4.289863e-03 0
9 4.763169e-03 0
10 4.397892e-03 0
11 4.448313e-03 0
12 4.546175e-03 0
13 4.796705e-03 0
14 4.503730e-03 0
15 3.795843e-03 0
16 4.736215e-03 0
17 4.722481e-03 0
18 6.358455e-03 0
19 4.981511e-03 0
20 5.345174e-03 0
