Number of events: 50000
Cross section of all events: 0.00262128
Total weight of events: 50000
Total weight of all events normalised to luminosity: 52.4255
Total passed weight of all events normalised to luminosity: 0.389276
Acceptance: 0.742532
Correct b-lepton pairing in 0.857781 of the events.
Average number of b jets: 1.58813
