1 6.091857e-01 0
2 5.867862e-01 0
3 7.772211e-01 0
4 9.503745e-01 0
5 8.465484e-01 0
6 7.093158e-01 0
7 7.666385e-01 0
8 7.428189e-01 0
9 9.152619e-01 0
10 9.183163e-01 0
11 9.270134e-01 0
12 8.410246e-01 0
13 8.112437e-01 0
14 8.173195e-01 0
15 9.776359e-01 0
16 8.879898e-01 0
17 1.107754e+00 0
18 1.053392e+00 0
19 9.914223e-01 0
20 9.473837e-01 0
