Number of events: 50000
Cross section of all events: 0.345036
Total weight of events: 50000
Total weight of all events normalised to luminosity: 6900.71
Total passed weight of all events normalised to luminosity: 43.0465
Acceptance: 0.623798
Correct b-lepton pairing in 0.836282 of the events.
Average number of b jets: 1.55463
