Number of events: 100000
Cross section of all events: 0.0302478
Total weight of events: 100000
Total weight of all events normalised to luminosity: 604.955
Total passed weight of all events normalised to luminosity: 4.31238
Acceptance: 0.712843
Correct b-lepton pairing in 0.847513 of the events.
Average number of b jets: 1.57836
