Number of events: 50000
Cross section of all events: 0.0356019
Total weight of events: 50000
Total weight of all events normalised to luminosity: 712.037
Total passed weight of all events normalised to luminosity: 5.24156
Acceptance: 0.736135
Correct b-lepton pairing in 0.876359 of the events.
Average number of b jets: 1.59664
