Number of events: 100000
Cross section of all events: 0.00207627
Total weight of events: 100000
Total weight of all events normalised to luminosity: 41.5255
Total passed weight of all events normalised to luminosity: 0.301495
Acceptance: 0.726049
Correct b-lepton pairing in 0.838984 of the events.
Average number of b jets: 1.58356
