Number of events: 100000
Cross section of all events: 0.0182782
Total weight of events: 100000
Total weight of all events normalised to luminosity: 365.564
Total passed weight of all events normalised to luminosity: 2.36434
Acceptance: 0.646763
Correct b-lepton pairing in 0.828888 of the events.
Average number of b jets: 1.55625
