1 1.548036e-03 0
2 7.453408e-03 0
3 1.593942e-02 0
4 3.642723e-02 0
5 5.352949e-02 0
6 7.960525e-02 0
7 1.046515e-01 0
8 1.496852e-01 0
9 1.998334e-01 0
10 3.725432e-01 0
11 3.591963e-01 0
12 1.962599e-01 0
13 1.208043e-01 0
14 9.520355e-02 0
15 6.252290e-02 0
16 3.950263e-02 0
17 2.572773e-02 0
18 1.061856e-02 0
19 2.995097e-03 0
20 1.043791e-03 0
