Number of events: 100000
Cross section of all events: 0.0135445
Total weight of events: 100000
Total weight of all events normalised to luminosity: 270.89
Total passed weight of all events normalised to luminosity: 1.93509
Acceptance: 0.714345
Correct b-lepton pairing in 0.861732 of the events.
Average number of b jets: 1.58062
