1 2.133541e-02 0
2 5.063917e-02 0
3 6.454515e-02 0
4 7.138344e-02 0
5 7.206019e-02 0
6 7.213739e-02 0
7 7.957248e-02 0
8 7.548661e-02 0
9 6.484393e-02 0
10 6.897119e-02 0
11 6.805709e-02 0
12 6.217439e-02 0
13 7.181914e-02 0
14 5.998821e-02 0
15 5.599646e-02 0
16 6.473174e-02 0
17 5.624816e-02 0
18 5.923012e-02 0
19 5.560082e-02 0
20 4.492928e-02 0
