1 6.711969e-01 0
2 6.925240e-01 0
3 7.373179e-01 0
4 6.700555e-01 0
5 7.147675e-01 0
6 6.662872e-01 0
7 5.982366e-01 0
8 5.368093e-01 0
9 6.083394e-01 0
10 6.178675e-01 0
11 5.611288e-01 0
12 5.723597e-01 0
13 6.158530e-01 0
14 6.554580e-01 0
15 6.181728e-01 0
16 6.873522e-01 0
17 6.218825e-01 0
18 7.015116e-01 0
19 7.344299e-01 0
20 7.569515e-01 0
