1 7.437820e-04 0
2 1.888837e-02 0
3 5.716238e-02 0
4 1.068619e-01 0
5 1.391656e-01 0
6 1.491325e-01 0
7 1.712403e-01 0
8 1.396001e-01 0
9 1.353335e-01 0
10 1.272820e-01 0
11 1.147835e-01 0
12 1.009531e-01 0
13 8.307833e-02 0
14 7.835628e-02 0
15 6.296197e-02 0
16 3.777620e-02 0
17 2.481921e-02 0
18 7.370278e-03 0
19 8.176133e-04 0
20 0.000000e+00 0
