Number of events: 50000
Cross section of all events: 0.0770629
Total weight of events: 50000
Total weight of all events normalised to luminosity: 1541.26
Total passed weight of all events normalised to luminosity: 11.5055
Acceptance: 0.746502
Correct b-lepton pairing in 0.822293 of the events.
Average number of b jets: 1.57403
