1 1.031576e-02 0
2 5.057640e-02 0
3 1.185143e-01 0
4 2.105932e-01 0
5 2.968767e-01 0
6 4.530446e-01 0
7 6.452024e-01 0
8 8.847643e-01 0
9 1.323894e+00 0
10 2.292508e+00 0
11 2.114703e+00 0
12 1.072672e+00 0
13 7.128925e-01 0
14 5.423590e-01 0
15 3.194358e-01 0
16 2.136958e-01 0
17 1.545373e-01 0
18 6.830222e-02 0
19 9.009131e-03 0
20 1.161733e-02 0
