1 1.904456e-02 0
2 4.338057e-02 0
3 5.527042e-02 0
4 5.619488e-02 0
5 5.437024e-02 0
6 5.803577e-02 0
7 6.415808e-02 0
8 6.841945e-02 0
9 6.827715e-02 0
10 6.114301e-02 0
11 6.765842e-02 0
12 6.515275e-02 0
13 5.939015e-02 0
14 5.563050e-02 0
15 5.648001e-02 0
16 5.580598e-02 0
17 5.755562e-02 0
18 5.073720e-02 0
19 5.019694e-02 0
20 4.397717e-02 0
