1 1.048695e-01 0
2 9.685874e-02 0
3 9.746647e-02 0
4 1.206711e-01 0
5 1.071795e-01 0
6 1.141926e-01 0
7 1.221658e-01 0
8 1.263166e-01 0
9 1.161837e-01 0
10 1.249968e-01 0
11 1.068903e-01 0
12 1.076011e-01 0
13 9.937867e-02 0
14 1.115635e-01 0
15 1.057900e-01 0
16 9.967507e-02 0
17 1.097376e-01 0
18 1.038281e-01 0
19 9.267711e-02 0
20 8.556197e-02 0
