1 5.613723e-05 0
2 1.866373e-02 0
3 8.847513e-02 0
4 1.568104e-01 0
5 1.901025e-01 0
6 3.350366e-01 0
7 4.892760e-01 0
8 5.799400e-01 0
9 8.175667e-01 0
10 9.145628e-01 0
11 1.123593e+00 0
12 1.263660e+00 0
13 1.326226e+00 0
14 1.188343e+00 0
15 8.870370e-01 0
16 2.822448e-01 0
17 5.423888e-03 0
18 0.000000e+00 0
19 0.000000e+00 0
20 0.000000e+00 0
