1 0.000000e+00 0
2 1.088501e-03 0
3 2.568531e-03 0
4 6.986107e-03 0
5 9.892794e-03 0
6 1.522591e-02 0
7 2.134048e-02 0
8 3.073875e-02 0
9 4.181670e-02 0
10 4.731567e-02 0
11 5.640394e-02 0
12 6.226324e-02 0
13 6.705614e-02 0
14 5.477482e-02 0
15 3.831818e-02 0
16 1.432272e-02 0
17 5.366627e-04 0
18 0.000000e+00 0
19 0.000000e+00 0
20 0.000000e+00 0
