1 7.849325e-02 0
2 8.594631e-02 0
3 8.344215e-02 0
4 8.658817e-02 0
5 7.225138e-02 0
6 7.077458e-02 0
7 7.505049e-02 0
8 6.068746e-02 0
9 7.308431e-02 0
10 6.702832e-02 0
11 6.935481e-02 0
12 7.129275e-02 0
13 7.374938e-02 0
14 7.824965e-02 0
15 8.570778e-02 0
16 8.665499e-02 0
17 8.156216e-02 0
18 7.920648e-02 0
19 7.574949e-02 0
20 7.534212e-02 0
