1 3.933041e-02 0
2 4.841641e-02 0
3 5.216400e-02 0
4 5.553952e-02 0
5 6.352802e-02 0
6 4.818859e-02 0
7 5.666282e-02 0
8 6.479050e-02 0
9 5.129170e-02 0
10 5.416033e-02 0
11 6.350148e-02 0
12 5.539598e-02 0
13 6.336337e-02 0
14 6.566700e-02 0
15 5.812777e-02 0
16 6.066401e-02 0
17 7.485088e-02 0
18 6.525499e-02 0
19 7.381536e-02 0
20 6.901958e-02 0
