Number of events: 50000
Cross section of all events: 0.11019
Total weight of events: 50000
Total weight of all events normalised to luminosity: 2203.8
Total passed weight of all events normalised to luminosity: 12.572
Acceptance: 0.570469
Correct b-lepton pairing in 0.856823 of the events.
Average number of b jets: 1.54441
