# BEGIN PLOT
LegendOnly=//export0/scratch/karl/Work/TopPolarisation/plots/c2.yoda/TopPolarisation_Smearing/costhetaprod
DrawOnly=//export0/scratch/karl/Work/TopPolarisation/plots/c2.yoda/TopPolarisation_Smearing/costhetaprod
Legend=1
LogY=1
# END PLOT

# BEGIN HISTO1D //export0/scratch/karl/Work/TopPolarisation/plots/c2.yoda/TopPolarisation_Smearing/costhetaprod
LineColor=red
LineStyle=solid
Path=//export0/scratch/karl/Work/TopPolarisation/plots/c2.yoda/TopPolarisation_Smearing/costhetaprod
ScaledBy=5.3949875710400731e-11
Title=c2
XLabel=cos theta prod
YLabel=Relative Occurence
# xlow	 xhigh	 val	 errminus	 errplus
-1.000000e+00	-8.000000e-01	2.856673e-05	4.389151e-08	4.389151e-08
-8.000000e-01	-6.000000e-01	4.312483e-06	1.705352e-08	1.705352e-08
-6.000000e-01	-4.000000e-01	2.674970e-06	1.343104e-08	1.343104e-08
-4.000000e-01	-2.000000e-01	2.120769e-06	1.195906e-08	1.195906e-08
-2.000000e-01	-5.551115e-17	1.898834e-06	1.131602e-08	1.131602e-08
-5.551115e-17	2.000000e-01	1.897822e-06	1.131300e-08	1.131300e-08
2.000000e-01	4.000000e-01	2.127850e-06	1.197901e-08	1.197901e-08
4.000000e-01	6.000000e-01	2.687176e-06	1.346165e-08	1.346165e-08
6.000000e-01	8.000000e-01	4.310258e-06	1.704911e-08	1.704911e-08
8.000000e-01	1.000000e+00	2.830858e-05	4.369274e-08	4.369274e-08
# END HISTO1D

