1 6.834747e-02 0
2 6.982998e-02 0
3 7.927710e-02 0
4 9.951801e-02 0
5 9.885835e-02 0
6 8.576538e-02 0
7 7.766087e-02 0
8 9.633043e-02 0
9 7.717567e-02 0
10 9.236776e-02 0
11 8.641922e-02 0
12 9.953828e-02 0
13 8.448610e-02 0
14 1.068865e-01 0
15 8.703092e-02 0
16 9.369886e-02 0
17 9.585414e-02 0
18 1.047695e-01 0
19 1.159615e-01 0
20 9.675574e-02 0
