1 8.665673e-01 0
2 7.457501e-01 0
3 6.952849e-01 0
4 6.953372e-01 0
5 7.842804e-01 0
6 8.233454e-01 0
7 9.129299e-01 0
8 9.683746e-01 0
9 9.687431e-01 0
10 8.670197e-01 0
11 8.878964e-01 0
12 7.705354e-01 0
13 8.684259e-01 0
14 7.535617e-01 0
15 7.222958e-01 0
16 8.109356e-01 0
17 7.592826e-01 0
18 8.226795e-01 0
19 6.597443e-01 0
20 7.514085e-01 0
