Number of events: 100000
Cross section of all events: 0.00407609
Total weight of events: 100000
Total weight of all events normalised to luminosity: 81.5218
Total passed weight of all events normalised to luminosity: 0.56145
Acceptance: 0.688712
Correct b-lepton pairing in 0.831632 of the events.
Average number of b jets: 1.56075
