1 9.236048e-05 0
2 8.668361e-05 0
3 8.276905e-05 0
4 8.602496e-05 0
5 1.077314e-04 0
6 1.003831e-04 0
7 9.736591e-05 0
8 8.574107e-05 0
9 9.600787e-05 0
10 9.360425e-05 0
11 9.309178e-05 0
12 8.778722e-05 0
13 8.474980e-05 0
14 8.773696e-05 0
15 8.692163e-05 0
16 8.270629e-05 0
17 9.573246e-05 0
18 7.041574e-05 0
19 6.589728e-05 0
20 7.424455e-05 0
