1 0.000000e+00 0
2 2.544207e-04 0
3 8.051239e-04 0
4 1.962285e-03 0
5 2.249341e-03 0
6 4.331903e-03 0
7 4.696512e-03 0
8 6.204802e-03 0
9 8.578484e-03 0
10 9.815601e-03 0
11 1.188508e-02 0
12 1.230330e-02 0
13 1.332487e-02 0
14 1.336726e-02 0
15 7.983801e-03 0
16 3.522532e-03 0
17 2.215548e-04 0
18 0.000000e+00 0
19 0.000000e+00 0
20 0.000000e+00 0
