1 0.000000e+00 0
2 4.087859e-04 0
3 7.577617e-01 0
4 2.994059e+00 0
5 4.792274e+00 0
6 5.499842e+00 0
7 5.045868e+00 0
8 4.946093e+00 0
9 3.826182e+00 0
10 3.533179e+00 0
11 2.807493e+00 0
12 1.615501e+00 0
13 1.240121e+00 0
14 7.824963e-01 0
15 6.217183e-01 0
16 4.408360e-01 0
17 4.067000e-01 0
18 1.892883e-01 0
19 2.864805e-01 0
20 8.533894e-02 0
