Number of events: 50000
Cross section of all events: 0.273253
Total weight of events: 50000
Total weight of all events normalised to luminosity: 5465.05
Total passed weight of all events normalised to luminosity: 40.4902
Acceptance: 0.740893
Correct b-lepton pairing in 0.859737 of the events.
Average number of b jets: 1.56955
