1 3.007902e-02 0
2 2.320061e-02 0
3 3.026727e-02 0
4 3.718212e-02 0
5 3.714766e-02 0
6 3.910603e-02 0
7 3.930983e-02 0
8 4.257398e-02 0
9 4.381421e-02 0
10 4.126883e-02 0
11 5.145993e-02 0
12 5.196606e-02 0
13 8.028998e-02 0
14 8.610217e-02 0
15 8.508860e-02 0
16 1.125113e-01 0
17 1.260340e-01 0
18 1.310137e-01 0
19 1.371761e-01 0
20 1.276188e-01 0
