# BEGIN PLOT

# END PLOT

# BEGIN HISTO2D //export0/scratch/karl/Work/TopPolarisation/plots/dileptonic_gluon/g6.yoda/TopPolarisation_Smearing/AL_PRENORM
Path=//export0/scratch/karl/Work/TopPolarisation/plots/dileptonic_gluon/g6.yoda/TopPolarisation_Smearing/AL_PRENORM
ScaledBy=7.6610803639244059e-09
Title=g6
XLabel=lepton angle asymmetry pre norm
YLabel=Relative Occurence
ZLabel=
# xlow	 xhigh	 ylow	 yhigh	 val	 errminus	 errplus
2.000000e+03	2.200000e+03	-1.000000e+00	-8.000000e-01	9.777455e-08	2.163704e-09	2.163704e-09
2.000000e+03	2.200000e+03	-8.000000e-01	-6.000000e-01	2.395045e-07	3.386428e-09	3.386428e-09
2.000000e+03	2.200000e+03	-6.000000e-01	-4.000000e-01	3.880815e-07	4.310687e-09	4.310687e-09
2.000000e+03	2.200000e+03	-4.000000e-01	-2.000000e-01	5.383345e-07	5.077046e-09	5.077046e-09
2.000000e+03	2.200000e+03	-2.000000e-01	-5.551115e-17	6.806390e-07	5.708782e-09	5.708782e-09
2.000000e+03	2.200000e+03	-5.551115e-17	2.000000e-01	8.178682e-07	6.257872e-09	6.257872e-09
2.000000e+03	2.200000e+03	2.000000e-01	4.000000e-01	9.487290e-07	6.739941e-09	6.739941e-09
2.000000e+03	2.200000e+03	4.000000e-01	6.000000e-01	1.043774e-06	7.069494e-09	7.069494e-09
2.000000e+03	2.200000e+03	6.000000e-01	8.000000e-01	1.099461e-06	7.255626e-09	7.255626e-09
2.000000e+03	2.200000e+03	8.000000e-01	1.000000e+00	9.906255e-07	6.887154e-09	6.887154e-09
2.200000e+03	2.400000e+03	-1.000000e+00	-8.000000e-01	8.901218e-08	2.064475e-09	2.064475e-09
2.200000e+03	2.400000e+03	-8.000000e-01	-6.000000e-01	2.415155e-07	3.400616e-09	3.400616e-09
2.200000e+03	2.400000e+03	-6.000000e-01	-4.000000e-01	3.679235e-07	4.197239e-09	4.197239e-09
2.200000e+03	2.400000e+03	-4.000000e-01	-2.000000e-01	5.121910e-07	4.952232e-09	4.952232e-09
2.200000e+03	2.400000e+03	-2.000000e-01	-5.551115e-17	6.764735e-07	5.691286e-09	5.691286e-09
2.200000e+03	2.400000e+03	-5.551115e-17	2.000000e-01	8.282107e-07	6.297315e-09	6.297315e-09
2.200000e+03	2.400000e+03	2.000000e-01	4.000000e-01	9.537565e-07	6.757776e-09	6.757776e-09
2.200000e+03	2.400000e+03	4.000000e-01	6.000000e-01	1.053494e-06	7.102335e-09	7.102335e-09
2.200000e+03	2.400000e+03	6.000000e-01	8.000000e-01	1.061155e-06	7.128112e-09	7.128112e-09
2.200000e+03	2.400000e+03	8.000000e-01	1.000000e+00	9.734360e-07	6.827139e-09	6.827139e-09
2.400000e+03	2.600000e+03	-1.000000e+00	-8.000000e-01	8.206933e-08	1.982328e-09	1.982328e-09
2.400000e+03	2.600000e+03	-8.000000e-01	-6.000000e-01	2.035932e-07	3.122243e-09	3.122243e-09
2.400000e+03	2.600000e+03	-6.000000e-01	-4.000000e-01	3.407265e-07	4.039131e-09	4.039131e-09
2.400000e+03	2.600000e+03	-4.000000e-01	-2.000000e-01	4.763277e-07	4.775710e-09	4.775710e-09
2.400000e+03	2.600000e+03	-2.000000e-01	-5.551115e-17	6.358698e-07	5.517840e-09	5.517840e-09
2.400000e+03	2.600000e+03	-5.551115e-17	2.000000e-01	7.738650e-07	6.087200e-09	6.087200e-09
2.400000e+03	2.600000e+03	2.000000e-01	4.000000e-01	8.949577e-07	6.546155e-09	6.546155e-09
2.400000e+03	2.600000e+03	4.000000e-01	6.000000e-01	9.542355e-07	6.759472e-09	6.759472e-09
2.400000e+03	2.600000e+03	6.000000e-01	8.000000e-01	9.480587e-07	6.737560e-09	6.737560e-09
2.400000e+03	2.600000e+03	8.000000e-01	1.000000e+00	8.596690e-07	6.415797e-09	6.415797e-09
2.600000e+03	2.800000e+03	-1.000000e+00	-8.000000e-01	7.388155e-08	1.880845e-09	1.880845e-09
2.600000e+03	2.800000e+03	-8.000000e-01	-6.000000e-01	1.840096e-07	2.968282e-09	2.968282e-09
2.600000e+03	2.800000e+03	-6.000000e-01	-4.000000e-01	2.983990e-07	3.779930e-09	3.779930e-09
2.600000e+03	2.800000e+03	-4.000000e-01	-2.000000e-01	4.176725e-07	4.472012e-09	4.472012e-09
2.600000e+03	2.800000e+03	-2.000000e-01	-5.551115e-17	5.658188e-07	5.205035e-09	5.205035e-09
2.600000e+03	2.800000e+03	-5.551115e-17	2.000000e-01	6.985470e-07	5.783394e-09	5.783394e-09
2.600000e+03	2.800000e+03	2.000000e-01	4.000000e-01	8.013010e-07	6.194167e-09	6.194167e-09
2.600000e+03	2.800000e+03	4.000000e-01	6.000000e-01	8.372125e-07	6.331445e-09	6.331445e-09
2.600000e+03	2.800000e+03	6.000000e-01	8.000000e-01	8.008222e-07	6.192316e-09	6.192316e-09
2.600000e+03	2.800000e+03	8.000000e-01	1.000000e+00	7.119060e-07	5.838433e-09	5.838433e-09
2.800000e+03	3.000000e+03	-1.000000e+00	-8.000000e-01	5.654835e-08	1.645489e-09	1.645489e-09
2.800000e+03	3.000000e+03	-8.000000e-01	-6.000000e-01	1.481940e-07	2.663792e-09	2.663792e-09
2.800000e+03	3.000000e+03	-6.000000e-01	-4.000000e-01	2.319871e-07	3.332859e-09	3.332859e-09
2.800000e+03	3.000000e+03	-4.000000e-01	-2.000000e-01	3.367045e-07	4.015221e-09	4.015221e-09
2.800000e+03	3.000000e+03	-2.000000e-01	-5.551115e-17	4.551640e-07	4.668410e-09	4.668410e-09
2.800000e+03	3.000000e+03	-5.551115e-17	2.000000e-01	5.697450e-07	5.223063e-09	5.223063e-09
2.800000e+03	3.000000e+03	2.000000e-01	4.000000e-01	6.409453e-07	5.539817e-09	5.539817e-09
2.800000e+03	3.000000e+03	4.000000e-01	6.000000e-01	6.379285e-07	5.526766e-09	5.526766e-09
2.800000e+03	3.000000e+03	6.000000e-01	8.000000e-01	6.124075e-07	5.415085e-09	5.415085e-09
2.800000e+03	3.000000e+03	8.000000e-01	1.000000e+00	5.408245e-07	5.088774e-09	5.088774e-09
3.000000e+03	3.200000e+03	-1.000000e+00	-8.000000e-01	4.232748e-08	1.423627e-09	1.423627e-09
3.000000e+03	3.200000e+03	-8.000000e-01	-6.000000e-01	1.067284e-07	2.260607e-09	2.260607e-09
3.000000e+03	3.200000e+03	-6.000000e-01	-4.000000e-01	1.679213e-07	2.835554e-09	2.835554e-09
3.000000e+03	3.200000e+03	-4.000000e-01	-2.000000e-01	2.465432e-07	3.435829e-09	3.435829e-09
3.000000e+03	3.200000e+03	-2.000000e-01	-5.551115e-17	3.270803e-07	3.957420e-09	3.957420e-09
3.000000e+03	3.200000e+03	-5.551115e-17	2.000000e-01	4.072342e-07	4.415778e-09	4.415778e-09
3.000000e+03	3.200000e+03	2.000000e-01	4.000000e-01	4.483167e-07	4.633162e-09	4.633162e-09
3.000000e+03	3.200000e+03	4.000000e-01	6.000000e-01	4.470240e-07	4.626477e-09	4.626477e-09
3.000000e+03	3.200000e+03	6.000000e-01	8.000000e-01	4.096762e-07	4.428997e-09	4.428997e-09
3.000000e+03	3.200000e+03	8.000000e-01	1.000000e+00	3.666785e-07	4.190132e-09	4.190132e-09
3.200000e+03	3.400000e+03	-1.000000e+00	-8.000000e-01	2.848965e-08	1.167961e-09	1.167961e-09
3.200000e+03	3.400000e+03	-8.000000e-01	-6.000000e-01	7.033830e-08	1.835190e-09	1.835190e-09
3.200000e+03	3.400000e+03	-6.000000e-01	-4.000000e-01	1.196086e-07	2.393130e-09	2.393130e-09
3.200000e+03	3.400000e+03	-4.000000e-01	-2.000000e-01	1.751514e-07	2.895955e-09	2.895955e-09
3.200000e+03	3.400000e+03	-2.000000e-01	-5.551115e-17	2.283481e-07	3.306616e-09	3.306616e-09
3.200000e+03	3.400000e+03	-5.551115e-17	2.000000e-01	2.619132e-07	3.541308e-09	3.541308e-09
3.200000e+03	3.400000e+03	2.000000e-01	4.000000e-01	2.840345e-07	3.687828e-09	3.687828e-09
3.200000e+03	3.400000e+03	4.000000e-01	6.000000e-01	2.817840e-07	3.673189e-09	3.673189e-09
3.200000e+03	3.400000e+03	6.000000e-01	8.000000e-01	2.575560e-07	3.511728e-09	3.511728e-09
3.200000e+03	3.400000e+03	8.000000e-01	1.000000e+00	2.283481e-07	3.306616e-09	3.306616e-09
3.400000e+03	3.600000e+03	-1.000000e+00	-8.000000e-01	1.594462e-08	8.737598e-10	8.737598e-10
3.400000e+03	3.600000e+03	-8.000000e-01	-6.000000e-01	4.749870e-08	1.508085e-09	1.508085e-09
3.400000e+03	3.600000e+03	-6.000000e-01	-4.000000e-01	8.197355e-08	1.981171e-09	1.981171e-09
3.400000e+03	3.600000e+03	-4.000000e-01	-2.000000e-01	1.150598e-07	2.347183e-09	2.347183e-09
3.400000e+03	3.600000e+03	-2.000000e-01	-5.551115e-17	1.450817e-07	2.635672e-09	2.635672e-09
3.400000e+03	3.600000e+03	-5.551115e-17	2.000000e-01	1.649526e-07	2.810377e-09	2.810377e-09
3.400000e+03	3.600000e+03	2.000000e-01	4.000000e-01	1.709379e-07	2.860910e-09	2.860910e-09
3.400000e+03	3.600000e+03	4.000000e-01	6.000000e-01	1.608348e-07	2.775077e-09	2.775077e-09
3.400000e+03	3.600000e+03	6.000000e-01	8.000000e-01	1.549932e-07	2.724215e-09	2.724215e-09
3.400000e+03	3.600000e+03	8.000000e-01	1.000000e+00	1.359363e-07	2.551248e-09	2.551248e-09
3.600000e+03	3.800000e+03	-1.000000e+00	-8.000000e-01	9.145415e-09	6.617390e-10	6.617390e-10
3.600000e+03	3.800000e+03	-8.000000e-01	-6.000000e-01	2.944727e-08	1.187429e-09	1.187429e-09
3.600000e+03	3.800000e+03	-6.000000e-01	-4.000000e-01	5.477673e-08	1.619508e-09	1.619508e-09
3.600000e+03	3.800000e+03	-4.000000e-01	-2.000000e-01	7.096075e-08	1.843292e-09	1.843292e-09
3.600000e+03	3.800000e+03	-2.000000e-01	-5.551115e-17	8.144685e-08	1.974796e-09	1.974796e-09
3.600000e+03	3.800000e+03	-5.551115e-17	2.000000e-01	9.068805e-08	2.083819e-09	2.083819e-09
3.600000e+03	3.800000e+03	2.000000e-01	4.000000e-01	9.494952e-08	2.132217e-09	2.132217e-09
3.600000e+03	3.800000e+03	4.000000e-01	6.000000e-01	9.226813e-08	2.101894e-09	2.101894e-09
3.600000e+03	3.800000e+03	6.000000e-01	8.000000e-01	8.781512e-08	2.050547e-09	2.050547e-09
3.600000e+03	3.800000e+03	8.000000e-01	1.000000e+00	7.934008e-08	1.949087e-09	1.949087e-09
3.800000e+03	4.000000e+03	-1.000000e+00	-8.000000e-01	5.745810e-09	5.245183e-10	5.245183e-10
3.800000e+03	4.000000e+03	-8.000000e-01	-6.000000e-01	1.757260e-08	9.172823e-10	9.172823e-10
3.800000e+03	4.000000e+03	-6.000000e-01	-4.000000e-01	3.361300e-08	1.268641e-09	1.268641e-09
3.800000e+03	4.000000e+03	-4.000000e-01	-2.000000e-01	4.347663e-08	1.442823e-09	1.442823e-09
3.800000e+03	4.000000e+03	-2.000000e-01	-5.551115e-17	5.108983e-08	1.564056e-09	1.564056e-09
3.800000e+03	4.000000e+03	-5.551115e-17	2.000000e-01	5.180805e-08	1.575011e-09	1.575011e-09
3.800000e+03	4.000000e+03	2.000000e-01	4.000000e-01	5.602165e-08	1.637808e-09	1.637808e-09
3.800000e+03	4.000000e+03	4.000000e-01	6.000000e-01	4.826480e-08	1.520199e-09	1.520199e-09
3.800000e+03	4.000000e+03	6.000000e-01	8.000000e-01	4.903092e-08	1.532216e-09	1.532216e-09
3.800000e+03	4.000000e+03	8.000000e-01	1.000000e+00	4.529615e-08	1.472705e-09	1.472705e-09
4.000000e+03	4.200000e+03	-1.000000e+00	-8.000000e-01	4.309358e-09	4.542462e-10	4.542462e-10
4.000000e+03	4.200000e+03	-8.000000e-01	-6.000000e-01	1.225773e-08	7.661080e-10	7.661080e-10
4.000000e+03	4.200000e+03	-6.000000e-01	-4.000000e-01	2.102009e-08	1.003234e-09	1.003234e-09
4.000000e+03	4.200000e+03	-4.000000e-01	-2.000000e-01	2.757990e-08	1.149162e-09	1.149162e-09
4.000000e+03	4.200000e+03	-2.000000e-01	-5.551115e-17	2.983033e-08	1.195127e-09	1.195127e-09
4.000000e+03	4.200000e+03	-5.551115e-17	2.000000e-01	3.069220e-08	1.212269e-09	1.212269e-09
4.000000e+03	4.200000e+03	2.000000e-01	4.000000e-01	2.887270e-08	1.175787e-09	1.175787e-09
4.000000e+03	4.200000e+03	4.000000e-01	6.000000e-01	3.141043e-08	1.226371e-09	1.226371e-09
4.000000e+03	4.200000e+03	6.000000e-01	8.000000e-01	2.681377e-08	1.133089e-09	1.133089e-09
4.000000e+03	4.200000e+03	8.000000e-01	1.000000e+00	2.537733e-08	1.102321e-09	1.102321e-09
4.200000e+03	4.400000e+03	-1.000000e+00	-8.000000e-01	3.064433e-09	3.830540e-10	3.830540e-10
4.200000e+03	4.400000e+03	-8.000000e-01	-6.000000e-01	8.331425e-09	6.316037e-10	6.316037e-10
4.200000e+03	4.400000e+03	-6.000000e-01	-4.000000e-01	1.240138e-08	7.705839e-10	7.705839e-10
4.200000e+03	4.400000e+03	-4.000000e-01	-2.000000e-01	1.608827e-08	8.776869e-10	8.776869e-10
4.200000e+03	4.400000e+03	-2.000000e-01	-5.551115e-17	1.738108e-08	9.122698e-10	9.122698e-10
4.200000e+03	4.400000e+03	-5.551115e-17	2.000000e-01	1.924846e-08	9.600260e-10	9.600260e-10
4.200000e+03	4.400000e+03	2.000000e-01	4.000000e-01	1.709379e-08	9.046992e-10	9.046992e-10
4.200000e+03	4.400000e+03	4.000000e-01	6.000000e-01	1.541793e-08	8.592075e-10	8.592075e-10
4.200000e+03	4.400000e+03	6.000000e-01	8.000000e-01	1.484334e-08	8.430451e-10	8.430451e-10
4.200000e+03	4.400000e+03	8.000000e-01	1.000000e+00	1.374206e-08	8.111681e-10	8.111681e-10
4.400000e+03	4.600000e+03	-1.000000e+00	-8.000000e-01	2.058915e-09	3.139817e-10	3.139817e-10
4.400000e+03	4.600000e+03	-8.000000e-01	-6.000000e-01	5.410637e-09	5.089900e-10	5.089900e-10
4.400000e+03	4.600000e+03	-6.000000e-01	-4.000000e-01	9.193298e-09	6.634690e-10	6.634690e-10
4.400000e+03	4.600000e+03	-4.000000e-01	-2.000000e-01	1.120433e-08	7.324500e-10	7.324500e-10
4.400000e+03	4.600000e+03	-2.000000e-01	-5.551115e-17	1.254502e-08	7.750339e-10	7.750339e-10
4.400000e+03	4.600000e+03	-5.551115e-17	2.000000e-01	1.149162e-08	7.417809e-10	7.417809e-10
4.400000e+03	4.600000e+03	2.000000e-01	4.000000e-01	1.029458e-08	7.020843e-10	7.020843e-10
4.400000e+03	4.600000e+03	4.000000e-01	6.000000e-01	9.528468e-09	6.754552e-10	6.754552e-10
4.400000e+03	4.600000e+03	6.000000e-01	8.000000e-01	8.283542e-09	6.297861e-10	6.297861e-10
4.400000e+03	4.600000e+03	8.000000e-01	1.000000e+00	7.708963e-09	6.075513e-10	6.075513e-10
4.600000e+03	4.800000e+03	-1.000000e+00	-8.000000e-01	1.244926e-09	2.441500e-10	2.441500e-10
4.600000e+03	4.800000e+03	-8.000000e-01	-6.000000e-01	3.351722e-09	4.006075e-10	4.006075e-10
4.600000e+03	4.800000e+03	-6.000000e-01	-4.000000e-01	6.464038e-09	5.563357e-10	5.563357e-10
4.600000e+03	4.800000e+03	-4.000000e-01	-2.000000e-01	6.128865e-09	5.417202e-10	5.417202e-10
4.600000e+03	4.800000e+03	-2.000000e-01	-5.551115e-17	8.235663e-09	6.279633e-10	6.279633e-10
4.600000e+03	4.800000e+03	-5.551115e-17	2.000000e-01	7.469552e-09	5.980429e-10	5.980429e-10
4.600000e+03	4.800000e+03	2.000000e-01	4.000000e-01	6.176745e-09	5.438322e-10	5.438322e-10
4.600000e+03	4.800000e+03	4.000000e-01	6.000000e-01	5.362758e-09	5.067329e-10	5.067329e-10
4.600000e+03	4.800000e+03	6.000000e-01	8.000000e-01	6.080982e-09	5.396000e-10	5.396000e-10
4.600000e+03	4.800000e+03	8.000000e-01	1.000000e+00	5.219110e-09	4.999002e-10	4.999002e-10
4.800000e+03	5.000000e+03	-1.000000e+00	-8.000000e-01	1.005517e-09	2.194218e-10	2.194218e-10
4.800000e+03	5.000000e+03	-8.000000e-01	-6.000000e-01	2.968667e-09	3.770213e-10	3.770213e-10
4.800000e+03	5.000000e+03	-6.000000e-01	-4.000000e-01	3.830540e-09	4.282674e-10	4.282674e-10
4.800000e+03	5.000000e+03	-4.000000e-01	-2.000000e-01	4.979703e-09	4.883000e-10	4.883000e-10
4.800000e+03	5.000000e+03	-2.000000e-01	-5.551115e-17	4.357240e-09	4.567628e-10	4.567628e-10
4.800000e+03	5.000000e+03	-5.551115e-17	2.000000e-01	3.734777e-09	4.228802e-10	4.228802e-10
4.800000e+03	5.000000e+03	2.000000e-01	4.000000e-01	4.165713e-09	4.466113e-10	4.466113e-10
4.800000e+03	5.000000e+03	4.000000e-01	6.000000e-01	2.920788e-09	3.739684e-10	3.739684e-10
4.800000e+03	5.000000e+03	6.000000e-01	8.000000e-01	3.686895e-09	4.201607e-10	4.201607e-10
4.800000e+03	5.000000e+03	8.000000e-01	1.000000e+00	3.016550e-09	3.800496e-10	3.800496e-10
5.000000e+03	5.200000e+03	-1.000000e+00	-8.000000e-01	1.005517e-09	2.194218e-10	2.194218e-10
5.000000e+03	5.200000e+03	-8.000000e-01	-6.000000e-01	1.388571e-09	2.578511e-10	2.578511e-10
5.000000e+03	5.200000e+03	-6.000000e-01	-4.000000e-01	2.585615e-09	3.518576e-10	3.518576e-10
5.000000e+03	5.200000e+03	-4.000000e-01	-2.000000e-01	2.920787e-09	3.739684e-10	3.739684e-10
5.000000e+03	5.200000e+03	-2.000000e-01	-5.551115e-17	2.681378e-09	3.583142e-10	3.583142e-10
5.000000e+03	5.200000e+03	-5.551115e-17	2.000000e-01	2.250442e-09	3.282608e-10	3.282608e-10
5.000000e+03	5.200000e+03	2.000000e-01	4.000000e-01	1.723743e-09	2.872905e-10	2.872905e-10
5.000000e+03	5.200000e+03	4.000000e-01	6.000000e-01	1.771625e-09	2.912533e-10	2.912533e-10
5.000000e+03	5.200000e+03	6.000000e-01	8.000000e-01	2.154679e-09	3.212006e-10	3.212006e-10
5.000000e+03	5.200000e+03	8.000000e-01	1.000000e+00	1.915270e-09	3.028308e-10	3.028308e-10
5.200000e+03	5.400000e+03	-1.000000e+00	-8.000000e-01	7.661080e-10	1.915270e-10	1.915270e-10
5.200000e+03	5.400000e+03	-8.000000e-01	-6.000000e-01	2.058915e-09	3.139817e-10	3.139817e-10
5.200000e+03	5.400000e+03	-6.000000e-01	-4.000000e-01	2.106797e-09	3.176116e-10	3.176116e-10
5.200000e+03	5.400000e+03	-4.000000e-01	-2.000000e-01	2.298324e-09	3.317346e-10	3.317346e-10
5.200000e+03	5.400000e+03	-2.000000e-01	-5.551115e-17	2.346206e-09	3.351723e-10	3.351723e-10
5.200000e+03	5.400000e+03	-5.551115e-17	2.000000e-01	1.388571e-09	2.578511e-10	2.578511e-10
5.200000e+03	5.400000e+03	2.000000e-01	4.000000e-01	1.197044e-09	2.394088e-10	2.394088e-10
5.200000e+03	5.400000e+03	4.000000e-01	6.000000e-01	1.388571e-09	2.578511e-10	2.578511e-10
5.200000e+03	5.400000e+03	6.000000e-01	8.000000e-01	1.244925e-09	2.441500e-10	2.441500e-10
5.200000e+03	5.400000e+03	8.000000e-01	1.000000e+00	1.484334e-09	2.665943e-10	2.665943e-10
5.400000e+03	5.600000e+03	-1.000000e+00	-8.000000e-01	8.618715e-10	2.031451e-10	2.031451e-10
5.400000e+03	5.600000e+03	-8.000000e-01	-6.000000e-01	7.182262e-10	1.854452e-10	1.854452e-10
5.400000e+03	5.600000e+03	-6.000000e-01	-4.000000e-01	1.149162e-09	2.345717e-10	2.345717e-10
5.400000e+03	5.600000e+03	-4.000000e-01	-2.000000e-01	9.576350e-10	2.141337e-10	2.141337e-10
5.400000e+03	5.600000e+03	-2.000000e-01	-5.551115e-17	1.101280e-09	2.296328e-10	2.296328e-10
5.400000e+03	5.600000e+03	-5.551115e-17	2.000000e-01	9.097532e-10	2.087117e-10	2.087117e-10
5.400000e+03	5.600000e+03	2.000000e-01	4.000000e-01	8.139897e-10	1.974215e-10	1.974215e-10
5.400000e+03	5.600000e+03	4.000000e-01	6.000000e-01	5.745810e-10	1.658672e-10	1.658672e-10
5.400000e+03	5.600000e+03	6.000000e-01	8.000000e-01	7.182262e-10	1.854452e-10	1.854452e-10
5.400000e+03	5.600000e+03	8.000000e-01	1.000000e+00	6.224628e-10	1.726401e-10	1.726401e-10
5.600000e+03	5.800000e+03	-1.000000e+00	-8.000000e-01	1.436453e-10	8.293363e-11	8.293363e-11
5.600000e+03	5.800000e+03	-8.000000e-01	-6.000000e-01	4.788175e-10	1.514154e-10	1.514154e-10
5.600000e+03	5.800000e+03	-6.000000e-01	-4.000000e-01	1.005517e-09	2.194218e-10	2.194218e-10
5.600000e+03	5.800000e+03	-4.000000e-01	-2.000000e-01	6.703445e-10	1.791571e-10	1.791571e-10
5.600000e+03	5.800000e+03	-2.000000e-01	-5.551115e-17	6.224628e-10	1.726401e-10	1.726401e-10
5.600000e+03	5.800000e+03	-5.551115e-17	2.000000e-01	7.182262e-10	1.854452e-10	1.854452e-10
5.600000e+03	5.800000e+03	2.000000e-01	4.000000e-01	2.394088e-10	1.070669e-10	1.070669e-10
5.600000e+03	5.800000e+03	4.000000e-01	6.000000e-01	6.703445e-10	1.791571e-10	1.791571e-10
5.600000e+03	5.800000e+03	6.000000e-01	8.000000e-01	4.309357e-10	1.436453e-10	1.436453e-10
5.600000e+03	5.800000e+03	8.000000e-01	1.000000e+00	6.703445e-10	1.791571e-10	1.791571e-10
5.800000e+03	6.000000e+03	-1.000000e+00	-8.000000e-01	4.309358e-10	1.436453e-10	1.436453e-10
5.800000e+03	6.000000e+03	-8.000000e-01	-6.000000e-01	4.309357e-10	1.436453e-10	1.436453e-10
5.800000e+03	6.000000e+03	-6.000000e-01	-4.000000e-01	7.182263e-10	1.854452e-10	1.854452e-10
5.800000e+03	6.000000e+03	-4.000000e-01	-2.000000e-01	4.788175e-10	1.514154e-10	1.514154e-10
5.800000e+03	6.000000e+03	-2.000000e-01	-5.551115e-17	2.394088e-10	1.070669e-10	1.070669e-10
5.800000e+03	6.000000e+03	-5.551115e-17	2.000000e-01	4.788175e-10	1.514154e-10	1.514154e-10
5.800000e+03	6.000000e+03	2.000000e-01	4.000000e-01	1.436453e-10	8.293363e-11	8.293363e-11
5.800000e+03	6.000000e+03	4.000000e-01	6.000000e-01	1.436453e-10	8.293363e-11	8.293363e-11
5.800000e+03	6.000000e+03	6.000000e-01	8.000000e-01	0.000000e+00	0.000000e+00	0.000000e+00
5.800000e+03	6.000000e+03	8.000000e-01	1.000000e+00	9.576350e-11	6.771502e-11	6.771502e-11
# END HISTO2D

