Number of events: 50000
Cross section of all events: 0.00925639
Total weight of events: 50000
Total weight of all events normalised to luminosity: 185.128
Total passed weight of all events normalised to luminosity: 1.33335
Acceptance: 0.720235
Correct b-lepton pairing in 0.830674 of the events.
Average number of b jets: 1.56716
