1 0.000000e+00 0
2 0.000000e+00 0
3 2.696953e-02 0
4 1.017655e+00 0
5 1.637593e+00 0
6 1.681625e+00 0
7 1.566132e+00 0
8 1.280640e+00 0
9 1.180989e+00 0
10 1.321396e+00 0
11 8.437752e-01 0
12 7.742791e-01 0
13 7.454655e-01 0
14 6.180820e-01 0
15 5.259744e-01 0
16 4.048403e-01 0
17 4.415250e-01 0
18 3.755216e-01 0
19 3.562572e-01 0
20 2.313645e-01 0
