Number of events: 100000
Cross section of all events: 0.0319686
Total weight of events: 100000
Total weight of all events normalised to luminosity: 639.373
Total passed weight of all events normalised to luminosity: 4.6383
Acceptance: 0.725445
Correct b-lepton pairing in 0.858772 of the events.
Average number of b jets: 1.5908
