1 0.000000e+00 0
2 4.637469e-05 0
3 1.843680e-04 0
4 4.494103e-04 0
5 6.206440e-04 0
6 7.587257e-04 0
7 1.313359e-03 0
8 1.934230e-03 0
9 2.366229e-03 0
10 2.692367e-03 0
11 3.200993e-03 0
12 4.027823e-03 0
13 3.755006e-03 0
14 3.356620e-03 0
15 2.309145e-03 0
16 7.287893e-04 0
17 2.669546e-05 0
18 0.000000e+00 0
19 0.000000e+00 0
20 0.000000e+00 0
