Number of events: 100000
Cross section of all events: 0.0339813
Total weight of events: 100000
Total weight of all events normalised to luminosity: 679.625
Total passed weight of all events normalised to luminosity: 5.20765
Acceptance: 0.766253
Correct b-lepton pairing in 0.834737 of the events.
Average number of b jets: 1.58688
