1 1.478491e-01 0
2 1.654353e-01 0
3 2.112514e-01 0
4 1.893756e-01 0
5 1.916328e-01 0
6 2.011091e-01 0
7 1.730880e-01 0
8 1.565386e-01 0
9 1.611790e-01 0
10 1.783393e-01 0
11 1.844718e-01 0
12 1.924042e-01 0
13 1.630992e-01 0
14 1.650591e-01 0
15 1.795611e-01 0
16 2.011334e-01 0
17 2.181114e-01 0
18 2.302997e-01 0
19 2.272969e-01 0
20 2.414886e-01 0
