1 0.000000e+00 0
2 0.000000e+00 0
3 0.000000e+00 0
4 0.000000e+00 0
5 0.000000e+00 0
6 4.014223e-03 0
7 5.952887e-03 0
8 2.997355e-02 0
9 7.683978e-02 0
10 1.443120e-01 0
11 2.962234e-01 0
12 4.600369e-01 0
13 6.415179e-01 0
14 8.677854e-01 0
15 8.386600e-01 0
16 5.946703e-01 0
17 3.093470e-01 0
18 5.544638e-02 0
19 0.000000e+00 0
20 0.000000e+00 0
