Number of events: 100000
Cross section of all events: 0.0136597
Total weight of events: 100000
Total weight of all events normalised to luminosity: 273.193
Total passed weight of all events normalised to luminosity: 1.87672
Acceptance: 0.686958
Correct b-lepton pairing in 0.867149 of the events.
Average number of b jets: 1.57342
