1 1.175603e-01 0
2 1.180129e-01 0
3 1.324664e-01 0
4 1.307864e-01 0
5 1.245634e-01 0
6 1.214300e-01 0
7 1.385880e-01 0
8 1.459753e-01 0
9 1.477900e-01 0
10 1.383083e-01 0
11 1.391695e-01 0
12 1.487917e-01 0
13 1.401203e-01 0
14 1.230577e-01 0
15 1.352532e-01 0
16 1.169915e-01 0
17 1.023675e-01 0
18 1.188188e-01 0
19 1.153992e-01 0
20 1.302853e-01 0
