Number of events: 50000
Cross section of all events: 0.000431193
Total weight of events: 50000
Total weight of all events normalised to luminosity: 8.62385
Total passed weight of all events normalised to luminosity: 0.0617543
Acceptance: 0.716086
Correct b-lepton pairing in 0.845413 of the events.
Average number of b jets: 1.58101
