1 0.000000e+00 0
2 7.886084e-07 0
3 1.767951e-03 0
4 4.132221e-03 0
5 7.156178e-03 0
6 9.371601e-03 0
7 8.390965e-03 0
8 6.994456e-03 0
9 5.872795e-03 0
10 4.586153e-03 0
11 3.565157e-03 0
12 2.736484e-03 0
13 1.700340e-03 0
14 1.401426e-03 0
15 1.241454e-03 0
16 6.725446e-04 0
17 5.453925e-04 0
18 4.461483e-04 0
19 1.300980e-04 0
20 5.329368e-04 0
