1 4.923073e-03 0
2 1.394591e-02 0
3 1.869491e-02 0
4 1.944960e-02 0
5 1.917939e-02 0
6 2.035055e-02 0
7 1.987056e-02 0
8 1.904256e-02 0
9 2.010400e-02 0
10 2.130467e-02 0
11 1.808268e-02 0
12 1.891039e-02 0
13 1.809262e-02 0
14 1.708159e-02 0
15 1.544856e-02 0
16 1.568243e-02 0
17 1.458087e-02 0
18 1.475825e-02 0
19 1.255807e-02 0
20 1.228238e-02 0
