1 3.172939e-03 0
2 3.268904e-03 0
3 3.515275e-03 0
4 3.778610e-03 0
5 3.443036e-03 0
6 3.625454e-03 0
7 5.078199e-03 0
8 4.856524e-03 0
9 5.707624e-03 0
10 5.924581e-03 0
11 6.025471e-03 0
12 6.725209e-03 0
13 9.405473e-03 0
14 9.245280e-03 0
15 1.162092e-02 0
16 1.249686e-02 0
17 1.323139e-02 0
18 1.520175e-02 0
19 1.569891e-02 0
20 1.858434e-02 0
