1 0.000000e+00 0
2 0.000000e+00 0
3 3.112328e-03 0
4 3.562940e-02 0
5 4.201723e-02 0
6 4.544948e-02 0
7 4.826550e-02 0
8 4.529019e-02 0
9 3.772347e-02 0
10 3.390575e-02 0
11 2.543854e-02 0
12 2.250329e-02 0
13 2.106745e-02 0
14 1.950028e-02 0
15 1.535382e-02 0
16 1.506863e-02 0
17 1.099171e-02 0
18 1.494582e-02 0
19 8.787570e-03 0
20 8.168046e-03 0
