Number of events: 50000
Cross section of all events: 0.000167302
Total weight of events: 50000
Total weight of all events normalised to luminosity: 3.34604
Total passed weight of all events normalised to luminosity: 0.0235243
Acceptance: 0.703049
Correct b-lepton pairing in 0.849375 of the events.
Average number of b jets: 1.58587
