1	0	0
2	0	0
3	0	0
4	0	0
5	0	0
6	0	0
7	0	0
8	0.000325228	0
9	0.000465028	0
10	0.000302828	0
11	0.000197946	0
12	0.000155827	0
13	0.000121238	0
14	8.19814e-05	0
15	6.42542e-05	0
16	4.99737e-05	0
17	4.07601e-05	0
18	3.06643e-05	0
19	3.08931e-05	0
20	2.25599e-05	0
21	2.04731e-05	0
22	1.56868e-05	0
23	9.27131e-06	0
24	6.90563e-06	0
25	5.27162e-06	0
26	3.63921e-06	0
27	4.04503e-06	0
28	3.03765e-06	0
29	2.43449e-06	0
30	2.30757e-06	0
31	1.17805e-06	0
32	1.98332e-06	0
33	1.0026e-06	0
34	1.40523e-06	0
35	7.26883e-07	0
36	1.05432e-06	0
37	7.77013e-07	0
38	5.51429e-07	0
39	3.25844e-07	0
40	3.50909e-07	0
41	2.25584e-07	0
42	3.00779e-07	0
43	1.0026e-07	0
44	3.00779e-07	0
45	1.0026e-07	0
46	2.00519e-07	0
47	5.01299e-08	0
48	5.01299e-08	0
49	1.0026e-07	0
50	2.50649e-08	0
