1	0	0
2	0	0
3	0	0
4	0	0
5	0	0
6	0	0
7	0	0
8	0.000342205	0
9	0.000485693	0
10	0.000316245	0
11	0.000203282	0
12	0.000157637	0
13	0.000121298	0
14	8.07276e-05	0
15	6.25885e-05	0
16	4.80761e-05	0
17	3.94247e-05	0
18	3.0223e-05	0
19	3.10893e-05	0
20	2.17371e-05	0
21	2.05806e-05	0
22	1.47629e-05	0
23	8.43824e-06	0
24	6.41539e-06	0
25	4.85084e-06	0
26	3.38528e-06	0
27	4.12013e-06	0
28	3.1548e-06	0
29	2.66402e-06	0
30	2.17323e-06	0
31	1.29064e-06	0
32	1.9726e-06	0
33	9.21884e-07	0
34	1.25134e-06	0
35	6.22272e-07	0
36	7.90401e-07	0
37	5.76178e-07	0
38	4.60942e-07	0
39	2.76565e-07	0
40	3.68754e-07	0
41	2.76565e-07	0
42	1.84377e-07	0
43	1.84377e-07	0
44	1.15236e-07	0
45	1.6133e-07	0
46	1.38283e-07	0
47	1.15236e-07	0
48	6.91413e-08	0
49	9.21884e-08	0
50	6.91413e-08	0
