1	0	0
2	0	0
3	0	0
4	0	0
5	0	0
6	0	0
7	0	0
8	0.000307496	0
9	0.000442503	0
10	0.000293544	0
11	0.000195147	0
12	0.000156102	0
13	0.000122371	0
14	8.2971e-05	0
15	6.56437e-05	0
16	5.18682e-05	0
17	4.24864e-05	0
18	3.23723e-05	0
19	3.24269e-05	0
20	2.49155e-05	0
21	2.11205e-05	0
22	1.51011e-05	0
23	9.32567e-06	0
24	7.15643e-06	0
25	5.28584e-06	0
26	3.93038e-06	0
27	4.39164e-06	0
28	2.81918e-06	0
29	2.98162e-06	0
30	1.97865e-06	0
31	1.38222e-06	0
32	2.06013e-06	0
33	1.1383e-06	0
34	1.24689e-06	0
35	8.67278e-07	0
36	9.21657e-07	0
37	7.04663e-07	0
38	6.77561e-07	0
39	3.79434e-07	0
40	4.87844e-07	0
41	4.33639e-07	0
42	1.89717e-07	0
43	2.98127e-07	0
44	1.62615e-07	0
45	2.16819e-07	0
46	8.13073e-08	0
47	2.43922e-07	0
48	5.42049e-08	0
49	0	0
50	5.42049e-08	0
