1	0	0
2	0	0
3	0	0
4	0	0
5	0	0
6	0	0
7	0	0
8	0.000302611	0
9	0.000438504	0
10	0.000294184	0
11	0.000192827	0
12	0.000153065	0
13	0.000119243	0
14	7.90179e-05	0
15	6.12035e-05	0
16	4.70918e-05	0
17	3.81811e-05	0
18	2.77879e-05	0
19	2.86237e-05	0
20	2.03526e-05	0
21	1.88118e-05	0
22	1.32301e-05	0
23	7.35407e-06	0
24	5.3371e-06	0
25	3.6258e-06	0
26	2.69197e-06	0
27	3.88024e-06	0
28	2.43046e-06	0
29	1.75106e-06	0
30	1.07166e-06	0
31	7.84537e-07	0
32	1.19535e-06	0
33	8.17226e-07	0
34	5.81329e-07	0
35	2.28823e-07	0
36	9.0822e-07	0
37	2.61512e-07	0
38	3.26891e-07	0
39	2.61512e-07	0
40	2.61512e-07	0
41	1.30756e-07	0
42	1.96134e-07	0
43	1.30756e-07	0
44	1.30756e-07	0
45	6.53781e-08	0
46	0	0
47	3.26891e-08	0
48	1.30756e-07	0
49	1.63445e-07	0
50	3.26891e-08	0
