1	0	0
2	0	0
3	0	0
4	0	0
5	0	0
6	0	0
7	0	0
8	0.00052001	0
9	0.00082276	0
10	0.000597277	0
11	0.00043297	0
12	0.000337784	0
13	0.000258143	0
14	0.000180841	0
15	0.000137413	0
16	0.000102194	0
17	8.57552e-05	0
18	6.04662e-05	0
19	5.27985e-05	0
20	3.73959e-05	0
21	3.44938e-05	0
22	2.38178e-05	0
23	1.62091e-05	0
24	1.01979e-05	0
25	8.22853e-06	0
26	6.69454e-06	0
27	6.84019e-06	0
28	4.7879e-06	0
29	3.44063e-06	0
30	2.09335e-06	0
31	2.15533e-06	0
32	2.28006e-06	0
33	1.49215e-06	0
34	2.42494e-06	0
35	9.11871e-07	0
36	1.76176e-06	0
37	4.97384e-07	0
38	4.97384e-07	0
39	6.63179e-07	0
40	4.14487e-07	0
41	4.14487e-07	0
42	9.11871e-07	0
43	4.97384e-07	0
44	1.65795e-07	0
45	0	0
46	1.65795e-07	0
47	3.3159e-07	0
48	0	0
49	8.28974e-08	0
50	8.28974e-08	0
