1	0	0
2	0	0
3	0	0
4	0	0
5	0	0
6	0	0
7	0	0
8	0.000298165	0
9	0.000438712	0
10	0.000293534	0
11	0.000195207	0
12	0.000154229	0
13	0.000117891	0
14	7.74503e-05	0
15	5.92855e-05	0
16	4.40342e-05	0
17	3.50112e-05	0
18	2.53514e-05	0
19	2.61032e-05	0
20	1.82527e-05	0
21	1.64687e-05	0
22	1.12045e-05	0
23	5.82337e-06	0
24	3.75508e-06	0
25	2.32355e-06	0
26	1.54841e-06	0
27	2.58255e-06	0
28	1.45491e-06	0
29	1.19591e-06	0
30	5.86265e-07	0
31	2.80511e-07	0
32	9.38771e-07	0
33	1.87007e-07	0
34	5.39513e-07	0
35	2.10383e-07	0
36	5.62889e-07	0
37	2.10383e-07	0
38	1.40256e-07	0
39	9.35037e-08	0
40	1.1688e-07	0
41	1.1688e-07	0
42	4.67519e-08	0
43	4.67519e-08	0
44	2.33759e-08	0
45	2.33759e-08	0
46	2.33759e-08	0
47	7.01278e-08	0
48	4.67519e-08	0
49	2.33759e-08	0
50	2.33759e-08	0
