1	0	0
2	0	0
3	0	0
4	0	0
5	0	0
6	0	0
7	0	0
8	0.000355523	0
9	0.000540416	0
10	0.000374049	0
11	0.000255436	0
12	0.000197092	0
13	0.000148663	0
14	9.9395e-05	0
15	7.39919e-05	0
16	5.42354e-05	0
17	4.26344e-05	0
18	3.0312e-05	0
19	2.98941e-05	0
20	2.03426e-05	0
21	1.7993e-05	0
22	1.21401e-05	0
23	6.50112e-06	0
24	3.74439e-06	0
25	2.56465e-06	0
26	1.60754e-06	0
27	2.6345e-06	0
28	1.45476e-06	0
29	1.04878e-06	0
30	6.19878e-07	0
31	1.60424e-07	0
32	9.1891e-07	0
33	1.52784e-07	0
34	4.59455e-07	0
35	9.16707e-08	0
36	3.75423e-07	0
37	7.63922e-08	0
38	6.11138e-08	0
39	6.11138e-08	0
40	2.29177e-08	0
41	3.05569e-08	0
42	2.29177e-08	0
43	2.29177e-08	0
44	1.52784e-08	0
45	7.63922e-09	0
46	7.63922e-09	0
47	0	0
48	7.63922e-09	0
49	1.52784e-08	0
50	7.63922e-09	0
