Number of events: 100000
Cross section of all events: 0.0226039
Total weight of events: 100000
Total weight of all events normalised to luminosity: 452.077
Total passed weight of all events normalised to luminosity: 3.45497
Acceptance: 0.764244
Correct b-lepton pairing in 0.856761 of the events.
Average number of b jets: 1.58384
