Number of events: 100000
Cross section of all events: 0.005974
Total weight of events: 100000
Total weight of all events normalised to luminosity: 119.48
Total passed weight of all events normalised to luminosity: 0.764413
Acceptance: 0.639783
Correct b-lepton pairing in 0.850506 of the events.
Average number of b jets: 1.55382
