1 0.000000e+00 0
2 0.000000e+00 0
3 0.000000e+00 0
4 0.000000e+00 0
5 3.804344e-07 0
6 1.460046e-05 0
7 1.256492e-05 0
8 6.688478e-05 0
9 1.255149e-04 0
10 2.099363e-04 0
11 3.458642e-04 0
12 6.596524e-04 0
13 1.036753e-03 0
14 1.420323e-03 0
15 1.521481e-03 0
16 1.348223e-03 0
17 8.842762e-04 0
18 1.180980e-04 0
19 0.000000e+00 0
20 0.000000e+00 0
