Number of events: 50000
Cross section of all events: 0.040648
Total weight of events: 50000
Total weight of all events normalised to luminosity: 812.96
Total passed weight of all events normalised to luminosity: 5.78453
Acceptance: 0.711539
Correct b-lepton pairing in 0.820799 of the events.
Average number of b jets: 1.56728
