1 3.041350e-02 0
2 8.596444e-02 0
3 1.114944e-01 0
4 1.101106e-01 0
5 1.234478e-01 0
6 1.248813e-01 0
7 1.130177e-01 0
8 1.208088e-01 0
9 1.203332e-01 0
10 1.347848e-01 0
11 1.215135e-01 0
12 1.261702e-01 0
13 1.101603e-01 0
14 1.126760e-01 0
15 1.121553e-01 0
16 9.470845e-02 0
17 1.038674e-01 0
18 1.054409e-01 0
19 1.027037e-01 0
20 8.844653e-02 0
