Number of events: 50000
Cross section of all events: 0.000132295
Total weight of events: 50000
Total weight of all events normalised to luminosity: 2.64591
Total passed weight of all events normalised to luminosity: 0.0172553
Acceptance: 0.652151
Correct b-lepton pairing in 0.836943 of the events.
Average number of b jets: 1.56476
