1 8.763363e-03 0
2 4.093230e-02 0
3 1.736752e-01 0
4 3.090619e-01 0
5 5.763249e-01 0
6 7.365447e-01 0
7 9.364512e-01 0
8 1.438914e+00 0
9 1.545686e+00 0
10 2.289163e+00 0
11 2.608719e+00 0
12 2.717128e+00 0
13 2.584382e+00 0
14 2.610180e+00 0
15 1.974295e+00 0
16 6.995167e-01 0
17 4.236482e-02 0
18 0.000000e+00 0
19 0.000000e+00 0
20 0.000000e+00 0
