Number of events: 100000
Cross section of all events: 0.165753
Total weight of events: 100000
Total weight of all events normalised to luminosity: 3315.06
Total passed weight of all events normalised to luminosity: 21.2921
Acceptance: 0.642284
Correct b-lepton pairing in 0.83706 of the events.
Average number of b jets: 1.56007
