1 2.601025e-02 0
2 2.389156e-02 0
3 2.814206e-02 0
4 2.628833e-02 0
5 2.648614e-02 0
6 3.090070e-02 0
7 3.102848e-02 0
8 3.251538e-02 0
9 3.225234e-02 0
10 2.833707e-02 0
11 3.062370e-02 0
12 2.945497e-02 0
13 2.829818e-02 0
14 2.744649e-02 0
15 3.029415e-02 0
16 3.179433e-02 0
17 2.978538e-02 0
18 2.822068e-02 0
19 2.540641e-02 0
20 2.418165e-02 0
