Number of events: 50000
Cross section of all events: 0.00357935
Total weight of events: 50000
Total weight of all events normalised to luminosity: 71.587
Total passed weight of all events normalised to luminosity: 0.571358
Acceptance: 0.798131
Correct b-lepton pairing in 0.847603 of the events.
Average number of b jets: 1.59376
