1 1.077120e-05 0
2 8.885101e-03 0
3 1.469723e-02 0
4 5.619400e-02 0
5 8.131988e-02 0
6 1.300767e-01 0
7 1.408292e-01 0
8 2.047639e-01 0
9 2.919148e-01 0
10 3.876421e-01 0
11 4.280043e-01 0
12 4.872866e-01 0
13 4.572137e-01 0
14 4.466381e-01 0
15 3.494715e-01 0
16 1.140851e-01 0
17 3.131556e-03 0
18 0.000000e+00 0
19 0.000000e+00 0
20 0.000000e+00 0
