Number of events: 50000
Cross section of all events: 0.0188864
Total weight of events: 50000
Total weight of all events normalised to luminosity: 377.727
Total passed weight of all events normalised to luminosity: 2.81257
Acceptance: 0.744602
Correct b-lepton pairing in 0.875721 of the events.
Average number of b jets: 1.58949
