Number of events: 50000
Cross section of all events: 0.00225835
Total weight of events: 50000
Total weight of all events normalised to luminosity: 45.1671
Total passed weight of all events normalised to luminosity: 0.356932
Acceptance: 0.790247
Correct b-lepton pairing in 0.866211 of the events.
Average number of b jets: 1.59705
