1 5.516314e-04 0
2 7.635061e-02 0
3 3.932260e-01 0
4 6.780922e-01 0
5 7.854235e-01 0
6 8.485039e-01 0
7 8.186513e-01 0
8 7.695351e-01 0
9 9.234727e-01 0
10 6.847542e-01 0
11 6.102484e-01 0
12 6.495732e-01 0
13 4.607874e-01 0
14 3.400714e-01 0
15 3.509017e-01 0
16 2.222823e-01 0
17 1.156640e-01 0
18 5.505867e-02 0
19 1.130913e-02 0
20 0.000000e+00 0
