1 0.000000e+00 0
2 0.000000e+00 0
3 1.103410e-03 0
4 2.345293e-02 0
5 2.620526e-02 0
6 3.349777e-02 0
7 3.032862e-02 0
8 2.454485e-02 0
9 2.552662e-02 0
10 1.784535e-02 0
11 1.895055e-02 0
12 1.482212e-02 0
13 1.099762e-02 0
14 1.319962e-02 0
15 1.093498e-02 0
16 7.618510e-03 0
17 8.345778e-03 0
18 7.089927e-03 0
19 5.468979e-03 0
20 4.502818e-03 0
