Number of events: 100000
Cross section of all events: 0.137006
Total weight of events: 100000
Total weight of all events normalised to luminosity: 2740.12
Total passed weight of all events normalised to luminosity: 18.0567
Acceptance: 0.658977
Correct b-lepton pairing in 0.835363 of the events.
Average number of b jets: 1.55837
