Number of events: 50000
Cross section of all events: 0.328812
Total weight of events: 50000
Total weight of all events normalised to luminosity: 6576.24
Total passed weight of all events normalised to luminosity: 48.0199
Acceptance: 0.730204
Correct b-lepton pairing in 0.844312 of the events.
Average number of b jets: 1.57453
