1 3.750718e-06 0
2 4.281896e-03 0
3 1.380354e-02 0
4 2.231917e-02 0
5 3.178477e-02 0
6 5.227527e-02 0
7 8.028371e-02 0
8 1.078034e-01 0
9 1.707262e-01 0
10 1.782938e-01 0
11 2.407636e-01 0
12 2.800468e-01 0
13 2.906169e-01 0
14 2.469619e-01 0
15 1.802898e-01 0
16 5.765592e-02 0
17 3.569870e-03 0
18 0.000000e+00 0
19 0.000000e+00 0
20 0.000000e+00 0
