1 3.047102e-01 0
2 3.470466e-01 0
3 3.937307e-01 0
4 5.024305e-01 0
5 6.702212e-01 0
6 4.607580e-01 0
7 5.647744e-01 0
8 4.480945e-01 0
9 3.591414e-01 0
10 5.575041e-01 0
11 4.365863e-01 0
12 4.592096e-01 0
13 4.299710e-01 0
14 6.406094e-01 0
15 4.609721e-01 0
16 5.152960e-01 0
17 5.549333e-01 0
18 6.205309e-01 0
19 6.297619e-01 0
20 5.712658e-01 0
