1 9.961030e-03 0
2 1.098395e-02 0
3 1.006702e-02 0
4 1.196574e-02 0
5 1.286024e-02 0
6 1.252723e-02 0
7 1.513322e-02 0
8 1.718042e-02 0
9 1.760887e-02 0
10 2.068110e-02 0
11 1.732950e-02 0
12 2.364775e-02 0
13 2.692868e-02 0
14 2.851421e-02 0
15 3.959549e-02 0
16 4.268964e-02 0
17 4.668300e-02 0
18 5.546859e-02 0
19 5.841299e-02 0
20 4.961190e-02 0
