Number of events: 100000
Cross section of all events: 0.0220367
Total weight of events: 100000
Total weight of all events normalised to luminosity: 440.734
Total passed weight of all events normalised to luminosity: 2.85924
Acceptance: 0.648745
Correct b-lepton pairing in 0.851183 of the events.
Average number of b jets: 1.56619
