1 9.029957e-08 0
2 2.008285e-05 0
3 1.236695e-04 0
4 2.098666e-04 0
5 3.538928e-04 0
6 5.811962e-04 0
7 6.975027e-04 0
8 8.833991e-04 0
9 1.280327e-03 0
10 1.393295e-03 0
11 1.566840e-03 0
12 1.807291e-03 0
13 2.017299e-03 0
14 1.742325e-03 0
15 1.294356e-03 0
16 4.057196e-04 0
17 3.394993e-05 0
18 0.000000e+00 0
19 0.000000e+00 0
20 0.000000e+00 0
