Number of events: 50000
Cross section of all events: 0.00716947
Total weight of events: 50000
Total weight of all events normalised to luminosity: 143.389
Total passed weight of all events normalised to luminosity: 0.832951
Acceptance: 0.580902
Correct b-lepton pairing in 0.849013 of the events.
Average number of b jets: 1.5427
