Number of events: 100000
Cross section of all events: 0.0933594
Total weight of events: 100000
Total weight of all events normalised to luminosity: 1867.19
Total passed weight of all events normalised to luminosity: 13.7096
Acceptance: 0.734236
Correct b-lepton pairing in 0.852783 of the events.
Average number of b jets: 1.57574
