1 0.000000e+00 0
2 2.703054e-01 0
3 9.063207e-01 0
4 1.402157e+00 0
5 1.923701e+00 0
6 2.365566e+00 0
7 2.431331e+00 0
8 2.272957e+00 0
9 2.151179e+00 0
10 1.962369e+00 0
11 1.798245e+00 0
12 1.498429e+00 0
13 1.408515e+00 0
14 9.989572e-01 0
15 8.799711e-01 0
16 5.289863e-01 0
17 2.966790e-01 0
18 9.697722e-02 0
19 3.830266e-02 0
20 0.000000e+00 0
