1 9.395378e-02 0
2 2.238240e-01 0
3 3.554996e-01 0
4 5.337755e-01 0
5 7.438212e-01 0
6 9.800536e-01 0
7 1.277913e+00 0
8 1.701118e+00 0
9 2.224737e+00 0
10 3.859683e+00 0
11 3.910170e+00 0
12 2.124271e+00 0
13 1.527526e+00 0
14 1.037870e+00 0
15 8.816215e-01 0
16 6.518714e-01 0
17 4.595646e-01 0
18 3.749608e-01 0
19 1.915005e-01 0
20 7.721396e-02 0
