1 1.068903e-02 0
2 2.731744e-02 0
3 4.708207e-02 0
4 1.193819e-01 0
5 2.071135e-01 0
6 2.906873e-01 0
7 4.393091e-01 0
8 5.788758e-01 0
9 8.650311e-01 0
10 1.604988e+00 0
11 1.449494e+00 0
12 8.988700e-01 0
13 5.997933e-01 0
14 3.827609e-01 0
15 3.058967e-01 0
16 1.679100e-01 0
17 9.263308e-02 0
18 5.654772e-02 0
19 1.676128e-02 0
20 6.253479e-03 0
