Number of events: 50000
Cross section of all events: 6.81959e-05
Total weight of events: 50000
Total weight of all events normalised to luminosity: 1.36392
Total passed weight of all events normalised to luminosity: 0.00907136
Acceptance: 0.665095
Correct b-lepton pairing in 0.830586 of the events.
Average number of b jets: 1.56769
