1 0.000000e+00 0
2 0.000000e+00 0
3 3.374341e-04 0
4 5.363432e-03 0
5 8.000817e-03 0
6 7.101707e-03 0
7 6.909791e-03 0
8 5.953069e-03 0
9 5.679031e-03 0
10 4.071430e-03 0
11 4.627131e-03 0
12 3.446938e-03 0
13 3.135021e-03 0
14 2.263257e-03 0
15 2.394197e-03 0
16 1.898135e-03 0
17 1.674560e-03 0
18 1.640715e-03 0
19 1.423040e-03 0
20 1.164511e-03 0
