1 1.469346e-06 0
2 1.199314e-04 0
3 5.633707e-04 0
4 1.190057e-03 0
5 1.582753e-03 0
6 2.448204e-03 0
7 3.768408e-03 0
8 5.521083e-03 0
9 6.360632e-03 0
10 7.824466e-03 0
11 9.250950e-03 0
12 1.063726e-02 0
13 1.075726e-02 0
14 9.667789e-03 0
15 6.671662e-03 0
16 2.823378e-03 0
17 1.545604e-04 0
18 0.000000e+00 0
19 0.000000e+00 0
20 0.000000e+00 0
