Number of events: 50000
Cross section of all events: 0.0587219
Total weight of events: 50000
Total weight of all events normalised to luminosity: 1174.44
Total passed weight of all events normalised to luminosity: 8.46009
Acceptance: 0.720353
Correct b-lepton pairing in 0.840049 of the events.
Average number of b jets: 1.59129
