Number of events: 100000
Cross section of all events: 0.057019
Total weight of events: 100000
Total weight of all events normalised to luminosity: 1140.38
Total passed weight of all events normalised to luminosity: 8.52737
Acceptance: 0.747765
Correct b-lepton pairing in 0.848115 of the events.
Average number of b jets: 1.59123
