1 0.000000e+00 0
2 2.671927e-02 0
3 6.905451e-02 0
4 1.053911e-01 0
5 1.712319e-01 0
6 2.482210e-01 0
7 3.512246e-01 0
8 4.575500e-01 0
9 6.579321e-01 0
10 7.600464e-01 0
11 9.575256e-01 0
12 9.996355e-01 0
13 1.082682e+00 0
14 9.807016e-01 0
15 7.569884e-01 0
16 2.459722e-01 0
17 6.011842e-03 0
18 0.000000e+00 0
19 0.000000e+00 0
20 0.000000e+00 0
