1 1.042770e+00 0
2 9.898919e-01 0
3 9.643654e-01 0
4 1.280706e+00 0
5 1.250055e+00 0
6 9.908640e-01 0
7 1.080682e+00 0
8 1.210164e+00 0
9 1.162439e+00 0
10 1.174544e+00 0
11 1.152450e+00 0
12 1.142671e+00 0
13 1.098779e+00 0
14 1.191957e+00 0
15 1.120235e+00 0
16 1.449709e+00 0
17 1.427117e+00 0
18 1.328114e+00 0
19 1.753734e+00 0
20 1.564100e+00 0
