1 1.079021e-01 0
2 1.116682e-01 0
3 1.251306e-01 0
4 1.273666e-01 0
5 1.097800e-01 0
6 1.202101e-01 0
7 1.312444e-01 0
8 1.164658e-01 0
9 1.317914e-01 0
10 1.325682e-01 0
11 1.516852e-01 0
12 1.535046e-01 0
13 1.222121e-01 0
14 1.925785e-01 0
15 1.632106e-01 0
16 1.522271e-01 0
17 1.557570e-01 0
18 1.851265e-01 0
19 1.498474e-01 0
20 1.740500e-01 0
