# BEGIN PLOT
DrawOnly=/export0/scratch/karl/Work/TopPolarisation/limits/runs/paramcards/yuk_2_point_2590_dir/atom_results.yoda/TopPolarisation/b3l-_dphi/-1
Legend=1
LogY=1
# END PLOT

# BEGIN HISTO1D /export0/scratch/karl/Work/TopPolarisation/limits/runs/paramcards/yuk_2_point_2590_dir/atom_results.yoda/TopPolarisation/b3l-_dphi/-1
LineColor={[HTML]{EE3311}}
LineStyle=solid
Path=/export0/scratch/karl/Work/TopPolarisation/limits/runs/paramcards/yuk_2_point_2590_dir/atom_results.yoda/TopPolarisation/b3l-_dphi/-1
Title=atom_results
# xlow	 xhigh	 val	 errminus	 errplus
0.000000e+00	1.570796e-01	1.108590e+00	3.502160e-03	3.502160e-03
1.570796e-01	3.141593e-01	1.336854e+00	3.843656e-03	3.843656e-03
3.141593e-01	4.712389e-01	1.626769e+00	4.286192e-03	4.286192e-03
4.712389e-01	6.283185e-01	1.844712e+00	4.597708e-03	4.597708e-03
6.283185e-01	7.853982e-01	2.072613e+00	4.741836e-03	4.741836e-03
7.853982e-01	9.424778e-01	1.494722e+00	4.062891e-03	4.062891e-03
9.424778e-01	1.099557e+00	1.110342e+00	3.510270e-03	3.510270e-03
1.099557e+00	1.256637e+00	1.750071e+00	4.413834e-03	4.413834e-03
1.256637e+00	1.413717e+00	1.099672e+00	3.445451e-03	3.445451e-03
1.413717e+00	1.570796e+00	7.218018e-01	2.824193e-03	2.824193e-03
1.570796e+00	1.727876e+00	1.254956e+00	3.768635e-03	3.768635e-03
1.727876e+00	1.884956e+00	1.181399e+00	3.601026e-03	3.601026e-03
1.884956e+00	2.042035e+00	7.362747e-01	2.892563e-03	2.892563e-03
2.042035e+00	2.199115e+00	1.198963e+00	3.664133e-03	3.664133e-03
2.199115e+00	2.356194e+00	8.232151e-01	3.046497e-03	3.046497e-03
2.356194e+00	2.513274e+00	8.596607e-01	3.023017e-03	3.023017e-03
2.513274e+00	2.670354e+00	1.211861e+00	3.651214e-03	3.651214e-03
2.670354e+00	2.827433e+00	4.463933e-01	2.189938e-03	2.189938e-03
2.827433e+00	2.984513e+00	8.249573e-01	3.015893e-03	3.015893e-03
2.984513e+00	3.141593e+00	9.047504e-01	3.184634e-03	3.184634e-03
# END HISTO1D

