Number of events: 100000
Cross section of all events: 3.07935e-06
Total weight of events: 100000
Total weight of all events normalised to luminosity: 0.0615871
Total passed weight of all events normalised to luminosity: 0.000424913
Acceptance: 0.689939
Correct b-lepton pairing in 0.850276 of the events.
Average number of b jets: 1.57755
