1 2.175364e-01 0
2 1.937198e-01 0
3 2.621723e-01 0
4 2.599754e-01 0
5 2.416097e-01 0
6 2.617034e-01 0
7 2.675920e-01 0
8 1.747003e-01 0
9 1.949444e-01 0
10 1.654860e-01 0
11 2.298616e-01 0
12 2.369177e-01 0
13 2.322870e-01 0
14 2.311452e-01 0
15 2.432441e-01 0
16 2.344809e-01 0
17 2.850183e-01 0
18 2.872579e-01 0
19 2.866907e-01 0
20 3.223708e-01 0
