# BEGIN PLOT
LegendOnly=//home/karl/Work/toppolarisation/plots/semileptonic_gluon/background.yoda/TopPolarisation_Smearing_SemiLeptonic/costhetaprod
DrawOnly=//home/karl/Work/toppolarisation/plots/semileptonic_gluon/background.yoda/TopPolarisation_Smearing_SemiLeptonic/costhetaprod
Legend=1
LogY=1
# END PLOT

# BEGIN HISTO1D //home/karl/Work/toppolarisation/plots/semileptonic_gluon/background.yoda/TopPolarisation_Smearing_SemiLeptonic/costhetaprod
LineColor=red
LineStyle=solid
Path=//home/karl/Work/toppolarisation/plots/semileptonic_gluon/background.yoda/TopPolarisation_Smearing_SemiLeptonic/costhetaprod
Title=background
XLabel=cos theta prod
YLabel=Relative Occurence
# xlow	 xhigh	 val	 errminus	 errplus
-1.000000e+00	-8.000000e-01	1.440900e+05	8.487933e+02	8.487933e+02
-8.000000e-01	-6.000000e-01	1.029000e+04	2.268259e+02	2.268259e+02
-6.000000e-01	-4.000000e-01	5.600000e+03	1.673320e+02	1.673320e+02
-4.000000e-01	-2.000000e-01	4.195000e+03	1.448275e+02	1.448275e+02
-2.000000e-01	-5.551115e-17	3.635000e+03	1.348147e+02	1.348147e+02
-5.551115e-17	2.000000e-01	3.745000e+03	1.368393e+02	1.368393e+02
2.000000e-01	4.000000e-01	4.300000e+03	1.466288e+02	1.466288e+02
4.000000e-01	6.000000e-01	5.845000e+03	1.709532e+02	1.709532e+02
6.000000e-01	8.000000e-01	1.048000e+04	2.289105e+02	2.289105e+02
8.000000e-01	1.000000e+00	1.432300e+05	8.462565e+02	8.462565e+02
# END HISTO1D

