Number of events: 50000
Cross section of all events: 0.0374149
Total weight of events: 50000
Total weight of all events normalised to luminosity: 748.299
Total passed weight of all events normalised to luminosity: 5.24746
Acceptance: 0.701252
Correct b-lepton pairing in 0.853589 of the events.
Average number of b jets: 1.57575
