1 5.831624e-04 0
2 1.786826e-02 0
3 5.558068e-02 0
4 8.812837e-02 0
5 1.241273e-01 0
6 1.254293e-01 0
7 1.380143e-01 0
8 1.406646e-01 0
9 1.210036e-01 0
10 1.188640e-01 0
11 9.528173e-02 0
12 9.208634e-02 0
13 7.117570e-02 0
14 5.452626e-02 0
15 4.348791e-02 0
16 3.385300e-02 0
17 2.310555e-02 0
18 7.589220e-03 0
19 1.840964e-03 0
20 0.000000e+00 0
