1 2.199001e-01 0
2 2.215219e-01 0
3 2.329151e-01 0
4 2.296799e-01 0
5 2.310662e-01 0
6 2.580851e-01 0
7 2.464425e-01 0
8 2.647135e-01 0
9 2.381110e-01 0
10 2.309730e-01 0
11 2.453828e-01 0
12 2.653611e-01 0
13 2.938947e-01 0
14 2.659304e-01 0
15 2.411088e-01 0
16 2.165859e-01 0
17 2.068028e-01 0
18 2.410171e-01 0
19 2.100233e-01 0
20 1.994705e-01 0
