1 0.000000e+00 0
2 0.000000e+00 0
3 0.000000e+00 0
4 0.000000e+00 0
5 2.699351e-06 0
6 5.615536e-03 0
7 1.311443e-02 0
8 2.459720e-02 0
9 5.825975e-02 0
10 1.155296e-01 0
11 2.303388e-01 0
12 3.891951e-01 0
13 5.424693e-01 0
14 6.191138e-01 0
15 6.398474e-01 0
16 4.752555e-01 0
17 2.257400e-01 0
18 4.431399e-02 0
19 0.000000e+00 0
20 0.000000e+00 0
