1 3.626289e-03 0
2 3.158929e-03 0
3 3.288415e-03 0
4 2.991638e-03 0
5 2.997424e-03 0
6 3.225894e-03 0
7 3.517259e-03 0
8 2.668381e-03 0
9 2.541157e-03 0
10 2.327424e-03 0
11 2.856575e-03 0
12 2.952491e-03 0
13 2.743051e-03 0
14 2.717404e-03 0
15 3.159002e-03 0
16 3.370928e-03 0
17 3.439864e-03 0
18 3.164499e-03 0
19 2.716169e-03 0
20 3.158167e-03 0
