Number of events: 50000
Cross section of all events: 0.0252934
Total weight of events: 50000
Total weight of all events normalised to luminosity: 505.868
Total passed weight of all events normalised to luminosity: 3.60216
Acceptance: 0.712075
Correct b-lepton pairing in 0.856371 of the events.
Average number of b jets: 1.5753
