1 0.000000e+00 0
2 0.000000e+00 0
3 8.026838e-03 0
4 2.484474e-01 0
5 3.428303e-01 0
6 3.553334e-01 0
7 3.823347e-01 0
8 3.288589e-01 0
9 2.955548e-01 0
10 2.311594e-01 0
11 2.106674e-01 0
12 2.162860e-01 0
13 1.608860e-01 0
14 1.803509e-01 0
15 1.341475e-01 0
16 1.242356e-01 0
17 8.098501e-02 0
18 7.217826e-02 0
19 5.755228e-02 0
20 6.457003e-02 0
