Number of events: 100000
Cross section of all events: 0.0177446
Total weight of events: 100000
Total weight of all events normalised to luminosity: 354.892
Total passed weight of all events normalised to luminosity: 2.04384
Acceptance: 0.575906
Correct b-lepton pairing in 0.84794 of the events.
Average number of b jets: 1.54346
