1 3.007447e-01 0
2 2.887706e-01 0
3 2.885469e-01 0
4 2.911333e-01 0
5 2.182016e-01 0
6 2.630167e-01 0
7 2.042528e-01 0
8 2.297650e-01 0
9 2.605560e-01 0
10 2.168949e-01 0
11 2.330843e-01 0
12 2.615906e-01 0
13 2.693433e-01 0
14 2.994490e-01 0
15 2.999492e-01 0
16 2.697968e-01 0
17 3.004637e-01 0
18 2.320533e-01 0
19 2.714756e-01 0
20 2.676338e-01 0
