1 0.000000e+00 0
2 0.000000e+00 0
3 9.682889e-03 0
4 1.554716e-01 0
5 1.967492e-01 0
6 2.152752e-01 0
7 1.903753e-01 0
8 1.989345e-01 0
9 1.731091e-01 0
10 1.444957e-01 0
11 1.302262e-01 0
12 1.190336e-01 0
13 9.544404e-02 0
14 8.733134e-02 0
15 7.843368e-02 0
16 6.474202e-02 0
17 4.822362e-02 0
18 4.584078e-02 0
19 3.562517e-02 0
20 4.736994e-02 0
