Number of events: 100000
Cross section of all events: 0.000197744
Total weight of events: 100000
Total weight of all events normalised to luminosity: 3.95488
Total passed weight of all events normalised to luminosity: 0.0260749
Acceptance: 0.659309
Correct b-lepton pairing in 0.839436 of the events.
Average number of b jets: 1.5555
