1	0	0
2	0	0
3	0	0
4	0	0
5	0	0
6	0	0
7	0	0
8	0.000368268	0
9	0.000511239	0
10	0.000325106	0
11	0.000209707	0
12	0.000159771	0
13	0.000122715	0
14	8.31571e-05	0
15	6.53169e-05	0
16	5.16724e-05	0
17	4.35132e-05	0
18	3.39525e-05	0
19	3.31443e-05	0
20	2.44864e-05	0
21	2.19071e-05	0
22	1.58973e-05	0
23	1.04033e-05	0
24	8.28831e-06	0
25	5.88952e-06	0
26	5.6316e-06	0
27	5.31345e-06	0
28	3.84324e-06	0
29	3.5939e-06	0
30	2.79431e-06	0
31	1.85715e-06	0
32	2.3902e-06	0
33	1.37566e-06	0
34	1.38425e-06	0
35	7.91006e-07	0
36	9.02771e-07	0
37	7.91006e-07	0
38	4.12699e-07	0
39	4.47091e-07	0
40	3.43916e-07	0
41	3.43916e-07	0
42	3.09524e-07	0
43	2.75133e-07	0
44	2.0635e-07	0
45	1.71958e-07	0
46	1.71958e-07	0
47	1.37566e-07	0
48	2.40741e-07	0
49	1.37566e-07	0
50	1.03175e-07	0
