1	0	0
2	0	0
3	0	0
4	0	0
5	0	0
6	0	0
7	0	0
8	0.000531549	0
9	0.000855899	0
10	0.000645838	0
11	0.000469999	0
12	0.000370082	0
13	0.00028632	0
14	0.000212874	0
15	0.000159831	0
16	0.000122542	0
17	9.98276e-05	0
18	7.55026e-05	0
19	6.38277e-05	0
20	4.74206e-05	0
21	4.15842e-05	0
22	2.84122e-05	0
23	2.22947e-05	0
24	1.55458e-05	0
25	1.22751e-05	0
26	9.35693e-06	0
27	8.61624e-06	0
28	6.31381e-06	0
29	5.68466e-06	0
30	4.98635e-06	0
31	3.2506e-06	0
32	3.05651e-06	0
33	1.79821e-06	0
34	2.08155e-06	0
35	9.68265e-07	0
36	1.25161e-06	0
37	1.17575e-06	0
38	8.29942e-07	0
39	8.99103e-07	0
40	1.03743e-06	0
41	6.22456e-07	0
42	4.84133e-07	0
43	2.07485e-07	0
44	2.76647e-07	0
45	4.84133e-07	0
46	2.07485e-07	0
47	2.07485e-07	0
48	6.91618e-08	0
49	2.76647e-07	0
50	3.45809e-07	0
