1	0	0
2	0	0
3	0	0
4	0	0
5	0	0
6	0	0
7	0	0
8	0.000404658	0
9	0.000588782	0
10	0.000388886	0
11	0.000252534	0
12	0.000188924	0
13	0.000138779	0
14	8.88236e-05	0
15	6.5213e-05	0
16	4.70511e-05	0
17	3.64376e-05	0
18	2.55689e-05	0
19	2.57533e-05	0
20	1.73129e-05	0
21	1.57065e-05	0
22	1.03336e-05	0
23	5.08017e-06	0
24	2.86272e-06	0
25	1.86494e-06	0
26	1.08312e-06	0
27	2.14917e-06	0
28	1.08312e-06	0
29	7.47684e-07	0
30	4.20782e-07	0
31	2.56036e-08	0
32	7.47684e-07	0
33	1.70691e-08	0
34	3.52506e-07	0
35	1.70691e-08	0
36	3.6104e-07	0
37	8.53454e-09	0
38	8.53454e-09	0
39	0	0
40	2.56036e-08	0
41	8.53454e-09	0
42	0	0
43	0	0
44	2.56036e-08	0
45	8.53454e-09	0
46	1.70691e-08	0
47	0	0
48	0	0
49	0	0
50	0	0
