1	0	0
2	0	0
3	0	0
4	0	0
5	0	0
6	0	0
7	0	0
8	0.000322092	0
9	0.000462495	0
10	0.000303652	0
11	0.000199481	0
12	0.000155767	0
13	0.000119194	0
14	7.87633e-05	0
15	6.03194e-05	0
16	4.57006e-05	0
17	3.6888e-05	0
18	2.7047e-05	0
19	2.80288e-05	0
20	1.99211e-05	0
21	1.80595e-05	0
22	1.26408e-05	0
23	7.30955e-06	0
24	4.62639e-06	0
25	3.40863e-06	0
26	2.1355e-06	0
27	3.26585e-06	0
28	2.28117e-06	0
29	1.57905e-06	0
30	1.32851e-06	0
31	7.86634e-07	0
32	1.34597e-06	0
33	5.68125e-07	0
34	7.74957e-07	0
35	4.07884e-07	0
36	5.85582e-07	0
37	3.7875e-07	0
38	2.62211e-07	0
39	3.05913e-07	0
40	1.89375e-07	0
41	2.91346e-07	0
42	1.01971e-07	0
43	7.28365e-08	0
44	1.6024e-07	0
45	1.01971e-07	0
46	4.37019e-08	0
47	8.74038e-08	0
48	1.16538e-07	0
49	7.28365e-08	0
50	2.91346e-08	0
