1	0	0
2	0	0
3	0	0
4	0	0
5	0	0
6	0	0
7	0	0
8	0.000405292	0
9	0.000582867	0
10	0.000376342	0
11	0.000240966	0
12	0.000178615	0
13	0.000130749	0
14	8.31377e-05	0
15	6.16096e-05	0
16	4.4655e-05	0
17	3.49917e-05	0
18	2.47656e-05	0
19	2.53578e-05	0
20	1.72675e-05	0
21	1.59269e-05	0
22	1.05612e-05	0
23	5.22154e-06	0
24	3.20199e-06	0
25	2.04899e-06	0
26	1.34397e-06	0
27	2.34073e-06	0
28	1.23113e-06	0
29	8.87302e-07	0
30	5.69519e-07	0
31	1.38888e-07	0
32	8.95983e-07	0
33	1.6493e-07	0
34	5.00075e-07	0
35	1.12847e-07	0
36	4.91394e-07	0
37	8.68053e-08	0
38	5.20832e-08	0
39	1.04166e-07	0
40	9.54858e-08	0
41	6.94442e-08	0
42	6.94442e-08	0
43	4.34026e-08	0
44	1.73611e-08	0
45	2.60416e-08	0
46	0	0
47	1.73611e-08	0
48	1.73611e-08	0
49	4.34026e-08	0
50	3.47221e-08	0
