1	0	0
2	0	0
3	0	0
4	0	0
5	0	0
6	0	0
7	0	0
8	0.000411127	0
9	0.000633396	0
10	0.0004448	0
11	0.000308406	0
12	0.000239236	0
13	0.000180146	0
14	0.000122003	0
15	9.27682e-05	0
16	6.77503e-05	0
17	5.23821e-05	0
18	3.77161e-05	0
19	3.57479e-05	0
20	2.49804e-05	0
21	2.14344e-05	0
22	1.47766e-05	0
23	8.4681e-06	0
24	5.62766e-06	0
25	4.0328e-06	0
26	2.88448e-06	0
27	3.55242e-06	0
28	2.07847e-06	0
29	1.49759e-06	0
30	1.40032e-06	0
31	6.31377e-07	0
32	1.32295e-06	0
33	4.97041e-07	0
34	7.55512e-07	0
35	3.62706e-07	0
36	5.13708e-07	0
37	2.2837e-07	0
38	1.34335e-07	0
39	1.07468e-07	0
40	1.8807e-07	0
41	9.40348e-08	0
42	1.20902e-07	0
43	6.71677e-08	0
44	8.06013e-08	0
45	6.71677e-08	0
46	5.37342e-08	0
47	2.68671e-08	0
48	0	0
49	1.34335e-08	0
50	2.68671e-08	0
