1	0	0
2	0	0
3	0	0
4	0	0
5	0	0
6	0	0
7	0	0
8	0.000335087	0
9	0.000491899	0
10	0.000329526	0
11	0.000217148	0
12	0.000166819	0
13	0.000125885	0
14	8.12864e-05	0
15	6.08505e-05	0
16	4.438e-05	0
17	3.49361e-05	0
18	2.47475e-05	0
19	2.52067e-05	0
20	1.70376e-05	0
21	1.5622e-05	0
22	1.03009e-05	0
23	5.0077e-06	0
24	2.85915e-06	0
25	1.79605e-06	0
26	1.09104e-06	0
27	2.14297e-06	0
28	1.09662e-06	0
29	7.66463e-07	0
30	3.97198e-07	0
31	3.3519e-08	0
32	7.3853e-07	0
33	5.02785e-08	0
34	4.19544e-07	0
35	2.2346e-08	0
36	3.63679e-07	0
37	1.1173e-08	0
38	1.1173e-08	0
39	5.5865e-09	0
40	5.5865e-09	0
41	1.1173e-08	0
42	2.2346e-08	0
43	5.5865e-09	0
44	0	0
45	1.1173e-08	0
46	0	0
47	1.1173e-08	0
48	1.1173e-08	0
49	5.5865e-09	0
50	1.1173e-08	0
