1	0	0
2	0	0
3	0	0
4	0	0
5	0	0
6	0	0
7	0	0
8	0.000509135	0
9	0.000796262	0
10	0.000564155	0
11	0.000396488	0
12	0.000301155	0
13	0.00022736	0
14	0.00015942	0
15	0.00011902	0
16	8.86483e-05	0
17	6.72821e-05	0
18	4.95509e-05	0
19	4.46685e-05	0
20	3.17716e-05	0
21	2.66851e-05	0
22	2.02365e-05	0
23	1.23608e-05	0
24	8.23813e-06	0
25	6.06797e-06	0
26	4.90339e-06	0
27	4.65476e-06	0
28	3.06511e-06	0
29	2.30141e-06	0
30	1.48934e-06	0
31	1.30615e-06	0
32	1.69672e-06	0
33	1.13683e-06	0
34	1.39259e-06	0
35	5.56322e-07	0
36	9.33015e-07	0
37	3.62818e-07	0
38	3.14443e-07	0
39	1.93503e-07	0
40	1.45127e-07	0
41	2.66067e-07	0
42	1.45127e-07	0
43	1.93503e-07	0
44	7.25637e-08	0
45	1.45127e-07	0
46	1.45127e-07	0
47	1.45127e-07	0
48	9.67516e-08	0
49	4.83758e-08	0
50	4.83758e-08	0
