1 1.413211e-01 0
2 1.734343e-01 0
3 1.537190e-01 0
4 1.490884e-01 0
5 1.681033e-01 0
6 1.797468e-01 0
7 1.783136e-01 0
8 1.722391e-01 0
9 1.906621e-01 0
10 1.703136e-01 0
11 1.751482e-01 0
12 1.908879e-01 0
13 1.951926e-01 0
14 1.914969e-01 0
15 1.887330e-01 0
16 1.824112e-01 0
17 1.727712e-01 0
18 1.637205e-01 0
19 1.573444e-01 0
20 1.533154e-01 0
