1 9.445796e-04 0
2 8.437759e-03 0
3 3.287013e-02 0
4 6.249942e-02 0
5 8.825932e-02 0
6 1.437411e-01 0
7 2.106471e-01 0
8 2.644017e-01 0
9 3.787437e-01 0
10 6.272393e-01 0
11 6.369498e-01 0
12 3.438361e-01 0
13 2.325456e-01 0
14 1.579754e-01 0
15 1.147721e-01 0
16 7.763041e-02 0
17 4.300335e-02 0
18 1.769675e-02 0
19 4.757354e-03 0
20 1.011699e-03 0
