1 0.000000e+00 0
2 0.000000e+00 0
3 0.000000e+00 0
4 0.000000e+00 0
5 1.629595e-05 0
6 9.846597e-03 0
7 4.887663e-03 0
8 4.710873e-02 0
9 6.145149e-02 0
10 1.508244e-01 0
11 1.952662e-01 0
12 3.397132e-01 0
13 4.904210e-01 0
14 6.796420e-01 0
15 6.927576e-01 0
16 4.799578e-01 0
17 2.600633e-01 0
18 3.600625e-02 0
19 0.000000e+00 0
20 0.000000e+00 0
