Number of events: 50000
Cross section of all events: 0.000111764
Total weight of events: 50000
Total weight of all events normalised to luminosity: 2.23527
Total passed weight of all events normalised to luminosity: 0.0163708
Acceptance: 0.732387
Correct b-lepton pairing in 0.83695 of the events.
Average number of b jets: 1.57697
