1	0	0
2	0	0
3	0	0
4	0	0
5	0	0
6	0	0
7	0	0
8	0.000488853	0
9	0.000717266	0
10	0.000476177	0
11	0.000311909	0
12	0.000229927	0
13	0.000166045	0
14	0.000109274	0
15	7.89311e-05	0
16	5.62058e-05	0
17	4.21582e-05	0
18	3.00747e-05	0
19	2.91629e-05	0
20	1.94251e-05	0
21	1.72862e-05	0
22	1.13889e-05	0
23	5.80979e-06	0
24	3.44294e-06	0
25	2.06735e-06	0
26	1.34909e-06	0
27	2.27407e-06	0
28	1.19005e-06	0
29	8.90555e-07	0
30	4.85037e-07	0
31	9.27718e-08	0
32	7.58024e-07	0
33	6.62656e-08	0
34	3.65759e-07	0
35	1.32531e-08	0
36	3.52506e-07	0
37	2.65062e-08	0
38	3.97594e-08	0
39	0	0
40	0	0
41	1.32531e-08	0
42	1.32531e-08	0
43	1.32531e-08	0
44	0	0
45	0	0
46	0	0
47	0	0
48	0	0
49	0	0
50	0	0
