1	0	0
2	0	0
3	0	0
4	0	0
5	0	0
6	0	0
7	0	0
8	0.000600594	0
9	0.000926458	0
10	0.000667517	0
11	0.00047343	0
12	0.000362964	0
13	0.000275122	0
14	0.000195729	0
15	0.000146355	0
16	0.00010911	0
17	8.34165e-05	0
18	6.32126e-05	0
19	5.43332e-05	0
20	3.75878e-05	0
21	3.21547e-05	0
22	2.525e-05	0
23	1.50322e-05	0
24	1.10634e-05	0
25	9.41425e-06	0
26	6.42161e-06	0
27	7.63689e-06	0
28	4.44952e-06	0
29	3.74203e-06	0
30	2.71902e-06	0
31	1.97209e-06	0
32	2.71655e-06	0
33	1.10437e-06	0
34	1.41744e-06	0
35	7.88837e-07	0
36	1.14134e-06	0
37	8.67721e-07	0
38	5.12744e-07	0
39	5.52186e-07	0
40	3.15535e-07	0
41	4.73302e-07	0
42	3.54977e-07	0
43	3.94419e-08	0
44	1.57767e-07	0
45	1.97209e-07	0
46	3.94419e-08	0
47	1.57767e-07	0
48	1.57767e-07	0
49	1.18326e-07	0
50	3.94419e-08	0
