1	0	0
2	0	0
3	0	0
4	0	0
5	0	0
6	0	0
7	0	0
8	0.000357249	0
9	0.000522584	0
10	0.000347507	0
11	0.000228551	0
12	0.000174147	0
13	0.000129592	0
14	8.33252e-05	0
15	6.2373e-05	0
16	4.51784e-05	0
17	3.53634e-05	0
18	2.49437e-05	0
19	2.53706e-05	0
20	1.70819e-05	0
21	1.56654e-05	0
22	1.03003e-05	0
23	5.00621e-06	0
24	2.85884e-06	0
25	1.81426e-06	0
26	1.13511e-06	0
27	2.1603e-06	0
28	1.11571e-06	0
29	7.50275e-07	0
30	3.78371e-07	0
31	3.87974e-08	0
32	7.95539e-07	0
33	3.87974e-08	0
34	3.52506e-07	0
35	1.29325e-08	0
36	3.84837e-07	0
37	2.58649e-08	0
38	6.46623e-09	0
39	1.93987e-08	0
40	2.58649e-08	0
41	1.93987e-08	0
42	1.93987e-08	0
43	6.46623e-09	0
44	0	0
45	6.46623e-09	0
46	6.46623e-09	0
47	0	0
48	3.23312e-08	0
49	6.46623e-09	0
50	6.46623e-09	0
