1	0	0
2	0	0
3	0	0
4	0	0
5	0	0
6	0	0
7	0	0
8	0.000435912	0
9	0.000657368	0
10	0.000448149	0
11	0.000304096	0
12	0.000227685	0
13	0.000168116	0
14	0.000112412	0
15	8.33935e-05	0
16	6.10459e-05	0
17	4.64504e-05	0
18	3.28601e-05	0
19	3.13116e-05	0
20	2.14273e-05	0
21	1.86461e-05	0
22	1.2345e-05	0
23	6.41359e-06	0
24	4.15547e-06	0
25	2.75217e-06	0
26	1.89216e-06	0
27	2.68736e-06	0
28	1.48676e-06	0
29	1.09849e-06	0
30	6.14821e-07	0
31	2.26545e-07	0
32	9.4348e-07	0
33	1.78852e-07	0
34	5.43281e-07	0
35	1.31158e-07	0
36	4.24046e-07	0
37	8.34641e-08	0
38	2.38469e-08	0
39	3.57703e-08	0
40	4.76938e-08	0
41	3.57703e-08	0
42	1.19234e-08	0
43	3.57703e-08	0
44	1.19234e-08	0
45	1.19234e-08	0
46	0	0
47	1.19234e-08	0
48	1.19234e-08	0
49	0	0
50	0	0
