1	0	0
2	0	0
3	0	0
4	0	0
5	0	0
6	0	0
7	0	0
8	0.000494849	0
9	0.000741801	0
10	0.000503152	0
11	0.000336531	0
12	0.00024937	0
13	0.000184532	0
14	0.000120554	0
15	8.73566e-05	0
16	6.43559e-05	0
17	4.85417e-05	0
18	3.47351e-05	0
19	3.18341e-05	0
20	2.23893e-05	0
21	1.98825e-05	0
22	1.27168e-05	0
23	7.02352e-06	0
24	4.1272e-06	0
25	2.96451e-06	0
26	1.8989e-06	0
27	2.92637e-06	0
28	1.65851e-06	0
29	1.03556e-06	0
30	5.32803e-07	0
31	2.70446e-07	0
32	9.15358e-07	0
33	1.65272e-07	0
34	5.92902e-07	0
35	1.20198e-07	0
36	4.12605e-07	0
37	7.51238e-08	0
38	7.51238e-08	0
39	1.50248e-08	0
40	4.50743e-08	0
41	3.00495e-08	0
42	1.50248e-08	0
43	1.50248e-08	0
44	3.00495e-08	0
45	4.50743e-08	0
46	3.00495e-08	0
47	3.00495e-08	0
48	0	0
49	1.50248e-08	0
50	1.50248e-08	0
