1	0	0
2	0	0
3	0	0
4	0	0
5	0	0
6	0	0
7	0	0
8	0.00038155	0
9	0.000590262	0
10	0.000415417	0
11	0.00029202	0
12	0.000227428	0
13	0.000172612	0
14	0.000118029	0
15	8.82613e-05	0
16	6.53235e-05	0
17	5.0802e-05	0
18	3.73604e-05	0
19	3.49189e-05	0
20	2.4063e-05	0
21	2.12988e-05	0
22	1.47101e-05	0
23	8.40025e-06	0
24	5.42225e-06	0
25	3.99299e-06	0
26	2.83657e-06	0
27	3.61528e-06	0
28	2.0267e-06	0
29	1.5016e-06	0
30	1.08271e-06	0
31	5.84167e-07	0
32	1.30246e-06	0
33	5.17785e-07	0
34	6.71142e-07	0
35	1.85871e-07	0
36	6.71142e-07	0
37	1.72595e-07	0
38	1.32765e-07	0
39	6.63827e-08	0
40	9.29357e-08	0
41	9.29357e-08	0
42	9.29357e-08	0
43	9.29357e-08	0
44	6.63827e-08	0
45	3.98296e-08	0
46	6.63827e-08	0
47	2.65531e-08	0
48	1.32765e-08	0
49	3.98296e-08	0
50	0	0
