1	0	0
2	0	0
3	0	0
4	0	0
5	0	0
6	0	0
7	0	0
8	0.00061065	0
9	0.000939017	0
10	0.00065352	0
11	0.000456821	0
12	0.000339486	0
13	0.000251782	0
14	0.00017375	0
15	0.000128949	0
16	9.42954e-05	0
17	7.27756e-05	0
18	5.14793e-05	0
19	4.54977e-05	0
20	3.20868e-05	0
21	2.75257e-05	0
22	2.04704e-05	0
23	1.20828e-05	0
24	7.84141e-06	0
25	5.91284e-06	0
26	4.64421e-06	0
27	5.29182e-06	0
28	3.59382e-06	0
29	2.49836e-06	0
30	1.9409e-06	0
31	1.69087e-06	0
32	1.96035e-06	0
33	8.19815e-07	0
34	1.09546e-06	0
35	6.14861e-07	0
36	9.41748e-07	0
37	3.58669e-07	0
38	2.30573e-07	0
39	2.30573e-07	0
40	1.53715e-07	0
41	2.30573e-07	0
42	1.53715e-07	0
43	7.68576e-08	0
44	1.53715e-07	0
45	5.12384e-08	0
46	7.68576e-08	0
47	1.28096e-07	0
48	2.56192e-08	0
49	5.12384e-08	0
50	2.56192e-08	0
