1 3.988424e-02 0
2 3.875083e-02 0
3 3.839114e-02 0
4 3.761463e-02 0
5 3.765777e-02 0
6 4.231572e-02 0
7 4.364903e-02 0
8 4.670271e-02 0
9 4.291344e-02 0
10 3.969615e-02 0
11 4.254851e-02 0
12 4.138218e-02 0
13 4.371137e-02 0
14 4.300805e-02 0
15 4.134781e-02 0
16 4.046053e-02 0
17 3.853140e-02 0
18 3.854176e-02 0
19 3.725331e-02 0
20 3.509085e-02 0
