Number of events: 100000
Cross section of all events: 0.0513095
Total weight of events: 100000
Total weight of all events normalised to luminosity: 1026.19
Total passed weight of all events normalised to luminosity: 7.68391
Acceptance: 0.74878
Correct b-lepton pairing in 0.84565 of the events.
Average number of b jets: 1.59258
