Number of events: 50000
Cross section of all events: 0.0028661
Total weight of events: 50000
Total weight of all events normalised to luminosity: 57.3219
Total passed weight of all events normalised to luminosity: 0.386442
Acceptance: 0.674161
Correct b-lepton pairing in 0.842557 of the events.
Average number of b jets: 1.5643
