1 2.651053e-05 0
2 1.687301e-04 0
3 4.505590e-04 0
4 6.843191e-04 0
5 8.921598e-04 0
6 1.511961e-03 0
7 2.208656e-03 0
8 2.855757e-03 0
9 4.278927e-03 0
10 8.985953e-03 0
11 8.490610e-03 0
12 3.954390e-03 0
13 2.602155e-03 0
14 1.804508e-03 0
15 1.341761e-03 0
16 8.303501e-04 0
17 4.419895e-04 0
18 2.003550e-04 0
19 8.015094e-05 0
20 9.681768e-06 0
