Number of events: 100000
Cross section of all events: 1.13679e-05
Total weight of events: 100000
Total weight of all events normalised to luminosity: 0.227359
Total passed weight of all events normalised to luminosity: 0.00156135
Acceptance: 0.686735
Correct b-lepton pairing in 0.864308 of the events.
Average number of b jets: 1.57324
