1 3.728786e-03 0
2 1.362316e-02 0
3 2.432803e-02 0
4 2.654361e-02 0
5 3.990755e-02 0
6 5.115623e-02 0
7 6.650100e-02 0
8 9.352588e-02 0
9 1.262458e-01 0
10 2.221295e-01 0
11 2.058045e-01 0
12 1.233716e-01 0
13 8.132593e-02 0
14 5.468618e-02 0
15 4.404466e-02 0
16 3.233520e-02 0
17 2.090616e-02 0
18 1.718704e-02 0
19 1.024904e-02 0
20 4.360684e-03 0
