1 0.000000e+00 0
2 0.000000e+00 0
3 4.522696e-03 0
4 1.558797e-01 0
5 1.939636e-01 0
6 2.276209e-01 0
7 2.191092e-01 0
8 2.105423e-01 0
9 1.482084e-01 0
10 1.696477e-01 0
11 1.140804e-01 0
12 1.085811e-01 0
13 1.226927e-01 0
14 8.564518e-02 0
15 9.826737e-02 0
16 7.501989e-02 0
17 6.518190e-02 0
18 5.414091e-02 0
19 5.416863e-02 0
20 3.516277e-02 0
