Number of events: 100000
Cross section of all events: 0.0163086
Total weight of events: 100000
Total weight of all events normalised to luminosity: 326.172
Total passed weight of all events normalised to luminosity: 2.47598
Acceptance: 0.759104
Correct b-lepton pairing in 0.858488 of the events.
Average number of b jets: 1.59641
