Number of events: 50000
Cross section of all events: 0.136838
Total weight of events: 50000
Total weight of all events normalised to luminosity: 2736.76
Total passed weight of all events normalised to luminosity: 19.0217
Acceptance: 0.695045
Correct b-lepton pairing in 0.846206 of the events.
Average number of b jets: 1.5579
