1 1.374474e+00 0
2 4.026769e+00 0
3 4.520317e+00 0
4 5.154509e+00 0
5 5.291979e+00 0
6 5.349559e+00 0
7 5.276702e+00 0
8 5.613065e+00 0
9 5.080954e+00 0
10 5.247456e+00 0
11 5.278165e+00 0
12 4.819968e+00 0
13 3.962426e+00 0
14 4.743665e+00 0
15 4.260043e+00 0
16 4.034856e+00 0
17 4.031264e+00 0
18 4.051007e+00 0
19 3.498550e+00 0
20 3.467623e+00 0
