1 3.013859e-03 0
2 6.522569e-03 0
3 1.806969e-02 0
4 3.808024e-02 0
5 6.288687e-02 0
6 1.040036e-01 0
7 1.421315e-01 0
8 1.847857e-01 0
9 2.760117e-01 0
10 5.277053e-01 0
11 4.889778e-01 0
12 2.432109e-01 0
13 1.537762e-01 0
14 1.099377e-01 0
15 7.527126e-02 0
16 4.458059e-02 0
17 3.487052e-02 0
18 1.436245e-02 0
19 4.836991e-03 0
20 1.054046e-03 0
