Number of events: 100000
Cross section of all events: 0.157618
Total weight of events: 100000
Total weight of all events normalised to luminosity: 3152.36
Total passed weight of all events normalised to luminosity: 23.3919
Acceptance: 0.742046
Correct b-lepton pairing in 0.852428 of the events.
Average number of b jets: 1.58686
