1 0.000000e+00 0
2 3.607242e-06 0
3 1.854086e-05 0
4 2.795940e-05 0
5 3.934970e-05 0
6 5.877145e-05 0
7 8.792001e-05 0
8 1.295625e-04 0
9 1.543619e-04 0
10 1.907116e-04 0
11 2.151193e-04 0
12 2.413577e-04 0
13 2.681950e-04 0
14 2.447748e-04 0
15 1.482369e-04 0
16 6.204124e-05 0
17 3.529444e-06 0
18 0.000000e+00 0
19 0.000000e+00 0
20 0.000000e+00 0
