Number of events: 100000
Cross section of all events: 0.00207418
Total weight of events: 100000
Total weight of all events normalised to luminosity: 41.4835
Total passed weight of all events normalised to luminosity: 0.327396
Acceptance: 0.789219
Correct b-lepton pairing in 0.83967 of the events.
Average number of b jets: 1.59115
