1 4.814929e-03 0
2 1.378474e-02 0
3 1.724253e-02 0
4 1.750069e-02 0
5 1.905649e-02 0
6 1.984125e-02 0
7 2.009245e-02 0
8 1.873168e-02 0
9 2.038318e-02 0
10 1.771852e-02 0
11 1.776633e-02 0
12 1.829730e-02 0
13 1.809277e-02 0
14 1.667369e-02 0
15 1.667951e-02 0
16 1.546302e-02 0
17 1.432229e-02 0
18 1.407593e-02 0
19 1.355976e-02 0
20 1.329864e-02 0
