{
    "Analyses": {
        "TopPolarisation": {
            "Authors": [], 
            "BibKey": "", 
            "Collider": "", 
            "Cuts": [], 
            "Description": "", 
            "Efficiencies": [], 
            "Experiment": "", 
            "Luminosity": {
                "Error": 0, 
                "Value": 0
            }, 
            "References": [], 
            "RunInfo": "", 
            "Status": "", 
            "Summary": "", 
            "Year": ""
        }
    }, 
    "Atom Run Info": {
        "Processed Events": 100000, 
        "Processed Files": [
            "././fifo.hepmc"
        ], 
        "Used Settings": [
            {
                "Description": "Compute quantities for Control Regions", 
                "Setting Name": "ATOM_TopPolarisation:CalcCR", 
                "Value": true
            }, 
            {
                "Description": "Apply parameterized efficiencies for the objects of this analysis", 
                "Setting Name": "ATOM_TopPolarisation:DoEfficiencies", 
                "Value": true
            }, 
            {
                "Description": "Apply parameterized momentum resolution for the objects of this analysis", 
                "Setting Name": "ATOM_TopPolarisation:DoSmearing", 
                "Value": true
            }, 
            {
                "Description": "Use parameterized efficiencies for tagging objects of this analysis", 
                "Setting Name": "ATOM_TopPolarisation:DoTagging", 
                "Value": true
            }, 
            {
                "Description": "Save event-related information for this analysis", 
                "Setting Name": "ATOM_TopPolarisation:SaveEvents", 
                "Value": true
            }, 
            {
                "Description": "Save histograms for this analysis", 
                "Setting Name": "ATOM_TopPolarisation:SaveHistograms", 
                "Value": true
            }, 
            {
                "Description": "Save pass-fail informatio for this analysisn", 
                "Setting Name": "ATOM_TopPolarisation:SavePassFail", 
                "Value": true
            }, 
            {
                "Description": "Save projection information for this analysis", 
                "Setting Name": "ATOM_TopPolarisation:SaveProjections", 
                "Value": true
            }, 
            {
                "Description": "Ignore beam information in selecting valid analyses for an Atom run", 
                "Setting Name": "AnalysisHandler:IgnoreBeams", 
                "Value": true
            }, 
            {
                "Description": "Energy over Track momentum ratio cut to define leptonic clusters", 
                "Setting Name": "DressedLeptons:EoverPRatio", 
                "Value": 1.3
            }, 
            {
                "Description": "Compute the Jet Energy scale contribution to the smearing ", 
                "Setting Name": "FastJets:DoJES", 
                "Value": true
            }, 
            {
                "Description": "Threshold for flagging high sensitivity (dlog cut_eff/dlog cut_value) in cut efficiencies", 
                "Setting Name": "FlagCutSensitivity:Tolerance", 
                "Value": 5
            }, 
            {
                "Description": "Significance threshold for flagging low statistics in numerical quantities", 
                "Setting Name": "FlagLowStatistics:Sigmas", 
                "Value": 2
            }, 
            {
                "Description": "Perform the condition-flagging step", 
                "Setting Name": "FlaggingHandler:DoFlagging", 
                "Value": true
            }, 
            {
                "Description": "Uses kinematic information to perform projection caching", 
                "Setting Name": "ProjectionHandler:CacheRanges", 
                "Value": true
            }, 
            {
                "Description": "Uses smearing and efficiency information to perform projection caching", 
                "Setting Name": "ProjectionHandler:CacheSimulation", 
                "Value": true
            }, 
            {
                "Description": "Compute quantities (efficiencies, cutflows, histograms) for Control Regions", 
                "Setting Name": "ProjectionHandler:CalcCR", 
                "Value": true
            }, 
            {
                "Description": "Enable the use of parameterized efficiencies", 
                "Setting Name": "ProjectionHandler:DoEfficiencies", 
                "Value": true
            }, 
            {
                "Description": "Enable the use of parameterized momentum resolution (smearing)", 
                "Setting Name": "ProjectionHandler:DoSmearing", 
                "Value": true
            }, 
            {
                "Description": "Enable the use of parameterized efficiencies for tagging", 
                "Setting Name": "ProjectionHandler:DoTagging", 
                "Value": true
            }, 
            {
                "Description": "Displays the list of valid analyses used in the current run", 
                "Setting Name": "Run:ListUsedAnalyses", 
                "Value": true
            }, 
            {
                "Description": "Output file containing citation references for the current Atom run", 
                "Setting Name": "Run:RefsOutputFile", 
                "Value": "Run01.bib"
            }, 
            {
                "Description": "Name of the current Atom run", 
                "Setting Name": "Run:RunName", 
                "Value": "Run01"
            }, 
            {
                "Description": "Save a file containing the citation references for the current Atom run", 
                "Setting Name": "Run:SaveReferences", 
                "Value": true
            }, 
            {
                "Description": "Save event-by-event particles and vertices information", 
                "Setting Name": "WriterHandler:SaveEvents", 
                "Value": false
            }, 
            {
                "Description": "Save analyses histograms", 
                "Setting Name": "WriterHandler:SaveHistograms", 
                "Value": true
            }, 
            {
                "Description": "Save event-by-event hard process kinematical information", 
                "Setting Name": "WriterHandler:SaveKinematics", 
                "Value": false
            }, 
            {
                "Description": "Save run options", 
                "Setting Name": "WriterHandler:SaveOptions", 
                "Value": true
            }, 
            {
                "Description": "Save per-analysis event-by-event pass/fail information", 
                "Setting Name": "WriterHandler:SavePassFail", 
                "Value": false
            }, 
            {
                "Description": "Save analysis-by-analysis projections information", 
                "Setting Name": "WriterHandler:SaveProjections", 
                "Value": false
            }
        ]
    }, 
    "Cross Sections": [
        {
            "Cross Section": 0.2, 
            "Cross Section Error": [
                61, 
                61
            ], 
            "Process ID": -2
        }, 
        {
            "Cross Section": 0.2, 
            "Cross Section Error": [
                61, 
                61
            ], 
            "Process ID": -1
        }, 
        {
            "Cross Section": 0.3833, 
            "Cross Section Error": [
                0.0012, 
                0.0012
            ], 
            "Process ID": 0
        }
    ], 
    "Sub Processes Information": [
        {
            "Process ID": -2, 
            "Process ID Final State": [
                "tbar", 
                37
            ]
        }, 
        {
            "Process ID": -1, 
            "Process ID Final State": [
                -37, 
                "t"
            ]
        }
    ]
}