1 0.000000e+00 0
2 0.000000e+00 0
3 0.000000e+00 0
4 0.000000e+00 0
5 3.433729e-08 0
6 2.978271e-08 0
7 6.104444e-06 0
8 3.428324e-05 0
9 2.700471e-05 0
10 1.084604e-04 0
11 1.579916e-04 0
12 2.726665e-04 0
13 4.085573e-04 0
14 5.022568e-04 0
15 5.710601e-04 0
16 3.755291e-04 0
17 2.138589e-04 0
18 3.117503e-05 0
19 0.000000e+00 0
20 0.000000e+00 0
