1 6.106515e-02 0
2 7.601519e-02 0
3 8.043745e-02 0
4 7.599285e-02 0
5 7.557534e-02 0
6 1.017415e-01 0
7 8.399560e-02 0
8 1.203887e-01 0
9 1.147835e-01 0
10 1.076864e-01 0
11 1.087754e-01 0
12 1.386909e-01 0
13 1.637581e-01 0
14 2.173672e-01 0
15 2.354046e-01 0
16 2.277774e-01 0
17 2.320006e-01 0
18 3.006405e-01 0
19 3.444960e-01 0
20 2.861351e-01 0
