Number of events: 50000
Cross section of all events: 0.0293016
Total weight of events: 50000
Total weight of all events normalised to luminosity: 586.032
Total passed weight of all events normalised to luminosity: 3.44796
Acceptance: 0.588358
Correct b-lepton pairing in 0.841179 of the events.
Average number of b jets: 1.5483
