1 0.000000e+00 0
2 6.448483e-07 0
3 9.431261e-04 0
4 3.440113e-03 0
5 5.756862e-03 0
6 6.012770e-03 0
7 5.511805e-03 0
8 3.973123e-03 0
9 4.333643e-03 0
10 3.293697e-03 0
11 2.929812e-03 0
12 1.785142e-03 0
13 1.442790e-03 0
14 9.451509e-04 0
15 7.604874e-04 0
16 6.093075e-04 0
17 3.612988e-04 0
18 1.928177e-04 0
19 1.674284e-04 0
20 2.054825e-04 0
