Number of events: 100000
Cross section of all events: 5.64272e-06
Total weight of events: 100000
Total weight of all events normalised to luminosity: 0.112854
Total passed weight of all events normalised to luminosity: 0.000627465
Acceptance: 0.555996
Correct b-lepton pairing in 0.850361 of the events.
Average number of b jets: 1.53739
