# BEGIN PLOT
DrawOnly=/export0/scratch/karl/Work/TopPolarisation/limits/Wprime/ttb_Wp/atom_results.yoda/TopPolarisation/leadingjetpt/0
Legend=1
LogY=1
# END PLOT

# BEGIN HISTO1D /export0/scratch/karl/Work/TopPolarisation/limits/Wprime/ttb_Wp/atom_results.yoda/TopPolarisation/leadingjetpt/0
LineColor={[HTML]{EE3311}}
LineStyle=solid
Path=/export0/scratch/karl/Work/TopPolarisation/limits/Wprime/ttb_Wp/atom_results.yoda/TopPolarisation/leadingjetpt/0
Title=atom_results
# xlow	 xhigh	 val	 errminus	 errplus
0.000000e+00	1.500000e+01	0.000000e+00	0.000000e+00	0.000000e+00
1.500000e+01	3.000000e+01	0.000000e+00	0.000000e+00	0.000000e+00
3.000000e+01	4.500000e+01	2.467629e-01	2.225656e-03	2.225656e-03
4.500000e+01	6.000000e+01	9.324807e-01	4.333119e-03	4.333119e-03
6.000000e+01	7.500000e+01	1.831183e+00	6.052177e-03	6.052177e-03
7.500000e+01	9.000000e+01	2.109059e+00	6.509354e-03	6.509354e-03
9.000000e+01	1.050000e+02	2.279936e+00	6.773911e-03	6.773911e-03
1.050000e+02	1.200000e+02	1.803825e+00	6.005583e-03	6.005583e-03
1.200000e+02	1.350000e+02	1.572213e+00	5.632708e-03	5.632708e-03
1.350000e+02	1.500000e+02	1.228369e+00	4.944027e-03	4.944027e-03
1.500000e+02	1.650000e+02	9.665687e-01	4.404618e-03	4.404618e-03
1.650000e+02	1.800000e+02	6.261016e-01	3.540029e-03	3.540029e-03
1.800000e+02	1.950000e+02	4.584664e-01	3.044796e-03	3.044796e-03
1.950000e+02	2.100000e+02	3.885015e-01	2.772864e-03	2.772864e-03
2.100000e+02	2.250000e+02	2.759428e-01	2.365641e-03	2.365641e-03
2.250000e+02	2.400000e+02	1.959346e-01	1.962549e-03	1.962549e-03
2.400000e+02	2.550000e+02	1.485205e-01	1.700742e-03	1.700742e-03
2.550000e+02	2.700000e+02	1.262537e-01	1.594068e-03	1.594068e-03
2.700000e+02	2.850000e+02	1.109571e-01	1.480078e-03	1.480078e-03
2.850000e+02	3.000000e+02	8.249927e-02	1.287346e-03	1.287346e-03
# END HISTO1D

