Number of events: 100000
Cross section of all events: 0.0231299
Total weight of events: 100000
Total weight of all events normalised to luminosity: 462.597
Total passed weight of all events normalised to luminosity: 3.11966
Acceptance: 0.674379
Correct b-lepton pairing in 0.840758 of the events.
Average number of b jets: 1.55776
