Number of events: 50000
Cross section of all events: 0.0249748
Total weight of events: 50000
Total weight of all events normalised to luminosity: 499.497
Total passed weight of all events normalised to luminosity: 2.9154
Acceptance: 0.583667
Correct b-lepton pairing in 0.839143 of the events.
Average number of b jets: 1.5443
