Number of events: 50000
Cross section of all events: 0.0887526
Total weight of events: 50000
Total weight of all events normalised to luminosity: 1775.05
Total passed weight of all events normalised to luminosity: 12.6463
Acceptance: 0.712446
Correct b-lepton pairing in 0.831672 of the events.
Average number of b jets: 1.55772
