1 1.804518e-03 0
2 3.687599e-02 0
3 1.352321e-01 0
4 2.598251e-01 0
5 3.653469e-01 0
6 4.772307e-01 0
7 4.172221e-01 0
8 3.548038e-01 0
9 3.352846e-01 0
10 3.438967e-01 0
11 3.066578e-01 0
12 2.784266e-01 0
13 2.304381e-01 0
14 2.024122e-01 0
15 1.283288e-01 0
16 8.718706e-02 0
17 3.776110e-02 0
18 2.283355e-02 0
19 2.995962e-03 0
20 0.000000e+00 0
