1 6.284698e-01 0
2 6.778543e-01 0
3 7.290491e-01 0
4 7.463658e-01 0
5 8.119110e-01 0
6 8.902164e-01 0
7 1.015407e+00 0
8 7.865544e-01 0
9 7.866547e-01 0
10 9.552453e-01 0
11 8.867060e-01 0
12 7.709691e-01 0
13 7.000653e-01 0
14 6.927765e-01 0
15 7.796742e-01 0
16 8.486069e-01 0
17 8.784289e-01 0
18 9.430440e-01 0
19 1.201189e+00 0
20 1.043229e+00 0
