1 5.602898e-04 0
2 1.998933e-01 0
3 6.489244e-01 0
4 1.384399e+00 0
5 1.680350e+00 0
6 2.802008e+00 0
7 3.819557e+00 0
8 5.714312e+00 0
9 7.401180e+00 0
10 9.349613e+00 0
11 1.102653e+01 0
12 1.098899e+01 0
13 1.218431e+01 0
14 1.113161e+01 0
15 7.312278e+00 0
16 2.815410e+00 0
17 1.061486e-01 0
18 0.000000e+00 0
19 0.000000e+00 0
20 0.000000e+00 0
