1 0.000000e+00 0
2 0.000000e+00 0
3 3.185885e-04 0
4 8.838719e-03 0
5 1.104747e-02 0
6 1.140164e-02 0
7 9.848324e-03 0
8 9.487275e-03 0
9 7.800388e-03 0
10 6.763683e-03 0
11 7.118160e-03 0
12 5.407704e-03 0
13 5.574227e-03 0
14 3.987930e-03 0
15 3.658143e-03 0
16 2.866223e-03 0
17 2.279216e-03 0
18 2.241508e-03 0
19 1.979869e-03 0
20 1.841114e-03 0
