Number of events: 100000
Cross section of all events: 0.000921748
Total weight of events: 100000
Total weight of all events normalised to luminosity: 18.435
Total passed weight of all events normalised to luminosity: 0.118276
Acceptance: 0.641583
Correct b-lepton pairing in 0.825716 of the events.
Average number of b jets: 1.55417
