1 0.000000e+00 0
2 0.000000e+00 0
3 9.541146e-02 0
4 1.777828e+00 0
5 2.529107e+00 0
6 2.533277e+00 0
7 2.094737e+00 0
8 2.023137e+00 0
9 1.979926e+00 0
10 1.800535e+00 0
11 1.467855e+00 0
12 1.183112e+00 0
13 1.021087e+00 0
14 8.809645e-01 0
15 9.850911e-01 0
16 9.391942e-01 0
17 6.031808e-01 0
18 6.285607e-01 0
19 5.027161e-01 0
20 4.006550e-01 0
