Number of events: 100000
Cross section of all events: 0.192323
Total weight of events: 100000
Total weight of all events normalised to luminosity: 3846.46
Total passed weight of all events normalised to luminosity: 27.8351
Acceptance: 0.723656
Correct b-lepton pairing in 0.846431 of the events.
Average number of b jets: 1.57841
