1 0.000000e+00 0
2 1.111024e-02 0
3 1.516138e-02 0
4 2.645191e-02 0
5 5.789771e-02 0
6 9.434848e-02 0
7 1.327932e-01 0
8 1.882089e-01 0
9 2.381533e-01 0
10 3.315381e-01 0
11 3.360017e-01 0
12 3.651250e-01 0
13 3.983751e-01 0
14 3.659541e-01 0
15 2.949087e-01 0
16 8.603602e-02 0
17 3.411248e-03 0
18 0.000000e+00 0
19 0.000000e+00 0
20 0.000000e+00 0
