1 1.839699e-02 0
2 2.712375e-02 0
3 4.960412e-02 0
4 7.401901e-02 0
5 8.636711e-02 0
6 1.305251e-01 0
7 1.435062e-01 0
8 1.964026e-01 0
9 2.932784e-01 0
10 4.544942e-01 0
11 5.366954e-01 0
12 2.567897e-01 0
13 2.159970e-01 0
14 1.478229e-01 0
15 9.416745e-02 0
16 8.591808e-02 0
17 6.123183e-02 0
18 3.847350e-02 0
19 1.938565e-02 0
20 1.527600e-02 0
