1 9.406966e-01 0
2 2.157321e+00 0
3 2.741947e+00 0
4 2.861935e+00 0
5 2.876246e+00 0
6 2.905519e+00 0
7 2.941164e+00 0
8 2.766095e+00 0
9 2.837353e+00 0
10 2.729932e+00 0
11 2.830184e+00 0
12 2.868274e+00 0
13 2.830037e+00 0
14 2.268232e+00 0
15 2.612187e+00 0
16 2.147662e+00 0
17 2.390712e+00 0
18 2.070286e+00 0
19 2.141232e+00 0
20 1.865333e+00 0
