1 4.210855e-01 0
2 9.849630e+00 0
3 2.797712e+01 0
4 4.615156e+01 0
5 5.965708e+01 0
6 6.813772e+01 0
7 6.607868e+01 0
8 6.524138e+01 0
9 5.957279e+01 0
10 5.699230e+01 0
11 4.902806e+01 0
12 4.403353e+01 0
13 4.297922e+01 0
14 2.971891e+01 0
15 2.252236e+01 0
16 1.826118e+01 0
17 9.783560e+00 0
18 3.927802e+00 0
19 8.261339e-01 0
20 1.588678e-02 0
