1 1.180098e+01 0
2 2.941017e+01 0
3 3.709550e+01 0
4 3.677814e+01 0
5 3.872399e+01 0
6 4.027800e+01 0
7 4.025406e+01 0
8 4.079876e+01 0
9 3.978901e+01 0
10 4.098302e+01 0
11 3.799242e+01 0
12 3.841456e+01 0
13 3.686493e+01 0
14 3.399971e+01 0
15 3.385464e+01 0
16 3.252784e+01 0
17 3.016845e+01 0
18 2.856909e+01 0
19 2.625202e+01 0
20 2.662068e+01 0
