1 6.717231e-02 0
2 5.855761e-02 0
3 6.361046e-02 0
4 5.274140e-02 0
5 6.379514e-02 0
6 6.965254e-02 0
7 6.609034e-02 0
8 6.730873e-02 0
9 7.198819e-02 0
10 6.692630e-02 0
11 6.169534e-02 0
12 7.086283e-02 0
13 6.592903e-02 0
14 7.447231e-02 0
15 6.963096e-02 0
16 6.218336e-02 0
17 6.049985e-02 0
18 5.213816e-02 0
19 5.563411e-02 0
20 5.938125e-02 0
