1 0.000000e+00 0
2 5.926840e-04 0
3 2.215628e-02 0
4 1.102551e-01 0
5 1.597157e-01 0
6 1.785812e-01 0
7 1.833496e-01 0
8 1.734590e-01 0
9 1.228138e-01 0
10 9.511477e-02 0
11 6.721734e-02 0
12 5.715469e-02 0
13 4.152234e-02 0
14 3.405862e-02 0
15 2.776807e-02 0
16 1.932360e-02 0
17 2.122757e-02 0
18 7.690691e-03 0
19 8.229797e-03 0
20 6.041737e-03 0
