1 0.000000e+00 0
2 6.125082e-06 0
3 1.274504e-02 0
4 5.773083e-02 0
5 7.887384e-02 0
6 1.184580e-01 0
7 1.048327e-01 0
8 7.822236e-02 0
9 5.974749e-02 0
10 6.118937e-02 0
11 4.020198e-02 0
12 3.991727e-02 0
13 2.636430e-02 0
14 1.488314e-02 0
15 1.255607e-02 0
16 1.245970e-02 0
17 7.286964e-03 0
18 4.913847e-03 0
19 3.044820e-03 0
20 4.235037e-03 0
