1 1.196238e-01 0
2 1.249846e-01 0
3 1.625880e-01 0
4 1.771315e-01 0
5 1.957411e-01 0
6 1.524239e-01 0
7 1.523946e-01 0
8 1.959422e-01 0
9 1.714767e-01 0
10 1.599940e-01 0
11 1.281327e-01 0
12 1.950544e-01 0
13 1.612506e-01 0
14 1.916536e-01 0
15 1.698992e-01 0
16 1.997817e-01 0
17 2.201777e-01 0
18 1.905552e-01 0
19 2.050765e-01 0
20 1.740804e-01 0
