1 0.000000e+00 0
2 2.230220e-01 0
3 1.107369e+00 0
4 1.863422e+00 0
5 2.452214e+00 0
6 2.208853e+00 0
7 2.737861e+00 0
8 2.551726e+00 0
9 2.430730e+00 0
10 2.161092e+00 0
11 2.071808e+00 0
12 1.652920e+00 0
13 1.309236e+00 0
14 1.347699e+00 0
15 9.311726e-01 0
16 5.305528e-01 0
17 3.239090e-01 0
18 1.246489e-01 0
19 2.637066e-02 0
20 0.000000e+00 0
