1 0.000000e+00 0
2 1.727045e-08 0
3 9.732213e-06 0
4 2.505480e-05 0
5 4.658075e-05 0
6 5.920945e-05 0
7 6.200984e-05 0
8 4.554756e-05 0
9 3.692850e-05 0
10 3.583212e-05 0
11 2.533649e-05 0
12 2.222174e-05 0
13 1.180022e-05 0
14 1.107689e-05 0
15 4.714829e-06 0
16 5.078258e-06 0
17 4.342947e-06 0
18 1.662029e-06 0
19 1.241541e-06 0
20 2.483387e-06 0
