Number of events: 100000
Cross section of all events: 0.0405573
Total weight of events: 100000
Total weight of all events normalised to luminosity: 811.146
Total passed weight of all events normalised to luminosity: 5.11781
Acceptance: 0.630935
Correct b-lepton pairing in 0.856199 of the events.
Average number of b jets: 1.55197
