1 2.234310e-03 0
2 5.906469e-02 0
3 2.481431e-01 0
4 5.020581e-01 0
5 5.796534e-01 0
6 5.762223e-01 0
7 6.307049e-01 0
8 5.730001e-01 0
9 5.716611e-01 0
10 5.566843e-01 0
11 5.627531e-01 0
12 4.729136e-01 0
13 3.512583e-01 0
14 2.902303e-01 0
15 2.848185e-01 0
16 1.454391e-01 0
17 7.490662e-02 0
18 3.025134e-02 0
19 3.124642e-03 0
20 0.000000e+00 0
