1 0.000000e+00 0
2 7.242040e-02 0
3 1.160652e-01 0
4 2.799747e-01 0
5 4.492740e-01 0
6 6.670146e-01 0
7 9.059058e-01 0
8 1.459175e+00 0
9 1.923261e+00 0
10 2.118645e+00 0
11 2.424744e+00 0
12 2.944703e+00 0
13 2.782477e+00 0
14 2.422715e+00 0
15 1.987227e+00 0
16 7.018443e-01 0
17 3.665628e-02 0
18 0.000000e+00 0
19 0.000000e+00 0
20 0.000000e+00 0
