1 0.000000e+00 0
2 2.895833e-04 0
3 7.051483e-04 0
4 1.332647e-03 0
5 2.090994e-03 0
6 2.152819e-03 0
7 2.047318e-03 0
8 1.807747e-03 0
9 1.941013e-03 0
10 1.735677e-03 0
11 1.586663e-03 0
12 1.518305e-03 0
13 1.389226e-03 0
14 1.061624e-03 0
15 7.151173e-04 0
16 7.139692e-04 0
17 3.205042e-04 0
18 1.035339e-04 0
19 4.410604e-05 0
20 0.000000e+00 0
