1 1.654673e-05 0
2 6.805311e-05 0
3 1.976082e-04 0
4 4.154942e-04 0
5 5.727850e-04 0
6 9.086191e-04 0
7 1.108984e-03 0
8 1.571219e-03 0
9 2.271764e-03 0
10 4.296523e-03 0
11 4.036052e-03 0
12 2.155011e-03 0
13 1.405228e-03 0
14 9.883193e-04 0
15 6.472755e-04 0
16 4.360265e-04 0
17 2.418695e-04 0
18 1.520412e-04 0
19 4.458374e-05 0
20 2.199269e-05 0
