1 1.555565e-04 0
2 1.465549e-04 0
3 1.533545e-04 0
4 1.741502e-04 0
5 1.734882e-04 0
6 1.674351e-04 0
7 1.998755e-04 0
8 2.014538e-04 0
9 2.123273e-04 0
10 1.981358e-04 0
11 1.968315e-04 0
12 2.082413e-04 0
13 1.908412e-04 0
14 1.902295e-04 0
15 1.700828e-04 0
16 1.686419e-04 0
17 1.722816e-04 0
18 1.594571e-04 0
19 1.850169e-04 0
20 1.559444e-04 0
