1 0.000000e+00 0
2 2.555983e-02 0
3 7.650888e-02 0
4 1.431274e-01 0
5 1.642370e-01 0
6 1.953544e-01 0
7 2.208779e-01 0
8 1.967550e-01 0
9 1.823571e-01 0
10 1.638713e-01 0
11 1.565082e-01 0
12 1.293836e-01 0
13 1.239479e-01 0
14 1.156589e-01 0
15 5.953299e-02 0
16 4.717966e-02 0
17 3.027945e-02 0
18 1.166316e-02 0
19 1.013571e-03 0
20 2.564092e-05 0
