1 1.791609e-04 0
2 1.906404e-04 0
3 1.675169e-04 0
4 1.836496e-04 0
5 1.806601e-04 0
6 1.879629e-04 0
7 1.908858e-04 0
8 1.857986e-04 0
9 1.679758e-04 0
10 1.703919e-04 0
11 1.821945e-04 0
12 1.778383e-04 0
13 1.801603e-04 0
14 1.804060e-04 0
15 1.651344e-04 0
16 1.821402e-04 0
17 2.009090e-04 0
18 1.756456e-04 0
19 1.991258e-04 0
20 1.824378e-04 0
