Number of events: 100000
Cross section of all events: 0.0105355
Total weight of events: 100000
Total weight of all events normalised to luminosity: 210.71
Total passed weight of all events normalised to luminosity: 1.59699
Acceptance: 0.757905
Correct b-lepton pairing in 0.843304 of the events.
Average number of b jets: 1.58818
