# BEGIN PLOT
DrawOnly=/export0/scratch/karl/Work/TopPolarisation/limits/runs/paramcards/yuk_2_point_2524_dir/atom_results.yoda/TopPolarisation/dphi_lplm/--2
Legend=1
LogY=1
# END PLOT

# BEGIN HISTO1D /export0/scratch/karl/Work/TopPolarisation/limits/runs/paramcards/yuk_2_point_2524_dir/atom_results.yoda/TopPolarisation/dphi_lplm/--2
LineColor={[HTML]{EE3311}}
LineStyle=solid
Path=/export0/scratch/karl/Work/TopPolarisation/limits/runs/paramcards/yuk_2_point_2524_dir/atom_results.yoda/TopPolarisation/dphi_lplm/--2
Title=atom_results
# xlow	 xhigh	 val	 errminus	 errplus
0.000000e+00	1.570796e-01	1.896978e-01	5.032986e-04	5.032986e-04
1.570796e-01	3.141593e-01	2.070169e-01	5.219382e-04	5.219382e-04
3.141593e-01	4.712389e-01	1.761812e-01	4.863718e-04	4.863718e-04
4.712389e-01	6.283185e-01	2.600850e-01	5.826505e-04	5.826505e-04
6.283185e-01	7.853982e-01	2.908442e-01	6.386277e-04	6.386277e-04
7.853982e-01	9.424778e-01	2.611643e-01	5.929595e-04	5.929595e-04
9.424778e-01	1.099557e+00	2.817540e-01	6.064940e-04	6.064940e-04
1.099557e+00	1.256637e+00	3.317362e-01	6.609695e-04	6.609695e-04
1.256637e+00	1.413717e+00	2.889696e-01	6.239376e-04	6.239376e-04
1.413717e+00	1.570796e+00	3.703369e-01	7.044815e-04	7.044815e-04
1.570796e+00	1.727876e+00	4.137351e-01	7.437189e-04	7.437189e-04
1.727876e+00	1.884956e+00	4.870715e-01	7.956078e-04	7.956078e-04
1.884956e+00	2.042035e+00	6.242983e-01	9.120810e-04	9.120810e-04
2.042035e+00	2.199115e+00	4.173841e-01	7.345334e-04	7.345334e-04
2.199115e+00	2.356194e+00	8.440492e-01	1.045478e-03	1.045478e-03
2.356194e+00	2.513274e+00	1.065964e+00	1.178313e-03	1.178313e-03
2.513274e+00	2.670354e+00	9.610339e-01	1.113089e-03	1.113089e-03
2.670354e+00	2.827433e+00	1.160009e+00	1.231309e-03	1.231309e-03
2.827433e+00	2.984513e+00	1.079512e+00	1.180864e-03	1.180864e-03
2.984513e+00	3.141593e+00	1.240800e+00	1.273620e-03	1.273620e-03
# END HISTO1D

