1 7.467228e-04 0
2 4.808801e-03 0
3 1.214417e-02 0
4 1.945973e-02 0
5 3.284144e-02 0
6 4.791685e-02 0
7 6.847641e-02 0
8 9.722608e-02 0
9 1.285732e-01 0
10 2.387810e-01 0
11 2.290257e-01 0
12 1.263960e-01 0
13 8.195391e-02 0
14 6.106381e-02 0
15 4.297181e-02 0
16 2.777090e-02 0
17 1.569661e-02 0
18 6.888741e-03 0
19 3.361371e-03 0
20 9.410304e-04 0
