Number of events: 50000
Cross section of all events: 0.00474078
Total weight of events: 50000
Total weight of all events normalised to luminosity: 94.8155
Total passed weight of all events normalised to luminosity: 0.743499
Acceptance: 0.784154
Correct b-lepton pairing in 0.860009 of the events.
Average number of b jets: 1.60065
