1 1.442292e-03 0
2 1.214017e-03 0
3 2.034158e-03 0
4 1.783244e-03 0
5 2.339972e-03 0
6 2.023859e-03 0
7 2.084945e-03 0
8 1.918887e-03 0
9 2.106167e-03 0
10 1.882242e-03 0
11 1.615016e-03 0
12 2.167025e-03 0
13 2.046622e-03 0
14 2.349957e-03 0
15 2.006504e-03 0
16 1.858756e-03 0
17 2.457364e-03 0
18 2.705263e-03 0
19 2.345832e-03 0
20 2.652966e-03 0
