1 2.156204e-03 0
2 2.272178e-03 0
3 2.111577e-03 0
4 2.160143e-03 0
5 2.346277e-03 0
6 2.027557e-03 0
7 1.832284e-03 0
8 1.979513e-03 0
9 1.912677e-03 0
10 2.089075e-03 0
11 1.721417e-03 0
12 2.074325e-03 0
13 2.023211e-03 0
14 2.035629e-03 0
15 1.876408e-03 0
16 1.933752e-03 0
17 2.073382e-03 0
18 2.204460e-03 0
19 2.157436e-03 0
20 2.047585e-03 0
