Number of events: 100000
Cross section of all events: 0.498003
Total weight of events: 100000
Total weight of all events normalised to luminosity: 9960.05
Total passed weight of all events normalised to luminosity: 65.8409
Acceptance: 0.66105
Correct b-lepton pairing in 0.826964 of the events.
Average number of b jets: 1.55388
