Number of events: 50000
Cross section of all events: 0.0762115
Total weight of events: 50000
Total weight of all events normalised to luminosity: 1524.23
Total passed weight of all events normalised to luminosity: 9.92755
Acceptance: 0.651315
Correct b-lepton pairing in 0.827577 of the events.
Average number of b jets: 1.54633
