1 5.303439e-02 0
2 5.123066e-02 0
3 4.974313e-02 0
4 3.654559e-02 0
5 5.326871e-02 0
6 6.145322e-02 0
7 6.352340e-02 0
8 6.962629e-02 0
9 4.916510e-02 0
10 9.405535e-02 0
11 7.357144e-02 0
12 9.306077e-02 0
13 8.105771e-02 0
14 1.188766e-01 0
15 1.460389e-01 0
16 1.533180e-01 0
17 1.905512e-01 0
18 1.922060e-01 0
19 2.013127e-01 0
20 2.122029e-01 0
