Number of events: 100000
Cross section of all events: 0.000396957
Total weight of events: 100000
Total weight of all events normalised to luminosity: 7.93914
Total passed weight of all events normalised to luminosity: 0.0566645
Acceptance: 0.713737
Correct b-lepton pairing in 0.859283 of the events.
Average number of b jets: 1.57829
