Number of events: 100000
Cross section of all events: 0.164608
Total weight of events: 100000
Total weight of all events normalised to luminosity: 3292.16
Total passed weight of all events normalised to luminosity: 23.2309
Acceptance: 0.705644
Correct b-lepton pairing in 0.840863 of the events.
Average number of b jets: 1.57518
