1 3.248179e-05 0
2 1.987557e-04 0
3 3.954968e-04 0
4 6.025888e-04 0
5 9.894163e-04 0
6 1.499755e-03 0
7 2.143617e-03 0
8 2.639911e-03 0
9 4.064964e-03 0
10 7.631567e-03 0
11 7.210431e-03 0
12 3.863833e-03 0
13 2.840842e-03 0
14 1.651101e-03 0
15 1.418020e-03 0
16 7.762300e-04 0
17 6.095522e-04 0
18 2.626652e-04 0
19 1.083044e-04 0
20 3.026460e-05 0
