Number of events: 50000
Cross section of all events: 0.0352994
Total weight of events: 50000
Total weight of all events normalised to luminosity: 705.987
Total passed weight of all events normalised to luminosity: 5.39498
Acceptance: 0.764176
Correct b-lepton pairing in 0.852826 of the events.
Average number of b jets: 1.56863
