1 5.937655e-03 0
2 6.098400e-02 0
3 2.664354e-01 0
4 5.950531e-01 0
5 8.284415e-01 0
6 8.453840e-01 0
7 7.535374e-01 0
8 7.482737e-01 0
9 7.406040e-01 0
10 6.083718e-01 0
11 6.231826e-01 0
12 4.087668e-01 0
13 4.231353e-01 0
14 3.391289e-01 0
15 2.014493e-01 0
16 2.090002e-01 0
17 1.010919e-01 0
18 4.880569e-02 0
19 6.142718e-04 0
20 0.000000e+00 0
