Number of events: 100000
Cross section of all events: 0.0612129
Total weight of events: 100000
Total weight of all events normalised to luminosity: 1224.26
Total passed weight of all events normalised to luminosity: 7.8082
Acceptance: 0.63779
Correct b-lepton pairing in 0.813101 of the events.
Average number of b jets: 1.55266
