# BEGIN PLOT
DrawOnly=/export0/scratch/karl/Work/TopPolarisation/limits/runs_type1/paramcards/yuk_1_point_398836_dir/atom_results.yoda/TopPolarisation/xl1/-1
Legend=1
LogY=1
# END PLOT

# BEGIN HISTO1D /export0/scratch/karl/Work/TopPolarisation/limits/runs_type1/paramcards/yuk_1_point_398836_dir/atom_results.yoda/TopPolarisation/xl1/-1
LineColor={[HTML]{EE3311}}
LineStyle=solid
Path=/export0/scratch/karl/Work/TopPolarisation/limits/runs_type1/paramcards/yuk_1_point_398836_dir/atom_results.yoda/TopPolarisation/xl1/-1
Title=atom_results
# xlow	 xhigh	 val	 errminus	 errplus
0.000000e+00	1.000000e-01	0.000000e+00	0.000000e+00	0.000000e+00
1.000000e-01	2.000000e-01	0.000000e+00	0.000000e+00	0.000000e+00
2.000000e-01	3.000000e-01	1.277618e-01	1.079784e-02	1.079784e-02
3.000000e-01	4.000000e-01	1.075968e+01	1.007620e-01	1.007620e-01
4.000000e-01	5.000000e-01	1.337640e+01	1.115208e-01	1.115208e-01
5.000000e-01	6.000000e-01	1.311806e+01	1.097167e-01	1.097167e-01
6.000000e-01	7.000000e-01	1.408989e+01	1.150854e-01	1.150854e-01
7.000000e-01	8.000000e-01	1.068650e+01	9.893165e-02	9.893165e-02
8.000000e-01	9.000000e-01	9.904661e+00	9.473940e-02	9.473940e-02
9.000000e-01	1.000000e+00	9.492334e+00	9.440116e-02	9.440116e-02
1.000000e+00	1.100000e+00	9.768418e+00	9.628276e-02	9.628276e-02
1.100000e+00	1.200000e+00	5.448589e+00	6.960955e-02	6.960955e-02
1.200000e+00	1.300000e+00	6.926373e+00	7.950766e-02	7.950766e-02
1.300000e+00	1.400000e+00	5.063757e+00	6.719756e-02	6.719756e-02
1.400000e+00	1.500000e+00	2.645828e+00	4.989879e-02	4.989879e-02
1.500000e+00	1.600000e+00	4.245567e+00	6.259841e-02	6.259841e-02
1.600000e+00	1.700000e+00	1.691136e+00	3.876326e-02	3.876326e-02
1.700000e+00	1.800000e+00	3.356441e+00	5.570584e-02	5.570584e-02
1.800000e+00	1.900000e+00	2.086801e+00	4.386495e-02	4.386495e-02
1.900000e+00	2.000000e+00	2.220296e+00	4.539047e-02	4.539047e-02
# END HISTO1D

