1 1.104511e-01 0
2 1.226632e-01 0
3 1.318607e-01 0
4 1.091748e-01 0
5 1.052007e-01 0
6 1.021106e-01 0
7 1.160161e-01 0
8 1.122659e-01 0
9 1.115719e-01 0
10 9.433743e-02 0
11 9.649286e-02 0
12 9.183633e-02 0
13 1.046146e-01 0
14 9.825741e-02 0
15 1.098953e-01 0
16 1.064396e-01 0
17 1.113530e-01 0
18 1.073612e-01 0
19 1.169558e-01 0
20 1.082569e-01 0
