Number of events: 100000
Cross section of all events: 0.0180424
Total weight of events: 100000
Total weight of all events normalised to luminosity: 360.848
Total passed weight of all events normalised to luminosity: 2.16712
Acceptance: 0.600562
Correct b-lepton pairing in 0.858487 of the events.
Average number of b jets: 1.54879
