1 3.780129e-02 0
2 2.038373e-01 0
3 1.198829e+00 0
4 1.970869e+00 0
5 2.767783e+00 0
6 2.685528e+00 0
7 2.750288e+00 0
8 2.540846e+00 0
9 2.512263e+00 0
10 2.307371e+00 0
11 2.045858e+00 0
12 1.931898e+00 0
13 1.621124e+00 0
14 1.219420e+00 0
15 9.215548e-01 0
16 5.237186e-01 0
17 4.974430e-01 0
18 1.191794e-01 0
19 4.411906e-02 0
20 0.000000e+00 0
