1 5.296741e-04 0
2 7.804906e-03 0
3 2.138452e-02 0
4 3.463219e-02 0
5 5.033672e-02 0
6 7.505189e-02 0
7 1.165111e-01 0
8 1.525460e-01 0
9 2.242407e-01 0
10 3.759377e-01 0
11 3.564172e-01 0
12 1.924200e-01 0
13 1.305394e-01 0
14 9.257221e-02 0
15 6.580642e-02 0
16 4.547033e-02 0
17 2.672248e-02 0
18 1.499515e-02 0
19 5.413216e-03 0
20 1.616300e-03 0
