Number of events: 100000
Cross section of all events: 0.0154569
Total weight of events: 100000
Total weight of all events normalised to luminosity: 309.138
Total passed weight of all events normalised to luminosity: 2.25639
Acceptance: 0.729897
Correct b-lepton pairing in 0.855328 of the events.
Average number of b jets: 1.588
