1 0.000000e+00 0
2 0.000000e+00 0
3 1.057371e-04 0
4 4.094161e-03 0
5 4.647532e-03 0
6 4.740028e-03 0
7 3.739449e-03 0
8 4.432190e-03 0
9 4.104601e-03 0
10 2.978953e-03 0
11 3.112000e-03 0
12 2.117228e-03 0
13 2.428215e-03 0
14 1.775281e-03 0
15 1.630685e-03 0
16 1.876674e-03 0
17 1.096629e-03 0
18 1.489715e-03 0
19 8.234129e-04 0
20 1.035252e-03 0
