1 3.712450e-01 0
2 4.199815e-01 0
3 2.924051e-01 0
4 4.055147e-01 0
5 5.352198e-01 0
6 5.290891e-01 0
7 6.613917e-01 0
8 6.862713e-01 0
9 4.677973e-01 0
10 6.985039e-01 0
11 9.675257e-01 0
12 9.998958e-01 0
13 1.323838e+00 0
14 1.283913e+00 0
15 1.686474e+00 0
16 1.987574e+00 0
17 2.085651e+00 0
18 2.331816e+00 0
19 2.103955e+00 0
20 2.197387e+00 0
