1 0.000000e+00 0
2 6.208842e-05 0
3 1.486695e-04 0
4 2.719387e-04 0
5 5.338470e-04 0
6 8.259648e-04 0
7 9.893785e-04 0
8 1.579805e-03 0
9 1.783207e-03 0
10 2.247280e-03 0
11 2.658358e-03 0
12 2.728023e-03 0
13 2.936339e-03 0
14 2.616879e-03 0
15 2.003929e-03 0
16 5.955356e-04 0
17 1.619217e-05 0
18 0.000000e+00 0
19 0.000000e+00 0
20 0.000000e+00 0
