1	0	0
2	0	0
3	0	0
4	0	0
5	0	0
6	0	0
7	0	0
8	0.000574549	0
9	0.000914999	0
10	0.00066968	0
11	0.000491503	0
12	0.000389018	0
13	0.000298199	0
14	0.000209856	0
15	0.00016888	0
16	0.000125823	0
17	0.000105323	0
18	7.11985e-05	0
19	6.64996e-05	0
20	4.74585e-05	0
21	4.2781e-05	0
22	3.20896e-05	0
23	2.05184e-05	0
24	1.36278e-05	0
25	1.25703e-05	0
26	8.7235e-06	0
27	1.02837e-05	0
28	7.8438e-06	0
29	5.98323e-06	0
30	6.00774e-06	0
31	3.51881e-06	0
32	3.09278e-06	0
33	2.38777e-06	0
34	1.98624e-06	0
35	1.13105e-06	0
36	1.86057e-06	0
37	1.25672e-06	0
38	8.79703e-07	0
39	3.77016e-07	0
40	1.00537e-06	0
41	3.77016e-07	0
42	5.02687e-07	0
43	3.77016e-07	0
44	0	0
45	2.51344e-07	0
46	1.25672e-07	0
47	1.25672e-07	0
48	0	0
49	1.25672e-07	0
50	0	0
