1	0	0
2	0	0
3	0	0
4	0	0
5	0	0
6	0	0
7	0	0
8	0.000364711	0
9	0.000516551	0
10	0.00032905	0
11	0.000210222	0
12	0.000159395	0
13	0.000120733	0
14	7.92352e-05	0
15	6.14921e-05	0
16	4.71026e-05	0
17	3.86313e-05	0
18	2.84624e-05	0
19	2.96369e-05	0
20	2.12732e-05	0
21	1.98205e-05	0
22	1.38074e-05	0
23	8.13575e-06	0
24	5.59396e-06	0
25	4.40842e-06	0
26	3.61806e-06	0
27	4.05678e-06	0
28	2.84989e-06	0
29	2.09197e-06	0
30	1.54742e-06	0
31	1.06689e-06	0
32	1.70789e-06	0
33	7.68162e-07	0
34	1.18468e-06	0
35	5.76121e-07	0
36	1.16334e-06	0
37	1.9204e-07	0
38	2.9873e-07	0
39	3.20067e-07	0
40	1.9204e-07	0
41	2.77392e-07	0
42	4.26757e-07	0
43	2.34716e-07	0
44	1.70703e-07	0
45	1.49365e-07	0
46	4.26757e-08	0
47	1.49365e-07	0
48	8.53513e-08	0
49	8.53513e-08	0
50	8.53513e-08	0
