1	0	0
2	0	0
3	0	0
4	0	0
5	0	0
6	0	0
7	0	0
8	0.000383563	0
9	0.00054371	0
10	0.00034863	0
11	0.000223309	0
12	0.000166037	0
13	0.000123117	0
14	7.95331e-05	0
15	5.98858e-05	0
16	4.44216e-05	0
17	3.52497e-05	0
18	2.55486e-05	0
19	2.64861e-05	0
20	1.84418e-05	0
21	1.69367e-05	0
22	1.18076e-05	0
23	6.16079e-06	0
24	3.94009e-06	0
25	2.80861e-06	0
26	2.1036e-06	0
27	3.12942e-06	0
28	1.76547e-06	0
29	1.45523e-06	0
30	8.27998e-07	0
31	5.70591e-07	0
32	1.13824e-06	0
33	4.96625e-07	0
34	7.012e-07	0
35	1.90197e-07	0
36	6.90633e-07	0
37	2.53596e-07	0
38	2.00763e-07	0
39	1.58497e-07	0
40	1.05665e-07	0
41	1.05665e-07	0
42	1.37364e-07	0
43	7.39655e-08	0
44	1.47931e-07	0
45	7.39655e-08	0
46	3.16995e-08	0
47	7.39655e-08	0
48	2.1133e-08	0
49	1.05665e-08	0
50	3.16995e-08	0
