1	0	0
2	0	0
3	0	0
4	0	0
5	0	0
6	0	0
7	0	0
8	0.000293266	0
9	0.000427177	0
10	0.000286168	0
11	0.000193494	0
12	0.000157756	0
13	0.000125717	0
14	8.6127e-05	0
15	6.8819e-05	0
16	5.39657e-05	0
17	4.43615e-05	0
18	3.26647e-05	0
19	3.46484e-05	0
20	2.44096e-05	0
21	2.15991e-05	0
22	1.61289e-05	0
23	1.0476e-05	0
24	7.50849e-06	0
25	5.41587e-06	0
26	4.95441e-06	0
27	4.55059e-06	0
28	3.61485e-06	0
29	3.26235e-06	0
30	2.42273e-06	0
31	1.40045e-06	0
32	2.04457e-06	0
33	1.40045e-06	0
34	1.14406e-06	0
35	4.87112e-07	0
36	9.00506e-07	0
37	4.26223e-07	0
38	5.48001e-07	0
39	2.43556e-07	0
40	4.26223e-07	0
41	1.82667e-07	0
42	1.82667e-07	0
43	4.87112e-07	0
44	1.82667e-07	0
45	1.82667e-07	0
46	6.08889e-08	0
47	2.43556e-07	0
48	1.82667e-07	0
49	6.08889e-08	0
50	6.08889e-08	0
