1	0	0
2	0	0
3	0	0
4	0	0
5	0	0
6	0	0
7	0	0
8	0.000355617	0
9	0.000529826	0
10	0.000357787	0
11	0.000239826	0
12	0.000183876	0
13	0.000138202	0
14	9.00479e-05	0
15	6.73161e-05	0
16	4.86314e-05	0
17	3.79212e-05	0
18	2.71659e-05	0
19	2.68182e-05	0
20	1.79059e-05	0
21	1.6154e-05	0
22	1.06652e-05	0
23	5.33739e-06	0
24	3.06814e-06	0
25	1.94357e-06	0
26	1.1581e-06	0
27	2.2022e-06	0
28	1.11786e-06	0
29	7.45243e-07	0
30	3.65916e-07	0
31	2.68209e-08	0
32	7.31832e-07	0
33	2.01157e-08	0
34	3.65916e-07	0
35	1.34104e-08	0
36	3.52506e-07	0
37	1.34104e-08	0
38	6.70522e-09	0
39	6.70522e-09	0
40	0	0
41	6.70522e-09	0
42	0	0
43	0	0
44	0	0
45	0	0
46	0	0
47	0	0
48	0	0
49	0	0
50	0	0
