1 0.000000e+00 0
2 0.000000e+00 0
3 2.142465e-02 0
4 6.042951e-01 0
5 7.355306e-01 0
6 6.917990e-01 0
7 6.328776e-01 0
8 5.833535e-01 0
9 5.153372e-01 0
10 5.021549e-01 0
11 4.669576e-01 0
12 3.591711e-01 0
13 3.384938e-01 0
14 3.164892e-01 0
15 2.688519e-01 0
16 1.833261e-01 0
17 1.489012e-01 0
18 1.578028e-01 0
19 9.096054e-02 0
20 1.017302e-01 0
