1 0.000000e+00 0
2 1.028817e-02 0
3 4.776577e-01 0
4 2.004268e+00 0
5 2.941750e+00 0
6 3.777547e+00 0
7 4.106935e+00 0
8 3.168603e+00 0
9 2.102818e+00 0
10 1.971512e+00 0
11 1.406946e+00 0
12 1.113571e+00 0
13 8.647970e-01 0
14 5.618345e-01 0
15 3.925751e-01 0
16 2.803816e-01 0
17 3.298590e-01 0
18 1.353317e-01 0
19 5.397520e-02 0
20 1.131816e-01 0
