1 4.016781e-04 0
2 3.572998e-03 0
3 1.105575e-02 0
4 1.359851e-02 0
5 2.332762e-02 0
6 3.042481e-02 0
7 4.197073e-02 0
8 5.381451e-02 0
9 8.445037e-02 0
10 1.659882e-01 0
11 1.612274e-01 0
12 7.484089e-02 0
13 5.675432e-02 0
14 3.422845e-02 0
15 2.554304e-02 0
16 1.651582e-02 0
17 7.538711e-03 0
18 4.223042e-03 0
19 1.320180e-03 0
20 1.829809e-04 0
