1 1.617851e-04 0
2 4.557702e-04 0
3 7.586025e-04 0
4 1.013810e-03 0
5 1.308803e-03 0
6 1.608764e-03 0
7 2.147198e-03 0
8 2.932578e-03 0
9 4.625278e-03 0
10 7.053710e-03 0
11 6.701231e-03 0
12 4.289806e-03 0
13 3.030685e-03 0
14 2.299309e-03 0
15 1.563006e-03 0
16 1.064017e-03 0
17 8.120342e-04 0
18 6.107614e-04 0
19 3.259176e-04 0
20 1.329380e-04 0
