1 7.853348e-03 0
2 1.166732e-02 0
3 8.637491e-03 0
4 1.101262e-02 0
5 1.089947e-02 0
6 9.735133e-03 0
7 1.242470e-02 0
8 9.945158e-03 0
9 1.028280e-02 0
10 1.028547e-02 0
11 8.261861e-03 0
12 8.440544e-03 0
13 1.075016e-02 0
14 9.479185e-03 0
15 1.238628e-02 0
16 9.453674e-03 0
17 1.097849e-02 0
18 1.153767e-02 0
19 1.268723e-02 0
20 1.295356e-02 0
