Number of events: 100000
Cross section of all events: 2.70999e-06
Total weight of events: 100000
Total weight of all events normalised to luminosity: 0.0541998
Total passed weight of all events normalised to luminosity: 0.000325088
Acceptance: 0.599795
Correct b-lepton pairing in 0.846449 of the events.
Average number of b jets: 1.54836
