1 1.676591e-03 0
2 2.215557e-03 0
3 2.226933e-03 0
4 2.232032e-03 0
5 2.246451e-03 0
6 2.385067e-03 0
7 2.701677e-03 0
8 2.344358e-03 0
9 2.323113e-03 0
10 2.021656e-03 0
11 2.198624e-03 0
12 2.469854e-03 0
13 2.422412e-03 0
14 2.384469e-03 0
15 2.290718e-03 0
16 2.373626e-03 0
17 2.800384e-03 0
18 2.778753e-03 0
19 2.910874e-03 0
20 3.215857e-03 0
