1 2.531798e-03 0
2 2.756204e-03 0
3 2.650113e-03 0
4 2.506869e-03 0
5 2.265361e-03 0
6 2.322889e-03 0
7 2.459266e-03 0
8 2.412909e-03 0
9 2.379020e-03 0
10 2.386445e-03 0
11 1.985137e-03 0
12 2.349340e-03 0
13 2.269228e-03 0
14 2.195728e-03 0
15 2.383597e-03 0
16 2.345165e-03 0
17 2.440535e-03 0
18 2.554454e-03 0
19 2.519065e-03 0
20 2.505880e-03 0
