1 1.730601e-03 0
2 1.933397e-03 0
3 1.932111e-03 0
4 2.048823e-03 0
5 2.064736e-03 0
6 2.021320e-03 0
7 1.930295e-03 0
8 2.195481e-03 0
9 2.210815e-03 0
10 2.001952e-03 0
11 2.138228e-03 0
12 2.295611e-03 0
13 1.988843e-03 0
14 1.941908e-03 0
15 2.036860e-03 0
16 2.020811e-03 0
17 1.795956e-03 0
18 1.765709e-03 0
19 1.811659e-03 0
20 1.598324e-03 0
