1 5.676085e-02 0
2 5.032089e-02 0
3 5.884484e-02 0
4 8.669052e-02 0
5 7.186444e-02 0
6 7.691946e-02 0
7 6.036441e-02 0
8 7.186938e-02 0
9 6.255409e-02 0
10 5.500937e-02 0
11 7.201253e-02 0
12 5.067893e-02 0
13 7.205837e-02 0
14 5.403806e-02 0
15 7.871183e-02 0
16 8.883508e-02 0
17 6.811932e-02 0
18 8.544675e-02 0
19 9.832601e-02 0
20 9.617226e-02 0
