Number of events: 100000
Cross section of all events: 0.569787
Total weight of events: 100000
Total weight of all events normalised to luminosity: 11395.7
Total passed weight of all events normalised to luminosity: 76.7491
Acceptance: 0.673489
Correct b-lepton pairing in 0.818315 of the events.
Average number of b jets: 1.55721
