Number of events: 50000
Cross section of all events: 0.000827877
Total weight of events: 50000
Total weight of all events normalised to luminosity: 16.5575
Total passed weight of all events normalised to luminosity: 0.110515
Acceptance: 0.667462
Correct b-lepton pairing in 0.815426 of the events.
Average number of b jets: 1.56554
