1 0.000000e+00 0
2 0.000000e+00 0
3 9.186711e-07 0
4 2.408062e-05 0
5 3.399374e-05 0
6 2.969125e-05 0
7 2.799258e-05 0
8 2.296844e-05 0
9 2.329719e-05 0
10 2.154975e-05 0
11 1.774494e-05 0
12 1.826796e-05 0
13 1.549470e-05 0
14 1.282248e-05 0
15 1.119956e-05 0
16 1.072868e-05 0
17 8.323410e-06 0
18 8.612059e-06 0
19 5.092550e-06 0
20 6.065541e-06 0
