1 1.168861e-04 0
2 1.188729e-02 0
3 8.026017e-02 0
4 1.568072e-01 0
5 2.145668e-01 0
6 3.373720e-01 0
7 5.483777e-01 0
8 6.656273e-01 0
9 8.320160e-01 0
10 1.179217e+00 0
11 1.407923e+00 0
12 1.325070e+00 0
13 1.281866e+00 0
14 1.233754e+00 0
15 8.684323e-01 0
16 2.816849e-01 0
17 4.928759e-03 0
18 0.000000e+00 0
19 0.000000e+00 0
20 0.000000e+00 0
