1 1.465765e-01 0
2 1.585259e-01 0
3 1.550702e-01 0
4 1.563731e-01 0
5 1.473886e-01 0
6 1.533813e-01 0
7 1.736736e-01 0
8 1.736653e-01 0
9 1.646634e-01 0
10 1.808799e-01 0
11 1.505891e-01 0
12 1.680730e-01 0
13 1.680417e-01 0
14 1.576840e-01 0
15 1.715392e-01 0
16 1.509471e-01 0
17 1.503450e-01 0
18 1.339227e-01 0
19 1.447097e-01 0
20 1.680489e-01 0
