1 1.717901e-03 0
2 1.659037e-03 0
3 1.946753e-03 0
4 1.825765e-03 0
5 2.143163e-03 0
6 2.187379e-03 0
7 2.185291e-03 0
8 2.374674e-03 0
9 2.422430e-03 0
10 2.177895e-03 0
11 2.196005e-03 0
12 2.399880e-03 0
13 2.064561e-03 0
14 2.375662e-03 0
15 2.001132e-03 0
16 2.284438e-03 0
17 1.766375e-03 0
18 1.719152e-03 0
19 1.754250e-03 0
20 1.833343e-03 0
