Number of events: 100000
Cross section of all events: 0.130062
Total weight of events: 100000
Total weight of all events normalised to luminosity: 2601.24
Total passed weight of all events normalised to luminosity: 20.4374
Acceptance: 0.785679
Correct b-lepton pairing in 0.857665 of the events.
Average number of b jets: 1.59834
