Number of events: 100000
Cross section of all events: 0.00656585
Total weight of events: 100000
Total weight of all events normalised to luminosity: 131.317
Total passed weight of all events normalised to luminosity: 1.0518
Acceptance: 0.800959
Correct b-lepton pairing in 0.852241 of the events.
Average number of b jets: 1.60333
