Number of events: 50000
Cross section of all events: 0.264042
Total weight of events: 50000
Total weight of all events normalised to luminosity: 5280.85
Total passed weight of all events normalised to luminosity: 40.2602
Acceptance: 0.762382
Correct b-lepton pairing in 0.84997 of the events.
Average number of b jets: 1.60096
