Number of events: 50000
Cross section of all events: 0.387915
Total weight of events: 50000
Total weight of all events normalised to luminosity: 7758.29
Total passed weight of all events normalised to luminosity: 59.4874
Acceptance: 0.766759
Correct b-lepton pairing in 0.857178 of the events.
Average number of b jets: 1.58979
