Number of events: 50000
Cross section of all events: 0.0324644
Total weight of events: 50000
Total weight of all events normalised to luminosity: 649.289
Total passed weight of all events normalised to luminosity: 4.8545
Acceptance: 0.747665
Correct b-lepton pairing in 0.8437 of the events.
Average number of b jets: 1.58643
