1 1.464387e-05 0
2 4.428449e-05 0
3 6.193623e-05 0
4 6.288906e-05 0
5 6.684378e-05 0
6 6.915905e-05 0
7 6.976106e-05 0
8 6.982331e-05 0
9 6.499639e-05 0
10 6.188565e-05 0
11 6.098673e-05 0
12 6.229844e-05 0
13 5.830565e-05 0
14 6.191866e-05 0
15 5.644116e-05 0
16 5.319501e-05 0
17 5.508648e-05 0
18 4.562499e-05 0
19 4.928468e-05 0
20 4.084060e-05 0
