1 8.796116e-02 0
2 9.753062e-02 0
3 1.277463e-01 0
4 1.432608e-01 0
5 9.962381e-02 0
6 1.186660e-01 0
7 1.120229e-01 0
8 1.036208e-01 0
9 1.094692e-01 0
10 1.046450e-01 0
11 9.179102e-02 0
12 1.092328e-01 0
13 9.240597e-02 0
14 1.205507e-01 0
15 1.339580e-01 0
16 1.294149e-01 0
17 1.520924e-01 0
18 1.224477e-01 0
19 1.609215e-01 0
20 1.604557e-01 0
