1 1.043530e-01 0
2 1.014799e-01 0
3 1.019812e-01 0
4 1.114260e-01 0
5 1.235585e-01 0
6 1.218615e-01 0
7 1.255233e-01 0
8 1.232333e-01 0
9 1.429262e-01 0
10 1.428714e-01 0
11 1.334543e-01 0
12 1.317135e-01 0
13 1.306630e-01 0
14 1.349509e-01 0
15 1.163099e-01 0
16 1.089685e-01 0
17 1.152151e-01 0
18 9.794233e-02 0
19 1.036927e-01 0
20 1.056928e-01 0
