1 1.095402e-02 0
2 3.201297e-02 0
3 3.661427e-02 0
4 5.595103e-02 0
5 7.579155e-02 0
6 1.036200e-01 0
7 1.145733e-01 0
8 1.689617e-01 0
9 2.348665e-01 0
10 3.920704e-01 0
11 3.837665e-01 0
12 2.296002e-01 0
13 1.632518e-01 0
14 1.089380e-01 0
15 9.147406e-02 0
16 7.015615e-02 0
17 4.350128e-02 0
18 3.396103e-02 0
19 1.931997e-02 0
20 8.432573e-03 0
