Number of events: 100000
Cross section of all events: 0.100729
Total weight of events: 100000
Total weight of all events normalised to luminosity: 2014.59
Total passed weight of all events normalised to luminosity: 13.4507
Acceptance: 0.667664
Correct b-lepton pairing in 0.83076 of the events.
Average number of b jets: 1.55273
