1 7.277704e-05 0
2 3.678741e-02 0
3 9.214278e-02 0
4 2.071247e-01 0
5 2.663992e-01 0
6 4.645960e-01 0
7 6.770095e-01 0
8 8.650463e-01 0
9 1.045988e+00 0
10 1.400754e+00 0
11 1.470712e+00 0
12 1.682388e+00 0
13 1.720504e+00 0
14 1.746581e+00 0
15 1.299706e+00 0
16 4.520416e-01 0
17 2.284267e-02 0
18 0.000000e+00 0
19 0.000000e+00 0
20 0.000000e+00 0
