Number of events: 50000
Cross section of all events: 3.1131e-05
Total weight of events: 50000
Total weight of all events normalised to luminosity: 0.62262
Total passed weight of all events normalised to luminosity: 0.00361596
Acceptance: 0.580765
Correct b-lepton pairing in 0.852119 of the events.
Average number of b jets: 1.54494
