Number of events: 50000
Cross section of all events: 0.00946249
Total weight of events: 50000
Total weight of all events normalised to luminosity: 189.25
Total passed weight of all events normalised to luminosity: 1.24673
Acceptance: 0.658774
Correct b-lepton pairing in 0.8623 of the events.
Average number of b jets: 1.56533
