1 9.215622e-03 0
2 3.078166e-02 0
3 7.487993e-02 0
4 1.190518e-01 0
5 1.779384e-01 0
6 2.548438e-01 0
7 3.996947e-01 0
8 5.419458e-01 0
9 8.158389e-01 0
10 1.321015e+00 0
11 1.381987e+00 0
12 7.382908e-01 0
13 4.311944e-01 0
14 3.301738e-01 0
15 2.200843e-01 0
16 1.545682e-01 0
17 9.222908e-02 0
18 4.694849e-02 0
19 1.210541e-02 0
20 8.717132e-03 0
