1 0.000000e+00 0
2 0.000000e+00 0
3 0.000000e+00 0
4 0.000000e+00 0
5 2.963725e-03 0
6 1.079369e-02 0
7 2.047894e-02 0
8 7.526539e-02 0
9 1.411804e-01 0
10 2.476844e-01 0
11 4.472258e-01 0
12 7.241617e-01 0
13 1.188432e+00 0
14 1.327390e+00 0
15 1.444872e+00 0
16 9.293043e-01 0
17 5.211904e-01 0
18 8.056185e-02 0
19 0.000000e+00 0
20 0.000000e+00 0
