1 1.353299e-01 0
2 1.192665e-01 0
3 1.677366e-01 0
4 1.685105e-01 0
5 2.147722e-01 0
6 1.912957e-01 0
7 1.274425e-01 0
8 2.282891e-01 0
9 2.215425e-01 0
10 2.302175e-01 0
11 2.930648e-01 0
12 3.250999e-01 0
13 3.329697e-01 0
14 4.781579e-01 0
15 4.451904e-01 0
16 5.431711e-01 0
17 6.329849e-01 0
18 7.438761e-01 0
19 8.093543e-01 0
20 7.532320e-01 0
