1 2.700626e-05 0
2 1.237434e-02 0
3 4.259260e-02 0
4 7.527211e-02 0
5 8.708505e-02 0
6 1.047984e-01 0
7 1.163663e-01 0
8 9.710091e-02 0
9 9.721999e-02 0
10 8.948624e-02 0
11 8.033863e-02 0
12 7.483899e-02 0
13 6.265508e-02 0
14 5.636631e-02 0
15 4.045170e-02 0
16 3.079276e-02 0
17 1.749294e-02 0
18 6.924442e-03 0
19 1.834565e-03 0
20 0.000000e+00 0
