Number of events: 100000
Cross section of all events: 0.0814093
Total weight of events: 100000
Total weight of all events normalised to luminosity: 1628.19
Total passed weight of all events normalised to luminosity: 10.8822
Acceptance: 0.668362
Correct b-lepton pairing in 0.826546 of the events.
Average number of b jets: 1.55657
