1 0.000000e+00 0
2 1.175268e-03 0
3 4.313972e-02 0
4 1.436411e-01 0
5 2.255397e-01 0
6 2.783356e-01 0
7 2.564911e-01 0
8 2.595464e-01 0
9 1.920510e-01 0
10 1.614105e-01 0
11 1.061004e-01 0
12 7.218582e-02 0
13 5.537261e-02 0
14 5.371756e-02 0
15 3.449899e-02 0
16 2.294661e-02 0
17 2.011106e-02 0
18 1.217571e-02 0
19 8.226876e-03 0
20 6.354330e-03 0
