Number of events: 50000
Cross section of all events: 0.00166067
Total weight of events: 50000
Total weight of all events normalised to luminosity: 33.2134
Total passed weight of all events normalised to luminosity: 0.198211
Acceptance: 0.596781
Correct b-lepton pairing in 0.86509 of the events.
Average number of b jets: 1.53898
