1 0.000000e+00 0
2 2.334502e-04 0
3 7.720715e-04 0
4 1.469411e-03 0
5 1.646626e-03 0
6 2.980314e-03 0
7 4.477198e-03 0
8 6.542189e-03 0
9 8.886606e-03 0
10 9.757434e-03 0
11 1.260570e-02 0
12 1.332256e-02 0
13 1.483551e-02 0
14 1.197295e-02 0
15 8.294466e-03 0
16 3.551772e-03 0
17 1.586148e-04 0
18 0.000000e+00 0
19 0.000000e+00 0
20 0.000000e+00 0
