1 0.000000e+00 0
2 0.000000e+00 0
3 1.576959e-03 0
4 5.191514e-02 0
5 7.484161e-02 0
6 7.076505e-02 0
7 5.998633e-02 0
8 6.592013e-02 0
9 5.565419e-02 0
10 4.901460e-02 0
11 4.494524e-02 0
12 3.630183e-02 0
13 3.443385e-02 0
14 2.781713e-02 0
15 2.280374e-02 0
16 2.024297e-02 0
17 1.562095e-02 0
18 1.927433e-02 0
19 1.986718e-02 0
20 1.276585e-02 0
