1 0.000000e+00 0
2 0.000000e+00 0
3 1.634488e-02 0
4 5.928587e-02 0
5 1.003358e-01 0
6 1.110463e-01 0
7 1.158806e-01 0
8 9.583663e-02 0
9 7.917598e-02 0
10 5.914573e-02 0
11 4.633699e-02 0
12 2.981474e-02 0
13 2.822536e-02 0
14 2.178664e-02 0
15 1.096445e-02 0
16 8.271430e-03 0
17 7.675413e-03 0
18 3.693839e-03 0
19 3.412284e-03 0
20 3.664731e-03 0
