Number of events: 100000
Cross section of all events: 0.010254
Total weight of events: 100000
Total weight of all events normalised to luminosity: 205.081
Total passed weight of all events normalised to luminosity: 1.34883
Acceptance: 0.657704
Correct b-lepton pairing in 0.865443 of the events.
Average number of b jets: 1.56438
