Number of events: 100000
Cross section of all events: 0.0498786
Total weight of events: 100000
Total weight of all events normalised to luminosity: 997.571
Total passed weight of all events normalised to luminosity: 6.51512
Acceptance: 0.653098
Correct b-lepton pairing in 0.834844 of the events.
Average number of b jets: 1.55441
