Number of events: 100000
Cross section of all events: 0.139199
Total weight of events: 100000
Total weight of all events normalised to luminosity: 2783.98
Total passed weight of all events normalised to luminosity: 21.5152
Acceptance: 0.772822
Correct b-lepton pairing in 0.838048 of the events.
Average number of b jets: 1.59571
