Number of events: 100000
Cross section of all events: 0.111656
Total weight of events: 100000
Total weight of all events normalised to luminosity: 2233.12
Total passed weight of all events normalised to luminosity: 16.6596
Acceptance: 0.746022
Correct b-lepton pairing in 0.827182 of the events.
Average number of b jets: 1.59355
