1 2.939182e-01 0
2 2.710115e-01 0
3 3.347241e-01 0
4 2.875417e-01 0
5 3.390005e-01 0
6 3.943448e-01 0
7 4.453503e-01 0
8 4.504473e-01 0
9 3.762504e-01 0
10 4.712603e-01 0
11 6.026067e-01 0
12 5.881084e-01 0
13 6.633360e-01 0
14 8.698040e-01 0
15 9.233003e-01 0
16 9.987440e-01 0
17 1.259317e+00 0
18 1.360563e+00 0
19 1.347567e+00 0
20 1.432367e+00 0
