Number of events: 50000
Cross section of all events: 0.120667
Total weight of events: 50000
Total weight of all events normalised to luminosity: 2413.34
Total passed weight of all events normalised to luminosity: 18.8513
Acceptance: 0.78113
Correct b-lepton pairing in 0.843468 of the events.
Average number of b jets: 1.59283
