1 1.455654e-02 0
2 1.787764e-02 0
3 2.855145e-02 0
4 3.153262e-02 0
5 2.609307e-02 0
6 3.245586e-02 0
7 2.985986e-02 0
8 3.090851e-02 0
9 3.798570e-02 0
10 4.189276e-02 0
11 5.525712e-02 0
12 5.969653e-02 0
13 6.529669e-02 0
14 7.147142e-02 0
15 8.875917e-02 0
16 1.016397e-01 0
17 1.187114e-01 0
18 1.115953e-01 0
19 1.251005e-01 0
20 1.352063e-01 0
