1 5.379453e-02 0
2 1.360922e-01 0
3 1.763488e-01 0
4 1.926823e-01 0
5 2.124059e-01 0
6 2.128306e-01 0
7 2.056357e-01 0
8 2.063477e-01 0
9 2.054185e-01 0
10 1.989960e-01 0
11 1.961746e-01 0
12 1.814245e-01 0
13 1.787092e-01 0
14 1.944030e-01 0
15 1.770501e-01 0
16 1.707989e-01 0
17 1.696904e-01 0
18 1.465888e-01 0
19 1.396782e-01 0
20 1.423973e-01 0
