Number of events: 100000
Cross section of all events: 0.0239113
Total weight of events: 100000
Total weight of all events normalised to luminosity: 478.227
Total passed weight of all events normalised to luminosity: 3.49747
Acceptance: 0.731341
Correct b-lepton pairing in 0.842171 of the events.
Average number of b jets: 1.57841
