Number of events: 100000
Cross section of all events: 0.014263
Total weight of events: 100000
Total weight of all events normalised to luminosity: 285.26
Total passed weight of all events normalised to luminosity: 1.99095
Acceptance: 0.697942
Correct b-lepton pairing in 0.841959 of the events.
Average number of b jets: 1.58308
