1 0.000000e+00 0
2 3.461836e-03 0
3 2.617888e-01 0
4 7.587380e-01 0
5 1.399266e+00 0
6 1.680319e+00 0
7 1.518529e+00 0
8 1.196493e+00 0
9 1.057270e+00 0
10 8.132293e-01 0
11 5.939921e-01 0
12 4.577516e-01 0
13 3.288052e-01 0
14 2.166659e-01 0
15 1.244256e-01 0
16 1.266421e-01 0
17 8.242445e-02 0
18 3.450526e-02 0
19 5.084801e-02 0
20 7.058255e-02 0
