1 2.132301e-01 0
2 2.030510e-01 0
3 2.095284e-01 0
4 2.699343e-01 0
5 2.646140e-01 0
6 2.242654e-01 0
7 1.973498e-01 0
8 2.120473e-01 0
9 2.333404e-01 0
10 2.567321e-01 0
11 2.446834e-01 0
12 2.345134e-01 0
13 2.313888e-01 0
14 2.615698e-01 0
15 2.473282e-01 0
16 2.464562e-01 0
17 2.746832e-01 0
18 2.686813e-01 0
19 3.103065e-01 0
20 2.779701e-01 0
