1 0.000000e+00 0
2 1.658286e-05 0
3 1.937318e-04 0
4 7.735557e-04 0
5 1.222881e-03 0
6 1.423256e-03 0
7 1.236632e-03 0
8 1.189418e-03 0
9 1.080080e-03 0
10 8.293401e-04 0
11 5.663018e-04 0
12 4.156121e-04 0
13 3.152297e-04 0
14 2.628941e-04 0
15 1.436849e-04 0
16 1.481073e-04 0
17 1.032252e-04 0
18 6.950838e-05 0
19 5.448305e-05 0
20 3.549439e-05 0
