1 0.000000e+00 0
2 1.868573e-02 0
3 6.764528e-02 0
4 1.007280e-01 0
5 1.749410e-01 0
6 1.978405e-01 0
7 2.007158e-01 0
8 1.747587e-01 0
9 1.684546e-01 0
10 1.662796e-01 0
11 1.523997e-01 0
12 1.391275e-01 0
13 1.129677e-01 0
14 8.514776e-02 0
15 7.261049e-02 0
16 5.201471e-02 0
17 3.553267e-02 0
18 1.459638e-02 0
19 6.447187e-04 0
20 0.000000e+00 0
