1 6.534474e-01 0
2 5.446587e-01 0
3 5.393537e-01 0
4 6.478672e-01 0
5 7.012076e-01 0
6 7.086981e-01 0
7 8.042579e-01 0
8 8.321227e-01 0
9 8.557745e-01 0
10 9.113879e-01 0
11 8.626505e-01 0
12 7.897774e-01 0
13 8.593313e-01 0
14 7.854290e-01 0
15 7.337277e-01 0
16 8.002637e-01 0
17 7.295105e-01 0
18 6.065346e-01 0
19 6.926787e-01 0
20 7.016550e-01 0
