Number of events: 100000
Cross section of all events: 0.0589121
Total weight of events: 100000
Total weight of all events normalised to luminosity: 1178.24
Total passed weight of all events normalised to luminosity: 8.54442
Acceptance: 0.725184
Correct b-lepton pairing in 0.858527 of the events.
Average number of b jets: 1.58718
