1 0.000000e+00 0
2 9.262718e-02 0
3 3.069753e-01 0
4 5.692548e-01 0
5 6.684804e-01 0
6 8.040127e-01 0
7 9.091080e-01 0
8 8.245954e-01 0
9 7.239388e-01 0
10 7.236460e-01 0
11 6.516392e-01 0
12 5.857726e-01 0
13 5.218394e-01 0
14 4.246074e-01 0
15 3.001706e-01 0
16 2.459588e-01 0
17 1.451874e-01 0
18 4.244851e-02 0
19 4.159193e-03 0
20 0.000000e+00 0
