1 2.718761e-02 0
2 6.601338e-02 0
3 8.109612e-02 0
4 8.518233e-02 0
5 9.628771e-02 0
6 9.193580e-02 0
7 9.515755e-02 0
8 8.280388e-02 0
9 9.142841e-02 0
10 7.761349e-02 0
11 8.497324e-02 0
12 8.437887e-02 0
13 8.329545e-02 0
14 8.669263e-02 0
15 8.639805e-02 0
16 8.023964e-02 0
17 7.470903e-02 0
18 6.952704e-02 0
19 6.112509e-02 0
20 6.897906e-02 0
