1 9.833791e-02 0
2 7.715767e-02 0
3 8.652812e-02 0
4 1.051329e-01 0
5 9.519668e-02 0
6 1.129231e-01 0
7 1.396373e-01 0
8 1.176761e-01 0
9 1.451971e-01 0
10 1.586742e-01 0
11 1.658523e-01 0
12 1.736700e-01 0
13 2.300136e-01 0
14 2.446073e-01 0
15 3.425973e-01 0
16 3.301746e-01 0
17 3.923665e-01 0
18 4.396899e-01 0
19 4.007856e-01 0
20 4.561637e-01 0
