1 3.838113e-01 0
2 4.759295e-01 0
3 5.595860e-01 0
4 5.975317e-01 0
5 5.687656e-01 0
6 6.415283e-01 0
7 5.795475e-01 0
8 7.095050e-01 0
9 7.256096e-01 0
10 9.005055e-01 0
11 1.164951e+00 0
12 8.786810e-01 0
13 1.278773e+00 0
14 1.409462e+00 0
15 1.793717e+00 0
16 1.810177e+00 0
17 1.903087e+00 0
18 2.425003e+00 0
19 2.267719e+00 0
20 2.318058e+00 0
