1 3.541014e-03 0
2 7.225971e-03 0
3 7.521121e-03 0
4 9.678739e-03 0
5 8.195139e-03 0
6 7.999098e-03 0
7 1.153675e-02 0
8 1.227344e-02 0
9 1.243752e-02 0
10 1.077923e-02 0
11 1.587627e-02 0
12 2.236939e-02 0
13 2.019017e-02 0
14 2.330608e-02 0
15 2.707498e-02 0
16 2.975416e-02 0
17 2.977116e-02 0
18 3.985981e-02 0
19 4.023084e-02 0
20 4.965548e-02 0
