1 1.000057e-03 0
2 2.857374e-03 0
3 3.761146e-03 0
4 4.035908e-03 0
5 4.444699e-03 0
6 4.413973e-03 0
7 4.552914e-03 0
8 4.069233e-03 0
9 4.270804e-03 0
10 4.693270e-03 0
11 4.432582e-03 0
12 4.050441e-03 0
13 3.984965e-03 0
14 3.990080e-03 0
15 3.919643e-03 0
16 3.493377e-03 0
17 3.562111e-03 0
18 3.756903e-03 0
19 3.158411e-03 0
20 2.729215e-03 0
