1 4.960535e-02 0
2 5.198810e-02 0
3 7.442479e-02 0
4 3.911962e-02 0
5 5.880584e-02 0
6 7.580013e-02 0
7 7.087323e-02 0
8 8.816227e-02 0
9 8.282355e-02 0
10 8.737163e-02 0
11 9.171092e-02 0
12 1.154430e-01 0
13 1.178450e-01 0
14 1.565984e-01 0
15 2.148801e-01 0
16 2.060281e-01 0
17 2.055683e-01 0
18 2.135497e-01 0
19 2.893993e-01 0
20 2.440922e-01 0
