Number of events: 50000
Cross section of all events: 0.0161251
Total weight of events: 50000
Total weight of all events normalised to luminosity: 322.502
Total passed weight of all events normalised to luminosity: 2.53409
Acceptance: 0.78576
Correct b-lepton pairing in 0.857295 of the events.
Average number of b jets: 1.60179
