1 4.532376e-01 0
2 4.389136e-01 0
3 4.425761e-01 0
4 4.627075e-01 0
5 4.644141e-01 0
6 5.083851e-01 0
7 5.150682e-01 0
8 5.130113e-01 0
9 5.065905e-01 0
10 4.863321e-01 0
11 4.967259e-01 0
12 4.789910e-01 0
13 4.989182e-01 0
14 5.168854e-01 0
15 4.697961e-01 0
16 4.486126e-01 0
17 4.069501e-01 0
18 4.028906e-01 0
19 3.841782e-01 0
20 4.178639e-01 0
