Number of events: 100000
Cross section of all events: 0.06062
Total weight of events: 100000
Total weight of all events normalised to luminosity: 1212.4
Total passed weight of all events normalised to luminosity: 9.31305
Acceptance: 0.76815
Correct b-lepton pairing in 0.851833 of the events.
Average number of b jets: 1.59722
