# BEGIN PLOT
DrawOnly=/export0/scratch/karl/Work/TopPolarisation/limits/runs_type1/paramcards/yuk_1_point_398836_dir/atom_results.yoda/TopPolarisation/ul1/-1
Legend=1
LogY=1
# END PLOT

# BEGIN HISTO1D /export0/scratch/karl/Work/TopPolarisation/limits/runs_type1/paramcards/yuk_1_point_398836_dir/atom_results.yoda/TopPolarisation/ul1/-1
LineColor={[HTML]{EE3311}}
LineStyle=solid
Path=/export0/scratch/karl/Work/TopPolarisation/limits/runs_type1/paramcards/yuk_1_point_398836_dir/atom_results.yoda/TopPolarisation/ul1/-1
Title=atom_results
# xlow	 xhigh	 val	 errminus	 errplus
0.000000e+00	5.000000e-02	7.300672e-03	3.650336e-03	3.650336e-03
5.000000e-02	1.000000e-01	1.695195e+00	5.659987e-02	5.659987e-02
1.000000e-01	1.500000e-01	1.264345e+01	1.526776e-01	1.526776e-01
1.500000e-01	2.000000e-01	1.949091e+01	1.918686e-01	1.918686e-01
2.000000e-01	2.500000e-01	2.443460e+01	2.114860e-01	2.114860e-01
2.500000e-01	3.000000e-01	2.944666e+01	2.307717e-01	2.307717e-01
3.000000e-01	3.500000e-01	3.110958e+01	2.405852e-01	2.405852e-01
3.500000e-01	4.000000e-01	2.691718e+01	2.217709e-01	2.217709e-01
4.000000e-01	4.500000e-01	2.192370e+01	2.013515e-01	2.013515e-01
4.500000e-01	5.000000e-01	2.346992e+01	2.109410e-01	2.109410e-01
5.000000e-01	5.500000e-01	2.210578e+01	2.019321e-01	2.019321e-01
5.500000e-01	6.000000e-01	2.049804e+01	1.945456e-01	1.945456e-01
6.000000e-01	6.500000e-01	1.958356e+01	1.924503e-01	1.924503e-01
6.500000e-01	7.000000e-01	1.237354e+01	1.514242e-01	1.514242e-01
7.000000e-01	7.500000e-01	1.030318e+01	1.389016e-01	1.389016e-01
7.500000e-01	8.000000e-01	5.107508e+00	9.648308e-02	9.648308e-02
8.000000e-01	8.500000e-01	1.801162e+00	5.760317e-02	5.760317e-02
8.500000e-01	9.000000e-01	1.592406e+00	5.488839e-02	5.488839e-02
9.000000e-01	9.500000e-01	0.000000e+00	0.000000e+00	0.000000e+00
9.500000e-01	1.000000e+00	0.000000e+00	0.000000e+00	0.000000e+00
# END HISTO1D

