1 1.474543e-04 0
2 1.742999e-04 0
3 2.027226e-04 0
4 2.283535e-04 0
5 2.190289e-04 0
6 2.173159e-04 0
7 1.797559e-04 0
8 1.976302e-04 0
9 2.144882e-04 0
10 1.923762e-04 0
11 1.904018e-04 0
12 1.474774e-04 0
13 2.087037e-04 0
14 2.336796e-04 0
15 2.028726e-04 0
16 2.492146e-04 0
17 2.047925e-04 0
18 2.893527e-04 0
19 2.664743e-04 0
20 3.178018e-04 0
