1 0.000000e+00 0
2 0.000000e+00 0
3 3.085707e-05 0
4 5.249102e-04 0
5 6.974674e-04 0
6 6.741431e-04 0
7 7.101659e-04 0
8 6.316015e-04 0
9 5.302100e-04 0
10 4.614810e-04 0
11 3.742962e-04 0
12 3.928130e-04 0
13 2.745913e-04 0
14 3.277018e-04 0
15 2.961711e-04 0
16 1.951836e-04 0
17 2.184591e-04 0
18 1.433408e-04 0
19 1.385782e-04 0
20 1.145391e-04 0
