Number of events: 50000
Cross section of all events: 0.0196889
Total weight of events: 50000
Total weight of all events normalised to luminosity: 393.779
Total passed weight of all events normalised to luminosity: 2.81433
Acceptance: 0.714697
Correct b-lepton pairing in 0.821688 of the events.
Average number of b jets: 1.5744
