Number of events: 50000
Cross section of all events: 0.00507565
Total weight of events: 50000
Total weight of all events normalised to luminosity: 101.513
Total passed weight of all events normalised to luminosity: 0.585915
Acceptance: 0.577182
Correct b-lepton pairing in 0.861616 of the events.
Average number of b jets: 1.53147
