Number of events: 100000
Cross section of all events: 0.0178196
Total weight of events: 100000
Total weight of all events normalised to luminosity: 356.391
Total passed weight of all events normalised to luminosity: 2.19001
Acceptance: 0.614495
Correct b-lepton pairing in 0.837179 of the events.
Average number of b jets: 1.55486
