Number of events: 50000
Cross section of all events: 0.0303217
Total weight of events: 50000
Total weight of all events normalised to luminosity: 606.435
Total passed weight of all events normalised to luminosity: 3.72489
Acceptance: 0.614228
Correct b-lepton pairing in 0.858383 of the events.
Average number of b jets: 1.56173
