Number of events: 100000
Cross section of all events: 0.00187427
Total weight of events: 100000
Total weight of all events normalised to luminosity: 37.4854
Total passed weight of all events normalised to luminosity: 0.219712
Acceptance: 0.586128
Correct b-lepton pairing in 0.846809 of the events.
Average number of b jets: 1.53855
