Number of events: 50000
Cross section of all events: 0.00146567
Total weight of events: 50000
Total weight of all events normalised to luminosity: 29.3134
Total passed weight of all events normalised to luminosity: 0.236198
Acceptance: 0.805765
Correct b-lepton pairing in 0.861941 of the events.
Average number of b jets: 1.60152
