Number of events: 100000
Cross section of all events: 0.000457577
Total weight of events: 100000
Total weight of all events normalised to luminosity: 9.15154
Total passed weight of all events normalised to luminosity: 0.0639521
Acceptance: 0.698812
Correct b-lepton pairing in 0.832256 of the events.
Average number of b jets: 1.56324
