Number of events: 100000
Cross section of all events: 0.046679
Total weight of events: 100000
Total weight of all events normalised to luminosity: 933.581
Total passed weight of all events normalised to luminosity: 7.05431
Acceptance: 0.755619
Correct b-lepton pairing in 0.850513 of the events.
Average number of b jets: 1.59318
