Number of events: 100000
Cross section of all events: 0.058469
Total weight of events: 100000
Total weight of all events normalised to luminosity: 1169.38
Total passed weight of all events normalised to luminosity: 8.64209
Acceptance: 0.739032
Correct b-lepton pairing in 0.854645 of the events.
Average number of b jets: 1.58391
