1 0.000000e+00 0
2 0.000000e+00 0
3 1.733719e-02 0
4 6.757124e-01 0
5 1.016324e+00 0
6 1.151085e+00 0
7 1.078110e+00 0
8 8.839446e-01 0
9 8.233731e-01 0
10 7.682461e-01 0
11 6.532645e-01 0
12 6.381804e-01 0
13 4.405753e-01 0
14 5.384534e-01 0
15 3.165123e-01 0
16 3.864252e-01 0
17 3.167993e-01 0
18 2.354585e-01 0
19 1.827068e-01 0
20 1.814740e-01 0
