1 0.000000e+00 0
2 2.536774e-04 0
3 4.134600e-01 0
4 1.229572e+00 0
5 2.347382e+00 0
6 2.246159e+00 0
7 2.258998e+00 0
8 1.967161e+00 0
9 1.619243e+00 0
10 1.372872e+00 0
11 9.415902e-01 0
12 4.483372e-01 0
13 5.888591e-01 0
14 3.918728e-01 0
15 2.407550e-01 0
16 2.278727e-01 0
17 1.969893e-01 0
18 1.106950e-01 0
19 1.247717e-01 0
20 1.519373e-02 0
