1 1.352651e-05 0
2 2.144766e-05 0
3 2.222129e-05 0
4 1.489896e-05 0
5 2.341586e-05 0
6 2.290909e-05 0
7 2.323229e-05 0
8 2.873049e-05 0
9 3.185631e-05 0
10 3.546788e-05 0
11 3.104325e-05 0
12 4.194592e-05 0
13 3.991673e-05 0
14 4.707049e-05 0
15 5.532731e-05 0
16 8.264690e-05 0
17 6.292170e-05 0
18 7.766716e-05 0
19 9.522784e-05 0
20 9.009349e-05 0
