Number of events: 50000
Cross section of all events: 0.00931364
Total weight of events: 50000
Total weight of all events normalised to luminosity: 186.273
Total passed weight of all events normalised to luminosity: 1.28027
Acceptance: 0.687309
Correct b-lepton pairing in 0.842442 of the events.
Average number of b jets: 1.5571
