1 6.954966e-02 0
2 2.187721e-01 0
3 4.788386e-01 0
4 8.471690e-01 0
5 1.232699e+00 0
6 1.984418e+00 0
7 2.684010e+00 0
8 3.959793e+00 0
9 5.531707e+00 0
10 9.673817e+00 0
11 9.625079e+00 0
12 5.092424e+00 0
13 3.599968e+00 0
14 2.583546e+00 0
15 1.701095e+00 0
16 1.093996e+00 0
17 6.900549e-01 0
18 3.448232e-01 0
19 1.193461e-01 0
20 9.028934e-03 0
