1 6.596961e-02 0
2 7.458201e-02 0
3 6.566568e-02 0
4 6.424451e-02 0
5 6.129647e-02 0
6 6.051690e-02 0
7 6.102133e-02 0
8 5.896910e-02 0
9 5.401373e-02 0
10 5.554465e-02 0
11 6.032772e-02 0
12 5.700130e-02 0
13 6.142495e-02 0
14 6.315774e-02 0
15 6.171119e-02 0
16 6.239170e-02 0
17 6.308636e-02 0
18 6.117065e-02 0
19 6.623511e-02 0
20 6.871364e-02 0
