Number of events: 50000
Cross section of all events: 2.47693
Total weight of events: 50000
Total weight of all events normalised to luminosity: 49538.6
Total passed weight of all events normalised to luminosity: 334.263
Acceptance: 0.674754
Correct b-lepton pairing in 0.838762 of the events.
Average number of b jets: 1.55779
