Number of events: 50000
Cross section of all events: 0.00157178
Total weight of events: 50000
Total weight of all events normalised to luminosity: 31.4356
Total passed weight of all events normalised to luminosity: 0.228817
Acceptance: 0.727892
Correct b-lepton pairing in 0.867474 of the events.
Average number of b jets: 1.58449
