1 1.066681e-04 0
2 2.478727e-04 0
3 4.430721e-04 0
4 7.569574e-04 0
5 9.612681e-04 0
6 9.471865e-04 0
7 1.512849e-03 0
8 1.914983e-03 0
9 2.329169e-03 0
10 4.707317e-03 0
11 4.269065e-03 0
12 2.340420e-03 0
13 1.586098e-03 0
14 1.076411e-03 0
15 8.144068e-04 0
16 6.564288e-04 0
17 4.571725e-04 0
18 3.078865e-04 0
19 2.275608e-04 0
20 1.021677e-04 0
