1 1.687283e-01 0
2 1.421667e-01 0
3 1.668406e-01 0
4 1.696076e-01 0
5 1.523841e-01 0
6 2.434693e-01 0
7 2.436086e-01 0
8 2.372272e-01 0
9 2.727398e-01 0
10 3.028149e-01 0
11 3.335844e-01 0
12 3.463954e-01 0
13 3.802983e-01 0
14 5.272442e-01 0
15 5.758434e-01 0
16 6.816874e-01 0
17 7.008354e-01 0
18 7.302992e-01 0
19 8.220576e-01 0
20 9.677864e-01 0
